<?xml version="1.0" encoding="UTF-8" standalone="no"?>
<!-- Created with Inkscape (http://www.inkscape.org/) -->

<svg
   xmlns:dc="http://purl.org/dc/elements/1.1/"
   xmlns:cc="http://creativecommons.org/ns#"
   xmlns:rdf="http://www.w3.org/1999/02/22-rdf-syntax-ns#"
   xmlns:svg="http://www.w3.org/2000/svg"
   xmlns="http://www.w3.org/2000/svg"
   xmlns:sodipodi="http://sodipodi.sourceforge.net/DTD/sodipodi-0.dtd"
   xmlns:inkscape="http://www.inkscape.org/namespaces/inkscape"
   width="150.4565mm"
   height="87.418564mm"
   viewBox="0 0 150.45649 87.418564"
   version="1.1"
   id="svg8"
   inkscape:version="0.92.4 (5da689c313, 2019-01-14)"
   sodipodi:docname="twosetofcoils.svg">
  <defs
     id="defs2">
    <marker
       inkscape:isstock="true"
       style="overflow:visible"
       id="marker1718"
       refX="0"
       refY="0"
       orient="auto"
       inkscape:stockid="Arrow1Lend">
      <path
         transform="matrix(-0.8,0,0,-0.8,-10,0)"
         style="fill:#000000;fill-opacity:1;fill-rule:evenodd;stroke:#000000;stroke-width:1.00000003pt;stroke-opacity:1"
         d="M 0,0 5,-5 -12.5,0 5,5 Z"
         id="path1716"
         inkscape:connector-curvature="0" />
    </marker>
    <marker
       inkscape:isstock="true"
       style="overflow:visible"
       id="marker1672"
       refX="0"
       refY="0"
       orient="auto"
       inkscape:stockid="Arrow1Lstart">
      <path
         transform="matrix(0.8,0,0,0.8,10,0)"
         style="fill:#000000;fill-opacity:1;fill-rule:evenodd;stroke:#000000;stroke-width:1.00000003pt;stroke-opacity:1"
         d="M 0,0 5,-5 -12.5,0 5,5 Z"
         id="path1670"
         inkscape:connector-curvature="0" />
    </marker>
    <marker
       inkscape:stockid="Arrow1Lend"
       orient="auto"
       refY="0"
       refX="0"
       id="Arrow1Lend"
       style="overflow:visible"
       inkscape:isstock="true"
       inkscape:collect="always">
      <path
         id="path1353"
         d="M 0,0 5,-5 -12.5,0 5,5 Z"
         style="fill:#000000;fill-opacity:1;fill-rule:evenodd;stroke:#000000;stroke-width:1.00000003pt;stroke-opacity:1"
         transform="matrix(-0.8,0,0,-0.8,-10,0)"
         inkscape:connector-curvature="0" />
    </marker>
    <marker
       inkscape:stockid="Arrow1Lstart"
       orient="auto"
       refY="0"
       refX="0"
       id="Arrow1Lstart"
       style="overflow:visible"
       inkscape:isstock="true"
       inkscape:collect="always">
      <path
         id="path1350"
         d="M 0,0 5,-5 -12.5,0 5,5 Z"
         style="fill:#000000;fill-opacity:1;fill-rule:evenodd;stroke:#000000;stroke-width:1.00000003pt;stroke-opacity:1"
         transform="matrix(0.8,0,0,0.8,10,0)"
         inkscape:connector-curvature="0" />
    </marker>
    <inkscape:path-effect
       effect="spiro"
       id="path-effect1348"
       is_visible="true" />
    <inkscape:path-effect
       effect="spiro"
       id="path-effect1344"
       is_visible="true" />
    <inkscape:path-effect
       effect="spiro"
       id="path-effect1296"
       is_visible="true" />
    <inkscape:path-effect
       effect="spiro"
       id="path-effect1272"
       is_visible="true" />
    <inkscape:path-effect
       effect="spiro"
       id="path-effect1268"
       is_visible="true" />
    <inkscape:path-effect
       effect="spiro"
       id="path-effect1264"
       is_visible="true" />
    <inkscape:path-effect
       effect="spiro"
       id="path-effect1260"
       is_visible="true" />
    <inkscape:path-effect
       effect="spiro"
       id="path-effect1226"
       is_visible="true" />
    <inkscape:path-effect
       effect="spiro"
       id="path-effect1222"
       is_visible="true" />
    <inkscape:path-effect
       effect="spiro"
       id="path-effect1008"
       is_visible="true" />
    <inkscape:path-effect
       effect="spiro"
       id="path-effect1004"
       is_visible="true" />
    <inkscape:path-effect
       effect="spiro"
       id="path-effect1000"
       is_visible="true" />
    <inkscape:path-effect
       effect="spiro"
       id="path-effect912"
       is_visible="true" />
    <inkscape:path-effect
       effect="spiro"
       id="path-effect908"
       is_visible="true" />
    <inkscape:path-effect
       effect="spiro"
       id="path-effect933"
       is_visible="true" />
    <inkscape:path-effect
       effect="spiro"
       id="path-effect929"
       is_visible="true" />
    <inkscape:path-effect
       effect="spiro"
       id="path-effect925"
       is_visible="true" />
    <inkscape:path-effect
       effect="spiro"
       id="path-effect867"
       is_visible="true" />
    <inkscape:path-effect
       effect="spiro"
       id="path-effect863"
       is_visible="true" />
    <inkscape:path-effect
       effect="spiro"
       id="path-effect859"
       is_visible="true" />
    <inkscape:path-effect
       effect="spiro"
       id="path-effect855"
       is_visible="true" />
    <inkscape:path-effect
       effect="spiro"
       id="path-effect833"
       is_visible="true" />
    <inkscape:path-effect
       effect="spiro"
       id="path-effect829"
       is_visible="true" />
    <inkscape:path-effect
       effect="spiro"
       id="path-effect825"
       is_visible="true" />
    <inkscape:path-effect
       effect="spiro"
       id="path-effect821"
       is_visible="true" />
    <inkscape:path-effect
       effect="spiro"
       id="path-effect817"
       is_visible="true" />
    <inkscape:path-effect
       effect="spiro"
       id="path-effect833-6"
       is_visible="true" />
    <inkscape:path-effect
       effect="spiro"
       id="path-effect867-3"
       is_visible="true" />
    <inkscape:path-effect
       effect="spiro"
       id="path-effect833-6-8"
       is_visible="true" />
    <inkscape:path-effect
       effect="spiro"
       id="path-effect833-6-8-2"
       is_visible="true" />
    <inkscape:path-effect
       effect="spiro"
       id="path-effect929-5"
       is_visible="true" />
    <inkscape:path-effect
       effect="spiro"
       id="path-effect925-5"
       is_visible="true" />
    <inkscape:path-effect
       effect="spiro"
       id="path-effect833-6-8-2-2"
       is_visible="true" />
    <inkscape:path-effect
       effect="spiro"
       id="path-effect833-6-8-23"
       is_visible="true" />
    <inkscape:path-effect
       effect="spiro"
       id="path-effect863-4"
       is_visible="true" />
    <inkscape:path-effect
       effect="spiro"
       id="path-effect859-8"
       is_visible="true" />
    <inkscape:path-effect
       effect="spiro"
       id="path-effect855-6"
       is_visible="true" />
    <inkscape:path-effect
       effect="spiro"
       id="path-effect833-6-6"
       is_visible="true" />
    <inkscape:path-effect
       effect="spiro"
       id="path-effect833-66"
       is_visible="true" />
    <inkscape:path-effect
       effect="spiro"
       id="path-effect855-6-8"
       is_visible="true" />
    <inkscape:path-effect
       effect="spiro"
       id="path-effect912-5"
       is_visible="true" />
    <inkscape:path-effect
       effect="spiro"
       id="path-effect908-0"
       is_visible="true" />
    <inkscape:path-effect
       effect="spiro"
       id="path-effect929-5-6"
       is_visible="true" />
    <inkscape:path-effect
       effect="spiro"
       id="path-effect833-6-8-2-2-5"
       is_visible="true" />
    <inkscape:path-effect
       effect="spiro"
       id="path-effect863-4-7"
       is_visible="true" />
    <inkscape:path-effect
       effect="spiro"
       id="path-effect859-8-4"
       is_visible="true" />
    <inkscape:path-effect
       effect="spiro"
       id="path-effect833-6-6-0"
       is_visible="true" />
    <inkscape:path-effect
       effect="spiro"
       id="path-effect833-66-6"
       is_visible="true" />
    <inkscape:path-effect
       effect="spiro"
       id="path-effect855-6-3"
       is_visible="true" />
    <inkscape:path-effect
       effect="spiro"
       id="path-effect1008-0"
       is_visible="true" />
    <inkscape:path-effect
       effect="spiro"
       id="path-effect1004-2"
       is_visible="true" />
    <inkscape:path-effect
       effect="spiro"
       id="path-effect929-5-6-4"
       is_visible="true" />
    <inkscape:path-effect
       effect="spiro"
       id="path-effect833-6-8-2-2-5-8"
       is_visible="true" />
    <inkscape:path-effect
       effect="spiro"
       id="path-effect863-4-7-1"
       is_visible="true" />
    <inkscape:path-effect
       effect="spiro"
       id="path-effect833-6-6-0-3"
       is_visible="true" />
    <inkscape:path-effect
       effect="spiro"
       id="path-effect855-6-3-2"
       is_visible="true" />
    <inkscape:path-effect
       effect="spiro"
       id="path-effect833-66-6-0"
       is_visible="true" />
    <inkscape:path-effect
       effect="spiro"
       id="path-effect1008-3"
       is_visible="true" />
    <inkscape:path-effect
       effect="spiro"
       id="path-effect1004-7"
       is_visible="true" />
    <inkscape:path-effect
       effect="spiro"
       id="path-effect929-5-6-5"
       is_visible="true" />
    <inkscape:path-effect
       effect="spiro"
       id="path-effect833-6-8-2-2-5-6"
       is_visible="true" />
    <inkscape:path-effect
       effect="spiro"
       id="path-effect859-8-4-3"
       is_visible="true" />
    <inkscape:path-effect
       effect="spiro"
       id="path-effect863-4-7-3"
       is_visible="true" />
    <inkscape:path-effect
       effect="spiro"
       id="path-effect833-6-6-0-0"
       is_visible="true" />
    <inkscape:path-effect
       effect="spiro"
       id="path-effect855-6-3-0"
       is_visible="true" />
    <inkscape:path-effect
       effect="spiro"
       id="path-effect833-66-6-03"
       is_visible="true" />
    <inkscape:path-effect
       effect="spiro"
       id="path-effect912-1"
       is_visible="true" />
    <inkscape:path-effect
       effect="spiro"
       id="path-effect908-9"
       is_visible="true" />
    <inkscape:path-effect
       effect="spiro"
       id="path-effect929-5-1"
       is_visible="true" />
    <inkscape:path-effect
       effect="spiro"
       id="path-effect833-6-8-2-2-8"
       is_visible="true" />
    <inkscape:path-effect
       effect="spiro"
       id="path-effect863-4-0"
       is_visible="true" />
    <inkscape:path-effect
       effect="spiro"
       id="path-effect859-8-5"
       is_visible="true" />
    <inkscape:path-effect
       effect="spiro"
       id="path-effect833-6-6-8"
       is_visible="true" />
    <inkscape:path-effect
       effect="spiro"
       id="path-effect855-6-1"
       is_visible="true" />
    <inkscape:path-effect
       effect="spiro"
       id="path-effect833-66-2"
       is_visible="true" />
    <inkscape:path-effect
       effect="spiro"
       id="path-effect859-8-5-6"
       is_visible="true" />
    <inkscape:path-effect
       effect="spiro"
       id="path-effect929-5-6-0"
       is_visible="true" />
    <inkscape:path-effect
       effect="spiro"
       id="path-effect1296-8"
       is_visible="true" />
    <inkscape:path-effect
       effect="spiro"
       id="path-effect1296-0"
       is_visible="true" />
    <inkscape:path-effect
       effect="spiro"
       id="path-effect1296-4"
       is_visible="true" />
  </defs>
  <sodipodi:namedview
     id="base"
     pagecolor="#ffffff"
     bordercolor="#666666"
     borderopacity="1.0"
     inkscape:pageopacity="0.0"
     inkscape:pageshadow="2"
     inkscape:zoom="2.2482694"
     inkscape:cx="422.17036"
     inkscape:cy="128.24452"
     inkscape:document-units="mm"
     inkscape:current-layer="layer1"
     showgrid="false"
     inkscape:window-width="3200"
     inkscape:window-height="1644"
     inkscape:window-x="-16"
     inkscape:window-y="-16"
     inkscape:window-maximized="1"
     fit-margin-top="0"
     fit-margin-left="0"
     fit-margin-right="0"
     fit-margin-bottom="0" />
  <metadata
     id="metadata5">
    <rdf:RDF>
      <cc:Work
         rdf:about="">
        <dc:format>image/svg+xml</dc:format>
        <dc:type
           rdf:resource="http://purl.org/dc/dcmitype/StillImage" />
        <dc:title></dc:title>
      </cc:Work>
    </rdf:RDF>
  </metadata>
  <g
     inkscape:label="Layer 1"
     inkscape:groupmode="layer"
     id="layer1"
     transform="translate(52.911804,-231.92653)">
    <path
       style="fill:#ff0000;stroke:#ff0000;stroke-width:0.40000001;stroke-linecap:butt;stroke-linejoin:round;stroke-miterlimit:4;stroke-dasharray:none;stroke-opacity:1"
       d="M 80.155663,68.68216 122.06665,87.8045"
       id="path831"
       inkscape:connector-curvature="0"
       inkscape:path-effect="#path-effect833"
       inkscape:original-d="M 80.155663,68.68216 122.06665,87.8045"
       transform="translate(-79.980663,183.53131)" />
    <path
       transform="translate(-79.980663,203.01309)"
       style="fill:#ff0000;stroke:#ff0000;stroke-width:0.40000001;stroke-linecap:butt;stroke-linejoin:round;stroke-miterlimit:4;stroke-dasharray:none;stroke-opacity:1"
       d="M 80.155663,68.68216 122.06665,87.8045"
       id="path831-6"
       inkscape:connector-curvature="0"
       inkscape:path-effect="#path-effect833-6"
       inkscape:original-d="M 80.155663,68.68216 122.06665,87.8045" />
    <path
       style="fill:#ff0000;stroke:#ff0000;stroke-width:0.40000001;stroke-linecap:butt;stroke-linejoin:round;stroke-miterlimit:4;stroke-dasharray:none;stroke-opacity:1"
       d="M 0.054914,68.68216 V 88.163939"
       id="path853"
       inkscape:connector-curvature="0"
       inkscape:path-effect="#path-effect855"
       inkscape:original-d="M 0.054914,68.68216 V 88.163939"
       transform="translate(0.120086,183.53131)" />
    <path
       style="fill:#ff0000;stroke:#ff0000;stroke-width:0.40000001;stroke-linecap:butt;stroke-linejoin:round;stroke-miterlimit:4;stroke-dasharray:none;stroke-opacity:1"
       d="m 41.965901,87.8045 v 7.04507"
       id="path857"
       inkscape:connector-curvature="0"
       inkscape:path-effect="#path-effect859"
       inkscape:original-d="m 41.965901,87.8045 v 7.04507"
       transform="translate(0.120086,183.53131)" />
    <path
       style="fill:#ff0000;stroke:#ff0000;stroke-width:0.41834953;stroke-linecap:butt;stroke-linejoin:round;stroke-miterlimit:4;stroke-dasharray:none;stroke-opacity:1"
       d="M 41.965901,107.28628 V 98.515883"
       id="path861"
       inkscape:connector-curvature="0"
       inkscape:path-effect="#path-effect863"
       inkscape:original-d="M 41.965901,107.28628 V 98.515883"
       transform="matrix(1,0,0,0.91420046,0.120086,192.73642)" />
    <path
       transform="matrix(0.25004206,0,0,0.25004206,22.037991,261.19494)"
       style="fill:#ff0000;stroke:#ff0000;stroke-width:1.59973085;stroke-linecap:butt;stroke-linejoin:round;stroke-miterlimit:4;stroke-dasharray:none;stroke-opacity:1"
       d="M 80.155663,68.68216 122.06665,87.8045"
       id="path831-6-6"
       inkscape:connector-curvature="0"
       inkscape:path-effect="#path-effect833-6-8"
       inkscape:original-d="M 80.155663,68.68216 122.06665,87.8045" />
    <path
       transform="matrix(0.19063945,0,0,0.19063945,26.705212,269.7973)"
       style="fill:#ff0000;stroke:#ff0000;stroke-width:2.09820151;stroke-linecap:butt;stroke-linejoin:round;stroke-miterlimit:4;stroke-dasharray:none;stroke-opacity:1"
       d="M 80.155663,68.68216 122.06665,87.8045"
       id="path831-6-6-5"
       inkscape:connector-curvature="0"
       inkscape:path-effect="#path-effect833-6-8-2"
       inkscape:original-d="M 80.155663,68.68216 122.06665,87.8045" />
    <path
       style="fill:#ff0000;stroke:#ff0000;stroke-width:0.40000001;stroke-linecap:butt;stroke-linejoin:round;stroke-miterlimit:4;stroke-dasharray:none;stroke-opacity:1"
       d="M 52.439702,99.618447 V 113.46869"
       id="path923"
       inkscape:connector-curvature="0"
       inkscape:path-effect="#path-effect925"
       inkscape:original-d="M 52.439702,99.618447 V 113.46869"
       transform="translate(0.120086,183.53131)" />
    <path
       style="fill:#ff0000;stroke:#ff0000;stroke-width:0.40985796;stroke-linecap:butt;stroke-linejoin:round;stroke-miterlimit:4;stroke-dasharray:none;stroke-opacity:1"
       d="m 49.952526,102.15421 v 11.02692"
       id="path927"
       inkscape:connector-curvature="0"
       inkscape:path-effect="#path-effect929"
       inkscape:original-d="m 49.952526,102.15421 v 11.02692"
       transform="matrix(1,0,0,0.95247421,0.120086,189.19789)" />
    <path
       style="fill:#ff0000;stroke:#0000ff;stroke-width:0.40000001;stroke-linecap:butt;stroke-linejoin:round;stroke-miterlimit:4;stroke-dasharray:none;stroke-opacity:1"
       d="M 80.155663,68.68216 122.06665,87.8045"
       id="path831-7"
       inkscape:connector-curvature="0"
       inkscape:path-effect="#path-effect833-66"
       inkscape:original-d="M 80.155663,68.68216 122.06665,87.8045"
       transform="translate(-59.980663,183.53131)" />
    <path
       transform="translate(-59.980663,203.01309)"
       style="fill:#ff0000;stroke:#0000ff;stroke-width:0.40000001;stroke-linecap:butt;stroke-linejoin:round;stroke-miterlimit:4;stroke-dasharray:none;stroke-opacity:1"
       d="M 80.155663,68.68216 122.06665,87.8045"
       id="path831-6-0"
       inkscape:connector-curvature="0"
       inkscape:path-effect="#path-effect833-6-6"
       inkscape:original-d="M 80.155663,68.68216 122.06665,87.8045" />
    <path
       transform="translate(20.120086,183.53131)"
       style="fill:#ff0000;stroke:#0000ff;stroke-width:0.40000001;stroke-linecap:butt;stroke-linejoin:round;stroke-miterlimit:4;stroke-dasharray:none;stroke-opacity:1"
       d="M 0.054914,68.68216 V 88.163939"
       id="path853-3"
       inkscape:connector-curvature="0"
       inkscape:path-effect="#path-effect855-6"
       inkscape:original-d="M 0.054914,68.68216 V 88.163939" />
    <path
       transform="translate(20.120086,183.53131)"
       style="fill:#ff0000;stroke:#0000ff;stroke-width:0.40000001;stroke-linecap:butt;stroke-linejoin:round;stroke-miterlimit:4;stroke-dasharray:none;stroke-opacity:1"
       d="m 41.965901,87.8045 v 7.04507"
       id="path857-6"
       inkscape:connector-curvature="0"
       inkscape:path-effect="#path-effect859-8"
       inkscape:original-d="m 41.965901,87.8045 v 7.04507" />
    <path
       transform="translate(20.120086,183.53131)"
       style="fill:#ff0000;stroke:#0000ff;stroke-width:0.40000001;stroke-linecap:butt;stroke-linejoin:round;stroke-miterlimit:4;stroke-dasharray:none;stroke-opacity:1"
       d="M 41.965901,107.28628 V 98.515883"
       id="path861-5"
       inkscape:connector-curvature="0"
       inkscape:path-effect="#path-effect863-4"
       inkscape:original-d="M 41.965901,107.28628 V 98.515883" />
    <path
       transform="matrix(0.12399505,0,0,0.12399505,52.118424,273.46814)"
       style="fill:#ff0000;stroke:#0000ff;stroke-width:3.22593522;stroke-linecap:butt;stroke-linejoin:round;stroke-miterlimit:4;stroke-dasharray:none;stroke-opacity:1"
       d="M 80.155663,68.68216 122.06665,87.8045"
       id="path831-6-6-5-4"
       inkscape:connector-curvature="0"
       inkscape:path-effect="#path-effect833-6-8-2-2"
       inkscape:original-d="M 80.155663,68.68216 122.06665,87.8045" />
    <path
       style="fill:none;stroke:#0000ff;stroke-width:0.40000001;stroke-linecap:butt;stroke-linejoin:round;stroke-miterlimit:4;stroke-dasharray:none;stroke-opacity:1"
       d="M 67.254082,301.89058 H 61.417763"
       id="path906"
       inkscape:connector-curvature="0"
       inkscape:path-effect="#path-effect908"
       inkscape:original-d="M 67.254082,301.89058 H 61.417763"
       transform="translate(2e-6,-2.3976738)" />
    <path
       style="fill:none;stroke:#0000ff;stroke-width:0.40000001;stroke-linecap:butt;stroke-linejoin:round;stroke-miterlimit:4;stroke-dasharray:none;stroke-opacity:1"
       d="m 61.417763,301.89058 v 6.64917"
       id="path910"
       inkscape:connector-curvature="0"
       inkscape:path-effect="#path-effect912"
       inkscape:original-d="m 61.417763,301.89058 v 6.64917"
       transform="translate(2e-6,-2.3976738)" />
    <path
       style="fill:#ff0000;stroke:#0000ff;stroke-width:0.40000001;stroke-linecap:butt;stroke-linejoin:round;stroke-miterlimit:4;stroke-dasharray:none;stroke-opacity:1"
       d="M 80.155663,68.68216 122.06665,87.8045"
       id="path831-7-0"
       inkscape:connector-curvature="0"
       inkscape:path-effect="#path-effect833-66-6"
       inkscape:original-d="M 80.155663,68.68216 122.06665,87.8045"
       transform="translate(-99.980665,183.53156)" />
    <path
       transform="translate(-99.980665,203.01334)"
       style="fill:#ff0000;stroke:#0000ff;stroke-width:0.40000001;stroke-linecap:butt;stroke-linejoin:round;stroke-miterlimit:4;stroke-dasharray:none;stroke-opacity:1"
       d="M 80.155663,68.68216 122.06665,87.8045"
       id="path831-6-0-5"
       inkscape:connector-curvature="0"
       inkscape:path-effect="#path-effect833-6-6-0"
       inkscape:original-d="M 80.155663,68.68216 122.06665,87.8045" />
    <path
       transform="translate(-19.879914,183.53156)"
       style="fill:#ff0000;stroke:#0000ff;stroke-width:0.40000001;stroke-linecap:butt;stroke-linejoin:round;stroke-miterlimit:4;stroke-dasharray:none;stroke-opacity:1"
       d="M 0.054914,68.68216 V 88.163939"
       id="path853-3-3"
       inkscape:connector-curvature="0"
       inkscape:path-effect="#path-effect855-6-3"
       inkscape:original-d="M 0.054914,68.68216 V 88.163939" />
    <path
       transform="translate(-19.879914,183.53156)"
       style="fill:#ff0000;stroke:#0000ff;stroke-width:0.40000001;stroke-linecap:butt;stroke-linejoin:round;stroke-miterlimit:4;stroke-dasharray:none;stroke-opacity:1"
       d="m 41.965901,87.8045 v 7.04507"
       id="path857-6-0"
       inkscape:connector-curvature="0"
       inkscape:path-effect="#path-effect859-8-4"
       inkscape:original-d="m 41.965901,87.8045 v 7.04507" />
    <path
       transform="translate(-19.879914,183.53156)"
       style="fill:#ff0000;stroke:#0000ff;stroke-width:0.40000001;stroke-linecap:butt;stroke-linejoin:round;stroke-miterlimit:4;stroke-dasharray:none;stroke-opacity:1"
       d="M 41.965901,107.28628 V 98.515883"
       id="path861-5-1"
       inkscape:connector-curvature="0"
       inkscape:path-effect="#path-effect863-4-7"
       inkscape:original-d="M 41.965901,107.28628 V 98.515883" />
    <path
       transform="matrix(0.12399505,0,0,0.12399505,12.118424,273.4684)"
       style="fill:#ff0000;stroke:#0000ff;stroke-width:3.22593522;stroke-linecap:butt;stroke-linejoin:round;stroke-miterlimit:4;stroke-dasharray:none;stroke-opacity:1"
       d="M 80.155663,68.68216 122.06665,87.8045"
       id="path831-6-6-5-4-2"
       inkscape:connector-curvature="0"
       inkscape:path-effect="#path-effect833-6-8-2-2-5"
       inkscape:original-d="M 80.155663,68.68216 122.06665,87.8045" />
    <path
       transform="matrix(1,0,0,1.372772,-22.698442,144.12128)"
       style="fill:#ff0000;stroke:#0000ff;stroke-width:0.34139785;stroke-linecap:butt;stroke-linejoin:round;stroke-miterlimit:4;stroke-dasharray:none;stroke-opacity:1"
       d="m 49.952526,102.15421 v 11.02692"
       id="path927-6-1"
       inkscape:connector-curvature="0"
       inkscape:path-effect="#path-effect929-5-6"
       inkscape:original-d="m 49.952526,102.15421 v 11.02692" />
    <path
       style="fill:none;stroke:#0000ff;stroke-width:0.40000001;stroke-linecap:butt;stroke-linejoin:round;stroke-miterlimit:4;stroke-dasharray:none;stroke-opacity:1"
       d="M 22.085987,278.38114 H 62.03026"
       id="path998"
       inkscape:connector-curvature="0"
       inkscape:path-effect="#path-effect1000"
       inkscape:original-d="M 22.085987,278.38114 H 62.03026" />
    <path
       style="fill:none;stroke:#0000ff;stroke-width:0.40000001;stroke-linecap:butt;stroke-linejoin:round;stroke-miterlimit:4;stroke-dasharray:none;stroke-opacity:1"
       d="m 27.254083,301.89085 h 9.793915"
       id="path1002"
       inkscape:connector-curvature="0"
       inkscape:path-effect="#path-effect1004"
       inkscape:original-d="m 27.254083,301.89085 h 9.793915"
       transform="translate(1e-6,-2.3976838)" />
    <path
       style="fill:none;stroke:#0000ff;stroke-width:0.38529912;stroke-linecap:butt;stroke-linejoin:round;stroke-miterlimit:4;stroke-dasharray:none;stroke-opacity:1"
       d="m 37.047998,301.89085 v 6.16939"
       id="path1006"
       inkscape:connector-curvature="0"
       inkscape:path-effect="#path-effect1008"
       inkscape:original-d="m 37.047998,301.89085 v 6.16939"
       transform="matrix(1,0,0,1.0777646,1e-6,-25.874105)" />
    <path
       style="fill:#ff0000;stroke:#008000;stroke-width:0.40000001;stroke-linecap:butt;stroke-linejoin:round;stroke-miterlimit:4;stroke-dasharray:none;stroke-opacity:1"
       d="M 80.155663,68.68216 122.06665,87.8045"
       id="path831-7-0-1"
       inkscape:connector-curvature="0"
       inkscape:path-effect="#path-effect833-66-6-03"
       inkscape:original-d="M 80.155663,68.68216 122.06665,87.8045"
       transform="translate(-129.98066,183.53154)" />
    <path
       transform="translate(-129.98066,203.01332)"
       style="fill:#ff0000;stroke:#008000;stroke-width:0.40000001;stroke-linecap:butt;stroke-linejoin:round;stroke-miterlimit:4;stroke-dasharray:none;stroke-opacity:1"
       d="M 80.155663,68.68216 122.06665,87.8045"
       id="path831-6-0-5-6"
       inkscape:connector-curvature="0"
       inkscape:path-effect="#path-effect833-6-6-0-0"
       inkscape:original-d="M 80.155663,68.68216 122.06665,87.8045" />
    <path
       transform="translate(-49.879914,183.53154)"
       style="fill:#ff0000;stroke:#008000;stroke-width:0.40000001;stroke-linecap:butt;stroke-linejoin:round;stroke-miterlimit:4;stroke-dasharray:none;stroke-opacity:1"
       d="M 0.054914,68.68216 V 88.163939"
       id="path853-3-3-7"
       inkscape:connector-curvature="0"
       inkscape:path-effect="#path-effect855-6-3-0"
       inkscape:original-d="M 0.054914,68.68216 V 88.163939" />
    <path
       transform="translate(-49.879914,183.53154)"
       style="fill:#ff0000;stroke:#008000;stroke-width:0.40000001;stroke-linecap:butt;stroke-linejoin:round;stroke-miterlimit:4;stroke-dasharray:none;stroke-opacity:1"
       d="M 41.965901,107.28628 V 98.515883"
       id="path861-5-1-4"
       inkscape:connector-curvature="0"
       inkscape:path-effect="#path-effect863-4-7-3"
       inkscape:original-d="M 41.965901,107.28628 V 98.515883" />
    <path
       transform="matrix(0.12399505,0,0,0.12399505,-17.881576,273.4684)"
       style="fill:#ff0000;stroke:#008000;stroke-width:3.22593522;stroke-linecap:butt;stroke-linejoin:round;stroke-miterlimit:4;stroke-dasharray:none;stroke-opacity:1"
       d="M 80.155663,68.68216 122.06665,87.8045"
       id="path831-6-6-5-4-2-5"
       inkscape:connector-curvature="0"
       inkscape:path-effect="#path-effect833-6-8-2-2-5-6"
       inkscape:original-d="M 80.155663,68.68216 122.06665,87.8045" />
    <path
       style="fill:none;stroke:#008000;stroke-width:0.38529912;stroke-linecap:butt;stroke-linejoin:round;stroke-miterlimit:4;stroke-dasharray:none;stroke-opacity:1"
       d="m 37.047998,301.89085 v 6.16939"
       id="path1006-3"
       inkscape:connector-curvature="0"
       inkscape:path-effect="#path-effect1008-3"
       inkscape:original-d="m 37.047998,301.89085 v 6.16939"
       transform="matrix(1,0,0,1.0777646,-3.5296545,-14.476421)" />
    <path
       style="fill:#ff0000;stroke:#008000;stroke-width:0.40000001;stroke-linecap:butt;stroke-linejoin:round;stroke-miterlimit:4;stroke-dasharray:none;stroke-opacity:1"
       d="M 80.155663,68.68216 122.06665,87.8045"
       id="path831-7-8"
       inkscape:connector-curvature="0"
       inkscape:path-effect="#path-effect833-66-2"
       inkscape:original-d="M 80.155663,68.68216 122.06665,87.8045"
       transform="translate(-29.980663,183.53156)" />
    <path
       transform="translate(-29.980663,203.01334)"
       style="fill:#ff0000;stroke:#008000;stroke-width:0.40000001;stroke-linecap:butt;stroke-linejoin:round;stroke-miterlimit:4;stroke-dasharray:none;stroke-opacity:1"
       d="M 80.155663,68.68216 122.06665,87.8045"
       id="path831-6-0-2"
       inkscape:connector-curvature="0"
       inkscape:path-effect="#path-effect833-6-6-8"
       inkscape:original-d="M 80.155663,68.68216 122.06665,87.8045" />
    <path
       transform="translate(50.120086,183.53156)"
       style="fill:#ff0000;stroke:#008000;stroke-width:0.40000001;stroke-linecap:butt;stroke-linejoin:round;stroke-miterlimit:4;stroke-dasharray:none;stroke-opacity:1"
       d="M 0.054914,68.68216 V 88.163939"
       id="path853-3-4"
       inkscape:connector-curvature="0"
       inkscape:path-effect="#path-effect855-6-1"
       inkscape:original-d="M 0.054914,68.68216 V 88.163939" />
    <path
       transform="matrix(1,0,0,0.56139116,50.120086,222.04339)"
       style="fill:#ff0000;stroke:#008000;stroke-width:0.53385979;stroke-linecap:butt;stroke-linejoin:round;stroke-miterlimit:4;stroke-dasharray:none;stroke-opacity:1"
       d="m 41.965901,87.8045 v 7.04507"
       id="path857-6-5"
       inkscape:connector-curvature="0"
       inkscape:path-effect="#path-effect859-8-5"
       inkscape:original-d="m 41.965901,87.8045 v 7.04507" />
    <path
       transform="translate(50.120086,183.53156)"
       style="fill:#ff0000;stroke:#008000;stroke-width:0.40000001;stroke-linecap:butt;stroke-linejoin:round;stroke-miterlimit:4;stroke-dasharray:none;stroke-opacity:1"
       d="M 41.965901,107.28628 V 98.515883"
       id="path861-5-16"
       inkscape:connector-curvature="0"
       inkscape:path-effect="#path-effect863-4-0"
       inkscape:original-d="M 41.965901,107.28628 V 98.515883" />
    <path
       transform="matrix(0.12399505,0,0,0.12399505,82.118425,273.4684)"
       style="fill:#ff0000;stroke:#008000;stroke-width:3.22593522;stroke-linecap:butt;stroke-linejoin:round;stroke-miterlimit:4;stroke-dasharray:none;stroke-opacity:1"
       d="M 80.155663,68.68216 122.06665,87.8045"
       id="path831-6-6-5-4-0"
       inkscape:connector-curvature="0"
       inkscape:path-effect="#path-effect833-6-8-2-2-8"
       inkscape:original-d="M 80.155663,68.68216 122.06665,87.8045" />
    <path
       transform="translate(5.3891417,9.0002507)"
       style="fill:none;stroke:#008000;stroke-width:0.40000001;stroke-linecap:butt;stroke-linejoin:round;stroke-miterlimit:4;stroke-dasharray:none;stroke-opacity:1"
       d="m 61.417763,301.89058 v 6.64917"
       id="path910-8"
       inkscape:connector-curvature="0"
       inkscape:path-effect="#path-effect912-1"
       inkscape:original-d="m 61.417763,301.89058 v 6.64917" />
    <path
       transform="matrix(1,0,0,0.56139117,-49.879911,222.04337)"
       style="fill:#ff0000;stroke:#008000;stroke-width:0.53385979;stroke-linecap:butt;stroke-linejoin:round;stroke-miterlimit:4;stroke-dasharray:none;stroke-opacity:1"
       d="m 41.965901,87.8045 v 7.04507"
       id="path857-6-5-6"
       inkscape:connector-curvature="0"
       inkscape:path-effect="#path-effect859-8-5-6"
       inkscape:original-d="m 41.965901,87.8045 v 7.04507" />
    <path
       style="fill:none;stroke:#008000;stroke-width:0.39969069;stroke-linecap:butt;stroke-linejoin:round;stroke-miterlimit:4;stroke-dasharray:none;stroke-opacity:1"
       d="M -7.9140099,275.29107 H 91.989919"
       id="path1220"
       inkscape:connector-curvature="0"
       inkscape:path-effect="#path-effect1222"
       inkscape:original-d="M -7.9140099,275.29107 H 91.989919"
       transform="matrix(1.0015484,0,0,1,0.01225387,0)" />
    <path
       transform="matrix(1,0,0,1.372772,17.301558,144.12102)"
       style="fill:#ff0000;stroke:#0000ff;stroke-width:0.34139785;stroke-linecap:butt;stroke-linejoin:round;stroke-miterlimit:4;stroke-dasharray:none;stroke-opacity:1"
       d="m 49.952526,102.15421 v 11.02692"
       id="path927-6-1-7"
       inkscape:connector-curvature="0"
       inkscape:path-effect="#path-effect929-5-6-0"
       inkscape:original-d="m 49.952526,102.15421 v 11.02692" />
    <text
       xml:space="preserve"
       style="font-style:normal;font-weight:normal;font-size:3.52777767px;line-height:1.25;font-family:sans-serif;letter-spacing:0px;word-spacing:0px;fill:#000000;fill-opacity:1;stroke:none;stroke-width:0.40000001;stroke-linejoin:round;stroke-miterlimit:4;stroke-dasharray:none"
       x="39.272713"
       y="298.93933"
       id="text1248"><tspan
         sodipodi:role="line"
         id="tspan1246"
         x="39.272713"
         y="298.93933"
         style="font-size:3.52777767px;stroke-width:0.40000001;stroke-linejoin:round;stroke-miterlimit:4;stroke-dasharray:none">Input</tspan></text>
    <text
       xml:space="preserve"
       style="font-style:normal;font-weight:normal;font-size:3.52777767px;line-height:1.25;font-family:sans-serif;letter-spacing:0px;word-spacing:0px;fill:#000000;fill-opacity:1;stroke:none;stroke-width:0.40000001;stroke-linejoin:round;stroke-miterlimit:4;stroke-dasharray:none"
       x="42.536823"
       y="307.44617"
       id="text1252"><tspan
         sodipodi:role="line"
         id="tspan1250"
         x="42.536823"
         y="307.44617"
         style="font-size:3.52777767px;stroke-width:0.40000001;stroke-linejoin:round;stroke-miterlimit:4;stroke-dasharray:none">Output1</tspan></text>
    <text
       xml:space="preserve"
       style="font-style:normal;font-weight:normal;font-size:3.52777767px;line-height:1.25;font-family:sans-serif;letter-spacing:0px;word-spacing:0px;fill:#000000;fill-opacity:1;stroke:none;stroke-width:0.40000001;stroke-linejoin:round;stroke-miterlimit:4;stroke-dasharray:none"
       x="42.919662"
       y="318.60309"
       id="text1256"><tspan
         sodipodi:role="line"
         id="tspan1254"
         x="42.919662"
         y="318.60309"
         style="font-size:3.52777767px;stroke-width:0.40000001;stroke-linejoin:round;stroke-miterlimit:4;stroke-dasharray:none">Output2</tspan></text>
    <path
       style="fill:none;stroke:#008000;stroke-width:0.40000001;stroke-linecap:butt;stroke-linejoin:round;stroke-miterlimit:4;stroke-dasharray:none;stroke-opacity:1"
       d="m -2.7459173,284.35572 v 26.48129"
       id="path1258"
       inkscape:connector-curvature="0"
       inkscape:path-effect="#path-effect1260"
       inkscape:original-d="m -2.7459173,284.35572 v 26.48129" />
    <path
       style="fill:#008000;fill-opacity:1;stroke:#008000;stroke-width:0.40000001;stroke-linecap:butt;stroke-linejoin:round;stroke-miterlimit:4;stroke-dasharray:none;stroke-opacity:1"
       d="m -2.7459173,310.83701 36.2642593,0.0538"
       id="path1262"
       inkscape:connector-curvature="0"
       inkscape:path-effect="#path-effect1264"
       inkscape:original-d="m -2.7459173,310.83701 36.2642593,0.0538" />
    <path
       style="fill:none;stroke:#008000;stroke-width:0.40000001;stroke-linecap:butt;stroke-linejoin:round;stroke-miterlimit:4;stroke-dasharray:none;stroke-opacity:1"
       d="m 97.254082,284.35572 0.09061,26.53511"
       id="path1266"
       inkscape:connector-curvature="0"
       inkscape:path-effect="#path-effect1268"
       inkscape:original-d="m 97.254082,284.35572 0.09061,26.53511" />
    <path
       style="fill:none;stroke:#008000;stroke-width:0.40000001;stroke-linecap:butt;stroke-linejoin:round;stroke-miterlimit:4;stroke-dasharray:none;stroke-opacity:1"
       d="M 97.344689,310.89083 H 66.806904"
       id="path1270"
       inkscape:connector-curvature="0"
       inkscape:path-effect="#path-effect1272"
       inkscape:original-d="M 97.344689,310.89083 H 66.806904" />
    <text
       xml:space="preserve"
       style="font-style:normal;font-weight:normal;font-size:10.58333302px;line-height:1.25;font-family:sans-serif;letter-spacing:0px;word-spacing:0px;fill:#000000;fill-opacity:1;stroke:none;stroke-width:0.30000001;stroke-miterlimit:4;stroke-dasharray:none"
       x="-1.9058375"
       y="249.91147"
       id="text1276"><tspan
         sodipodi:role="line"
         id="tspan1274"
         x="-1.9058375"
         y="249.91147"
         style="font-size:3.52777767px;stroke-width:0.30000001;stroke-miterlimit:4;stroke-dasharray:none">Tx</tspan></text>
    <text
       xml:space="preserve"
       style="font-style:normal;font-weight:normal;font-size:10.58333302px;line-height:1.25;font-family:sans-serif;letter-spacing:0px;word-spacing:0px;fill:#000000;fill-opacity:1;stroke:none;stroke-width:0.30000001;stroke-miterlimit:4;stroke-dasharray:none"
       x="-23.201193"
       y="249.91577"
       id="text1280"><tspan
         sodipodi:role="line"
         id="tspan1278"
         x="-23.201193"
         y="249.91577"
         style="font-size:3.52777767px;stroke-width:0.30000001;stroke-miterlimit:4;stroke-dasharray:none">Rx1</tspan></text>
    <text
       xml:space="preserve"
       style="font-style:normal;font-weight:normal;font-size:10.58333302px;line-height:1.25;font-family:sans-serif;letter-spacing:0px;word-spacing:0px;fill:#000000;fill-opacity:1;stroke:none;stroke-width:0.30000001;stroke-miterlimit:4;stroke-dasharray:none"
       x="16.725597"
       y="249.93817"
       id="text1284"><tspan
         sodipodi:role="line"
         id="tspan1282"
         x="16.725597"
         y="249.93817"
         style="font-size:3.52777767px;stroke-width:0.30000001;stroke-miterlimit:4;stroke-dasharray:none">Rx2</tspan></text>
    <text
       xml:space="preserve"
       style="font-style:normal;font-weight:normal;font-size:10.58333302px;line-height:1.25;font-family:sans-serif;letter-spacing:0px;word-spacing:0px;fill:#000000;fill-opacity:1;stroke:none;stroke-width:0.30000001;stroke-miterlimit:4;stroke-dasharray:none"
       x="-53.256313"
       y="249.91147"
       id="text1288"><tspan
         sodipodi:role="line"
         id="tspan1286"
         x="-53.256313"
         y="249.91147"
         style="font-size:3.52777767px;stroke-width:0.30000001;stroke-miterlimit:4;stroke-dasharray:none">Rx3</tspan></text>
    <text
       xml:space="preserve"
       style="font-style:normal;font-weight:normal;font-size:10.58333302px;line-height:1.25;font-family:sans-serif;letter-spacing:0px;word-spacing:0px;fill:#000000;fill-opacity:1;stroke:none;stroke-width:0.30000001;stroke-miterlimit:4;stroke-dasharray:none"
       x="46.696316"
       y="249.91147"
       id="text1292"><tspan
         sodipodi:role="line"
         id="tspan1290"
         x="46.696316"
         y="249.91147"
         style="font-size:3.52777767px;stroke-width:0.30000001;stroke-miterlimit:4;stroke-dasharray:none">Rx4</tspan></text>
    <path
       style="fill:none;stroke:#000000;stroke-width:0.30581245;stroke-linecap:butt;stroke-linejoin:miter;stroke-miterlimit:4;stroke-dasharray:none;stroke-opacity:1"
       d="m -19.81068,246.08311 v -6.23475"
       id="path1294"
       inkscape:connector-curvature="0"
       inkscape:path-effect="#path-effect1296"
       inkscape:original-d="m -19.81068,246.08311 v -6.23475"
       transform="matrix(1,0,0,0.96234813,-0.01432,9.72238)" />
    <path
       transform="matrix(1,0,0,0.96234813,39.98568,9.72238)"
       style="fill:none;stroke:#000000;stroke-width:0.30581245;stroke-linecap:butt;stroke-linejoin:miter;stroke-miterlimit:4;stroke-dasharray:none;stroke-opacity:1"
       d="m -19.81068,246.08311 v -6.23475"
       id="path1294-2"
       inkscape:connector-curvature="0"
       inkscape:path-effect="#path-effect1296-8"
       inkscape:original-d="m -19.81068,246.08311 v -6.23475" />
    <path
       style="fill:none;stroke:#000000;stroke-width:0.21624205;stroke-linecap:butt;stroke-linejoin:miter;stroke-miterlimit:4;stroke-dasharray:none;stroke-opacity:1"
       d="m -19.81068,246.08311 v -6.23475"
       id="path1294-1"
       inkscape:connector-curvature="0"
       inkscape:path-effect="#path-effect1296-0"
       inkscape:original-d="m -19.81068,246.08311 v -6.23475"
       transform="matrix(1,0,0,1.9246963,-29.970557,-227.09524)" />
    <path
       style="fill:none;stroke:#000000;stroke-width:0.21624205;stroke-linecap:butt;stroke-linejoin:miter;stroke-miterlimit:4;stroke-dasharray:none;stroke-opacity:1"
       d="m -19.81068,246.08311 v -6.23475"
       id="path1294-5"
       inkscape:connector-curvature="0"
       inkscape:path-effect="#path-effect1296-4"
       inkscape:original-d="m -19.81068,246.08311 v -6.23475"
       transform="matrix(1,0,0,1.9246963,69.347929,-227.09524)" />
    <path
       style="fill:none;stroke:#000000;stroke-width:0.30423996;stroke-linecap:butt;stroke-linejoin:miter;stroke-miterlimit:4;stroke-dasharray:none;stroke-opacity:1;marker-start:url(#Arrow1Lstart);marker-end:url(#Arrow1Lend)"
       d="M -19.913002,243.4933 H 20.383463"
       id="path1342"
       inkscape:connector-curvature="0"
       inkscape:path-effect="#path-effect1344"
       inkscape:original-d="M -19.913002,243.4933 H 20.383463"
       transform="matrix(0.97232178,0,0,1,-0.0228279,0)" />
    <path
       style="fill:none;stroke:#000000;stroke-width:0.30145362;stroke-linecap:butt;stroke-linejoin:miter;stroke-miterlimit:4;stroke-dasharray:none;stroke-opacity:1;marker-start:url(#marker1672);marker-end:url(#marker1718)"
       d="M -49.690622,236.45496 H 49.542326"
       id="path1346"
       inkscape:connector-curvature="0"
       inkscape:path-effect="#path-effect1348"
       inkscape:original-d="M -49.690622,236.45496 H 49.542326"
       transform="matrix(0.99037911,0,0,1,-0.13894474,0)" />
    <text
       xml:space="preserve"
       style="font-style:normal;font-weight:normal;font-size:3.52777767px;line-height:1.25;font-family:sans-serif;letter-spacing:0px;word-spacing:0px;fill:#000000;fill-opacity:1;stroke:none;stroke-width:0.30000001;stroke-miterlimit:4;stroke-dasharray:none"
       x="-3.1555459"
       y="241.70786"
       id="text1920"><tspan
         sodipodi:role="line"
         id="tspan1918"
         x="-3.1555459"
         y="241.70786"
         style="font-size:3.52777767px;stroke-width:0.30000001;stroke-miterlimit:4;stroke-dasharray:none">CP1</tspan></text>
    <text
       xml:space="preserve"
       style="font-style:normal;font-weight:normal;font-size:3.52777767px;line-height:1.25;font-family:sans-serif;letter-spacing:0px;word-spacing:0px;fill:#000000;fill-opacity:1;stroke:none;stroke-width:0.30000001;stroke-miterlimit:4;stroke-dasharray:none"
       x="-3.2287543"
       y="234.5448"
       id="text1924"><tspan
         sodipodi:role="line"
         id="tspan1922"
         x="-3.2287543"
         y="234.5448"
         style="font-size:3.52777767px;stroke-width:0.30000001;stroke-miterlimit:4;stroke-dasharray:none">CP2</tspan></text>
    <circle
       style="opacity:0.86400003;fill:#ff0000;fill-opacity:0;stroke:#008000;stroke-width:0.30000001;stroke-miterlimit:4;stroke-dasharray:none;stroke-dashoffset:0;paint-order:stroke fill markers"
       id="path1023"
       cx="33.518345"
       cy="318.28305"
       r="0.91204411" />
    <circle
       style="opacity:0.86400003;fill:#ff0000;fill-opacity:0;stroke:#008000;stroke-width:0.30000001;stroke-miterlimit:4;stroke-dasharray:none;stroke-dashoffset:0;paint-order:stroke fill markers"
       id="path1023-8"
       cx="66.806908"
       cy="318.28305"
       r="0.91204411" />
    <circle
       style="opacity:0.86400003;fill:#ff0000;fill-opacity:0;stroke:#0000ff;stroke-width:0.30000001;stroke-miterlimit:4;stroke-dasharray:none;stroke-dashoffset:0;paint-order:stroke fill markers"
       id="path1023-0"
       cx="37.048"
       cy="307.03864"
       r="0.91204411" />
    <circle
       style="opacity:0.86400003;fill:#ff0000;fill-opacity:0;stroke:#0000ff;stroke-width:0.30000001;stroke-miterlimit:4;stroke-dasharray:none;stroke-dashoffset:0;paint-order:stroke fill markers"
       id="path1023-0-8"
       cx="61.417767"
       cy="307.03864"
       r="0.91204411" />
    <circle
       style="opacity:0.86400003;fill:#ff0000;fill-opacity:0;stroke:#ff0000;stroke-width:0.30000001;stroke-miterlimit:4;stroke-dasharray:none;stroke-dashoffset:0;paint-order:stroke fill markers"
       id="path1023-0-7"
       cx="52.559788"
       cy="297.88504"
       r="0.91204411" />
    <circle
       style="opacity:0.86400003;fill:#ff0000;fill-opacity:0;stroke:#ff0000;stroke-width:0.30000001;stroke-miterlimit:4;stroke-dasharray:none;stroke-dashoffset:0;paint-order:stroke fill markers"
       id="path1023-0-7-1"
       cx="50.072613"
       cy="297.88504"
       r="0.91204411" />
  </g>
</svg>
