<?xml version="1.0" encoding="UTF-8" standalone="no"?>
<svg
   xmlns:dc="http://purl.org/dc/elements/1.1/"
   xmlns:cc="http://creativecommons.org/ns#"
   xmlns:rdf="http://www.w3.org/1999/02/22-rdf-syntax-ns#"
   xmlns:svg="http://www.w3.org/2000/svg"
   xmlns="http://www.w3.org/2000/svg"
   xmlns:xlink="http://www.w3.org/1999/xlink"
   xmlns:sodipodi="http://sodipodi.sourceforge.net/DTD/sodipodi-0.dtd"
   xmlns:inkscape="http://www.inkscape.org/namespaces/inkscape"
   style="font-style:normal;font-weight:normal;font-size:12px;font-family:Dialog;color-interpolation:auto;fill:#000000;fill-opacity:1;stroke:#000000;stroke-width:1;stroke-linecap:square;stroke-linejoin:miter;stroke-miterlimit:10;stroke-dasharray:none;stroke-dashoffset:0;stroke-opacity:1;color-rendering:auto;image-rendering:auto;shape-rendering:auto;text-rendering:auto"
   width="859.73224"
   height="744.33844"
   version="1.1"
   id="svg398"
   sodipodi:docname="penalisedsensitivity_SEFA.svg"
   inkscape:version="0.92.4 (5da689c313, 2019-01-14)">
  <metadata
     id="metadata402">
    <rdf:RDF>
      <cc:Work
         rdf:about="">
        <dc:format>image/svg+xml</dc:format>
        <dc:type
           rdf:resource="http://purl.org/dc/dcmitype/StillImage" />
        <dc:title></dc:title>
      </cc:Work>
    </rdf:RDF>
  </metadata>
  <sodipodi:namedview
     pagecolor="#ffffff"
     bordercolor="#666666"
     borderopacity="1"
     objecttolerance="10"
     gridtolerance="10"
     guidetolerance="10"
     inkscape:pageopacity="0"
     inkscape:pageshadow="2"
     inkscape:window-width="3200"
     inkscape:window-height="1644"
     id="namedview400"
     showgrid="false"
     inkscape:zoom="1.4416413"
     inkscape:cx="405.36075"
     inkscape:cy="375.77169"
     inkscape:window-x="-16"
     inkscape:window-y="-16"
     inkscape:window-maximized="1"
     inkscape:current-layer="g396"
     fit-margin-top="0"
     fit-margin-left="0"
     fit-margin-right="0"
     fit-margin-bottom="0" />
  <!--Generated by the Batik Graphics2D SVG Generator-->
  <defs
     id="genericDefs" />
  <g
     id="g396"
     transform="translate(-55.618456,-29.087336)">
    <defs
       id="defs1">
      <clipPath
         clipPathUnits="userSpaceOnUse"
         id="clipPath1">
        <path
           d="M 0,0 H 1000 V 800 H 0 Z"
           id="path3"
           inkscape:connector-curvature="0" />
      </clipPath>
      <clipPath
         clipPathUnits="userSpaceOnUse"
         id="clipPath2">
        <path
           d="M 0,0 H 46 V 46 H 0 Z"
           id="path6"
           inkscape:connector-curvature="0" />
      </clipPath>
      <clipPath
         clipPathUnits="userSpaceOnUse"
         id="clipPath3">
        <path
           d="M 0,1304 H 42 V 0 Z"
           id="path9"
           inkscape:connector-curvature="0" />
      </clipPath>
      <clipPath
         clipPathUnits="userSpaceOnUse"
         id="clipPath4">
        <path
           d="M 42,0 H 0 v 1304 z"
           id="path12"
           inkscape:connector-curvature="0" />
      </clipPath>
      <font
         horiz-adv-x="75"
         id="font1"
         horiz-origin-x="0"
         horiz-origin-y="0"
         vert-origin-x="45"
         vert-origin-y="90"
         vert-adv-y="90">
        <font-face
           ascent="100.53711"
           descent="21.972656"
           units-per-em="100"
           style="font-style:normal; font-family:SansSerif; font-weight:bold;"
           id="font-face15" />
        <missing-glyph
           horiz-adv-x="75.0"
           d="M12.5 0 L12.5 62.5 L62.5 62.5 L62.5 0 L12.5 0 ZM14.0625 1.5625 L60.9375 1.5625 L60.9375 60.9375 L14.0625 60.9375 L14.0625 1.5625 Z"
           id="missing-glyph17" />
        <glyph
           unicode="y"
           horiz-adv-x="55.615234"
           d="M0.6875 51.8594 L15.2812 51.8594 L27.6875 15.0469 L39.7969 51.8594 L54 51.8594 L35.6875 1.9531 L32.4219 -7.0781 Q30.6094 -11.625 28.9766 -14.0156 Q27.3438 -16.4062 25.2188 -17.8984 Q23.0938 -19.3906 19.9922 -20.2188 Q16.8906 -21.0469 12.9844 -21.0469 Q9.0312 -21.0469 5.2188 -20.2188 L4 -9.4688 Q7.2344 -10.1094 9.8125 -10.1094 Q14.5938 -10.1094 16.8906 -7.3047 Q19.1875 -4.5 20.4062 -0.1406 L0.6875 51.8594 Z"
           id="glyph19" />
        <glyph
           unicode="v"
           horiz-adv-x="55.615234"
           d="M21.4375 0 L0.5312 51.8594 L14.9375 51.8594 L24.7031 25.3906 L27.5469 16.5469 Q28.6562 19.9219 28.9531 21 Q29.6406 23.1875 30.4219 25.3906 L40.2812 51.8594 L54.3906 51.8594 L33.7969 0 L21.4375 0 Z"
           id="glyph21" />
        <glyph
           unicode="t"
           horiz-adv-x="33.30078"
           d="M30.9531 51.8594 L30.9531 40.9219 L21.5781 40.9219 L21.5781 20.0156 Q21.5781 13.6719 21.8516 12.625 Q22.125 11.5781 23.0781 10.8906 Q24.0312 10.2031 25.3906 10.2031 Q27.2969 10.2031 30.9062 11.5312 L32.0781 0.875 Q27.2969 -1.1719 21.2344 -1.1719 Q17.5312 -1.1719 14.5547 0.0703 Q11.5781 1.3125 10.1875 3.2969 Q8.7969 5.2812 8.25 8.6406 Q7.8125 11.0312 7.8125 18.3125 L7.8125 40.9219 L1.5156 40.9219 L1.5156 51.8594 L7.8125 51.8594 L7.8125 62.1562 L21.5781 70.1719 L21.5781 51.8594 L30.9531 51.8594 Z"
           id="glyph23" />
        <glyph
           unicode="S"
           horiz-adv-x="66.69922"
           d="M3.6094 23.2969 L17.6719 24.6562 Q18.9531 17.5781 22.8281 14.2578 Q26.7031 10.9375 33.2969 10.9375 Q40.2812 10.9375 43.8203 13.8906 Q47.3594 16.8438 47.3594 20.7969 Q47.3594 23.3438 45.875 25.125 Q44.3906 26.9062 40.6719 28.2188 Q38.1406 29.1094 29.1094 31.3438 Q17.4844 34.2344 12.7969 38.4219 Q6.2031 44.3438 6.2031 52.8281 Q6.2031 58.2969 9.3047 63.0625 Q12.4062 67.8281 18.2422 70.3125 Q24.0781 72.7969 32.3281 72.7969 Q45.7969 72.7969 52.6094 66.8906 Q59.4219 60.9844 59.7656 51.125 L45.3125 50.4844 Q44.3906 56 41.3359 58.4219 Q38.2812 60.8438 32.1719 60.8438 Q25.875 60.8438 22.3125 58.25 Q20.0156 56.5938 20.0156 53.8125 Q20.0156 51.2656 22.1719 49.4688 Q24.9062 47.1719 35.4531 44.6797 Q46 42.1875 51.0547 39.5234 Q56.1094 36.8594 58.9609 32.25 Q61.8125 27.6406 61.8125 20.8438 Q61.8125 14.7031 58.3984 9.3281 Q54.9844 3.9531 48.7344 1.3438 Q42.4844 -1.2656 33.1562 -1.2656 Q19.5781 -1.2656 12.3047 5.0078 Q5.0312 11.2812 3.6094 23.2969 Z"
           id="glyph25" />
        <glyph
           unicode=" "
           horiz-adv-x="27.783203"
           d=""
           id="glyph27" />
        <glyph
           unicode="d"
           horiz-adv-x="61.083984"
           d="M54.7344 0 L42 0 L42 7.625 Q38.8125 3.1719 34.4922 1 Q30.1719 -1.1719 25.7812 -1.1719 Q16.8438 -1.1719 10.4766 6.0312 Q4.1094 13.2344 4.1094 26.125 Q4.1094 39.3125 10.3047 46.1719 Q16.5 53.0312 25.9844 53.0312 Q34.6719 53.0312 41.0156 45.7969 L41.0156 71.5781 L54.7344 71.5781 L54.7344 0 ZM18.1094 27.0469 Q18.1094 18.75 20.4062 15.0469 Q23.7344 9.6719 29.6875 9.6719 Q34.4219 9.6719 37.7422 13.6953 Q41.0625 17.7188 41.0625 25.7344 Q41.0625 34.6719 37.8438 38.6016 Q34.625 42.5312 29.5938 42.5312 Q24.7031 42.5312 21.4062 38.6484 Q18.1094 34.7656 18.1094 27.0469 Z"
           id="glyph29" />
        <glyph
           unicode="s"
           horiz-adv-x="55.615234"
           d="M2.3438 14.7969 L16.1094 16.8906 Q17 12.8906 19.6797 10.8125 Q22.3594 8.7344 27.2031 8.7344 Q32.5156 8.7344 35.2031 10.6875 Q37.0156 12.0625 37.0156 14.3594 Q37.0156 15.9219 36.0312 16.9375 Q35.0156 17.9219 31.4531 18.75 Q14.8438 22.4062 10.4062 25.4375 Q4.25 29.6406 4.25 37.1094 Q4.25 43.8438 9.5703 48.4375 Q14.8906 53.0312 26.0781 53.0312 Q36.7188 53.0312 41.8984 49.5625 Q47.0781 46.0938 49.0312 39.3125 L36.0781 36.9219 Q35.25 39.9375 32.9297 41.5547 Q30.6094 43.1719 26.3125 43.1719 Q20.9062 43.1719 18.5625 41.6562 Q17 40.5781 17 38.875 Q17 37.4062 18.3594 36.375 Q20.2188 35.0156 31.1797 32.5234 Q42.1406 30.0312 46.4844 26.4219 Q50.7812 22.75 50.7812 16.2188 Q50.7812 9.0781 44.8281 3.9531 Q38.875 -1.1719 27.2031 -1.1719 Q16.6094 -1.1719 10.4297 3.125 Q4.25 7.4219 2.3438 14.7969 Z"
           id="glyph31" />
        <glyph
           unicode="i"
           horiz-adv-x="27.783203"
           d="M7.1719 58.8906 L7.1719 71.5781 L20.9062 71.5781 L20.9062 58.8906 L7.1719 58.8906 ZM7.1719 0 L7.1719 51.8594 L20.9062 51.8594 L20.9062 0 L7.1719 0 Z"
           id="glyph33" />
        <glyph
           unicode="l"
           horiz-adv-x="27.783203"
           d="M7.1719 0 L7.1719 71.5781 L20.9062 71.5781 L20.9062 0 L7.1719 0 Z"
           id="glyph35" />
        <glyph
           unicode="a"
           horiz-adv-x="55.615234"
           d="M17.4375 36.0312 L4.9844 38.2812 Q7.0781 45.7969 12.2031 49.4141 Q17.3281 53.0312 27.4375 53.0312 Q36.625 53.0312 41.1172 50.8594 Q45.6094 48.6875 47.4375 45.3438 Q49.2656 42 49.2656 33.0625 L49.125 17.0469 Q49.125 10.2031 49.7812 6.9609 Q50.4375 3.7188 52.25 0 L38.6719 0 Q38.1406 1.375 37.3594 4.0469 Q37.0156 5.2812 36.8594 5.6719 Q33.3438 2.25 29.3438 0.5391 Q25.3438 -1.1719 20.7969 -1.1719 Q12.7969 -1.1719 8.1797 3.1719 Q3.5625 7.5156 3.5625 14.1562 Q3.5625 18.5625 5.6641 22 Q7.7656 25.4375 11.5469 27.2734 Q15.3281 29.1094 22.4688 30.4688 Q32.0781 32.2812 35.7969 33.8438 L35.7969 35.2031 Q35.7969 39.1562 33.8438 40.8438 Q31.8906 42.5312 26.4688 42.5312 Q22.7969 42.5312 20.75 41.0938 Q18.7031 39.6562 17.4375 36.0312 ZM35.7969 24.9062 Q33.1562 24.0312 27.4453 22.8047 Q21.7344 21.5781 19.9688 20.4062 Q17.2812 18.5 17.2812 15.5781 Q17.2812 12.7031 19.4297 10.6016 Q21.5781 8.5 24.9062 8.5 Q28.6094 8.5 31.9844 10.9375 Q34.4688 12.7969 35.25 15.4844 Q35.7969 17.2344 35.7969 22.1719 L35.7969 24.9062 Z"
           id="glyph37" />
        <glyph
           unicode="n"
           horiz-adv-x="61.083984"
           d="M54.3438 0 L40.625 0 L40.625 26.4688 Q40.625 34.8594 39.75 37.3281 Q38.875 39.7969 36.8906 41.1641 Q34.9062 42.5312 32.125 42.5312 Q28.5625 42.5312 25.7344 40.5781 Q22.9062 38.625 21.8516 35.3984 Q20.7969 32.1719 20.7969 23.4844 L20.7969 0 L7.0781 0 L7.0781 51.8594 L19.8281 51.8594 L19.8281 44.2344 Q26.6094 53.0312 36.9219 53.0312 Q41.4531 53.0312 45.2109 51.3906 Q48.9688 49.75 50.8984 47.2109 Q52.8281 44.6719 53.5859 41.4531 Q54.3438 38.2344 54.3438 32.2344 L54.3438 0 Z"
           id="glyph39" />
        <glyph
           unicode="e"
           horiz-adv-x="55.615234"
           d="M37.2031 16.5 L50.875 14.2031 Q48.25 6.6875 42.5547 2.7578 Q36.8594 -1.1719 28.3281 -1.1719 Q14.7969 -1.1719 8.2969 7.6719 Q3.1719 14.75 3.1719 25.5312 Q3.1719 38.4219 9.9141 45.7266 Q16.6562 53.0312 26.9531 53.0312 Q38.5312 53.0312 45.2188 45.3906 Q51.9062 37.75 51.6094 21.9688 L17.2344 21.9688 Q17.3906 15.875 20.5625 12.4766 Q23.7344 9.0781 28.4688 9.0781 Q31.6875 9.0781 33.8828 10.8359 Q36.0781 12.5938 37.2031 16.5 ZM37.9844 30.375 Q37.8438 36.3281 34.9141 39.4297 Q31.9844 42.5312 27.7812 42.5312 Q23.2969 42.5312 20.3594 39.2656 Q17.4375 35.9844 17.4844 30.375 L37.9844 30.375 Z"
           id="glyph41" />
        <glyph
           unicode="P"
           horiz-adv-x="66.69922"
           d="M7.2812 0 L7.2812 71.5781 L30.4688 71.5781 Q43.6562 71.5781 47.6562 70.5156 Q53.8125 68.8906 57.9609 63.5 Q62.1094 58.1094 62.1094 49.5625 Q62.1094 42.9688 59.7188 38.4766 Q57.3281 33.9844 53.6406 31.4219 Q49.9531 28.8594 46.1406 28.0312 Q40.9688 27 31.1562 27 L21.7344 27 L21.7344 0 L7.2812 0 ZM21.7344 59.4688 L21.7344 39.1562 L29.6406 39.1562 Q38.1875 39.1562 41.0703 40.2812 Q43.9531 41.4062 45.5859 43.7969 Q47.2188 46.1875 47.2188 49.3594 Q47.2188 53.2656 44.9219 55.8047 Q42.625 58.3438 39.1094 58.9844 Q36.5312 59.4688 28.7188 59.4688 L21.7344 59.4688 Z"
           id="glyph43" />
      </font>
      <font
         horiz-adv-x="75"
         id="font2"
         horiz-origin-x="0"
         horiz-origin-y="0"
         vert-origin-x="45"
         vert-origin-y="90"
         vert-adv-y="90">
        <font-face
           ascent="100.53711"
           descent="21.972656"
           units-per-em="100"
           style="font-style:normal; font-family:SansSerif; font-weight:normal;"
           id="font-face46" />
        <missing-glyph
           horiz-adv-x="75.0"
           d="M12.5 0 L12.5 62.5 L62.5 62.5 L62.5 0 L12.5 0 ZM14.0625 1.5625 L60.9375 1.5625 L60.9375 60.9375 L14.0625 60.9375 L14.0625 1.5625 Z"
           id="missing-glyph48" />
        <glyph
           unicode="0"
           horiz-adv-x="55.615234"
           d="M4.1562 35.2969 Q4.1562 48 6.7656 55.7422 Q9.375 63.4844 14.5234 67.6797 Q19.6719 71.875 27.4844 71.875 Q33.25 71.875 37.5938 69.5547 Q41.9375 67.2344 44.7734 62.8672 Q47.6094 58.5 49.2188 52.2266 Q50.8281 45.9531 50.8281 35.2969 Q50.8281 22.7031 48.2422 14.9688 Q45.6562 7.2344 40.5078 3.0078 Q35.3594 -1.2188 27.4844 -1.2188 Q17.1406 -1.2188 11.2344 6.2031 Q4.1562 15.1406 4.1562 35.2969 ZM13.1875 35.2969 Q13.1875 17.6719 17.3125 11.8359 Q21.4375 6 27.4844 6 Q33.5469 6 37.6719 11.8594 Q41.7969 17.7188 41.7969 35.2969 Q41.7969 52.9844 37.6719 58.7891 Q33.5469 64.5938 27.3906 64.5938 Q21.3438 64.5938 17.7188 59.4688 Q13.1875 52.9375 13.1875 35.2969 Z"
           id="glyph50" />
        <glyph
           unicode="2"
           horiz-adv-x="55.615234"
           d="M50.3438 8.4531 L50.3438 0 L3.0312 0 Q2.9375 3.1719 4.0469 6.1094 Q5.8594 10.9375 9.8359 15.625 Q13.8125 20.3125 21.3438 26.4688 Q33.0156 36.0312 37.1172 41.625 Q41.2188 47.2188 41.2188 52.2031 Q41.2188 57.4219 37.4766 61.0078 Q33.7344 64.5938 27.7344 64.5938 Q21.3906 64.5938 17.5781 60.7891 Q13.7656 56.9844 13.7188 50.25 L4.6875 51.1719 Q5.6094 61.2812 11.6641 66.5781 Q17.7188 71.875 27.9375 71.875 Q38.2344 71.875 44.2422 66.1641 Q50.25 60.4531 50.25 52 Q50.25 47.7031 48.4922 43.5547 Q46.7344 39.4062 42.6562 34.8125 Q38.5781 30.2188 29.1094 22.2188 Q21.1875 15.5781 18.9453 13.2109 Q16.7031 10.8438 15.2344 8.4531 L50.3438 8.4531 Z"
           id="glyph52" />
        <glyph
           unicode="4"
           horiz-adv-x="55.615234"
           d="M32.3281 0 L32.3281 17.1406 L1.2656 17.1406 L1.2656 25.2031 L33.9375 71.5781 L41.1094 71.5781 L41.1094 25.2031 L50.7812 25.2031 L50.7812 17.1406 L41.1094 17.1406 L41.1094 0 L32.3281 0 ZM32.3281 25.2031 L32.3281 57.4688 L9.9062 25.2031 L32.3281 25.2031 Z"
           id="glyph54" />
        <glyph
           unicode="6"
           horiz-adv-x="55.615234"
           d="M49.75 54.0469 L41.0156 53.375 Q39.8438 58.5469 37.7031 60.8906 Q34.125 64.6562 28.9062 64.6562 Q24.7031 64.6562 21.5312 62.3125 Q17.3906 59.2812 14.9922 53.4688 Q12.5938 47.6562 12.5 36.9219 Q15.6719 41.75 20.2656 44.0938 Q24.8594 46.4375 29.8906 46.4375 Q38.6719 46.4375 44.8516 39.9688 Q51.0312 33.5 51.0312 23.25 Q51.0312 16.5 48.125 10.7188 Q45.2188 4.9375 40.1406 1.8594 Q35.0625 -1.2188 28.6094 -1.2188 Q17.625 -1.2188 10.6953 6.8594 Q3.7656 14.9375 3.7656 33.5 Q3.7656 54.25 11.4219 63.6719 Q18.1094 71.875 29.4375 71.875 Q37.8906 71.875 43.2891 67.1406 Q48.6875 62.4062 49.75 54.0469 ZM13.875 23.1875 Q13.875 18.6562 15.7969 14.5078 Q17.7188 10.3594 21.1875 8.1797 Q24.6562 6 28.4688 6 Q34.0312 6 38.0391 10.4922 Q42.0469 14.9844 42.0469 22.7031 Q42.0469 30.125 38.0859 34.3984 Q34.125 38.6719 28.125 38.6719 Q22.1719 38.6719 18.0234 34.3984 Q13.875 30.125 13.875 23.1875 Z"
           id="glyph56" />
        <glyph
           unicode="8"
           horiz-adv-x="55.615234"
           d="M17.6719 38.8125 Q12.2031 40.8281 9.5703 44.5391 Q6.9375 48.25 6.9375 53.4219 Q6.9375 61.2344 12.5547 66.5547 Q18.1719 71.875 27.4844 71.875 Q36.8594 71.875 42.5781 66.4297 Q48.2969 60.9844 48.2969 53.1719 Q48.2969 48.1875 45.6797 44.5078 Q43.0625 40.8281 37.75 38.8125 Q44.3438 36.6719 47.7812 31.8828 Q51.2188 27.0938 51.2188 20.4531 Q51.2188 11.2812 44.7266 5.0312 Q38.2344 -1.2188 27.6406 -1.2188 Q17.0469 -1.2188 10.5469 5.0547 Q4.0469 11.3281 4.0469 20.7031 Q4.0469 27.6875 7.5938 32.3984 Q11.1406 37.1094 17.6719 38.8125 ZM15.9219 53.7188 Q15.9219 48.6406 19.1953 45.4141 Q22.4688 42.1875 27.6875 42.1875 Q32.7656 42.1875 36.0156 45.3828 Q39.2656 48.5781 39.2656 53.2188 Q39.2656 58.0625 35.9141 61.3594 Q32.5625 64.6562 27.5938 64.6562 Q22.5625 64.6562 19.2422 61.4297 Q15.9219 58.2031 15.9219 53.7188 ZM13.0938 20.6562 Q13.0938 16.8906 14.875 13.375 Q16.6562 9.8594 20.1719 7.9297 Q23.6875 6 27.7344 6 Q34.0312 6 38.1328 10.0547 Q42.2344 14.1094 42.2344 20.3594 Q42.2344 26.7031 38.0156 30.8594 Q33.7969 35.0156 27.4375 35.0156 Q21.2344 35.0156 17.1641 30.9141 Q13.0938 26.8125 13.0938 20.6562 Z"
           id="glyph58" />
        <glyph
           unicode="1"
           horiz-adv-x="55.615234"
           d="M37.25 0 L28.4688 0 L28.4688 56 Q25.2969 52.9844 20.1406 49.9531 Q14.9844 46.9219 10.8906 45.4062 L10.8906 53.9062 Q18.2656 57.375 23.7812 62.3047 Q29.2969 67.2344 31.5938 71.875 L37.25 71.875 L37.25 0 Z"
           id="glyph60" />
        <glyph
           unicode=")"
           horiz-adv-x="33.30078"
           d="M12.3594 -21.0469 L6.0625 -21.0469 Q20.6562 2.3906 20.6562 25.875 Q20.6562 35.0625 18.5625 44.0938 Q16.8906 51.4219 13.9219 58.1562 Q12.0156 62.5469 6.0625 72.7969 L12.3594 72.7969 Q21.5312 60.5469 25.9219 48.1875 Q29.6875 37.5469 29.6875 25.9219 Q29.6875 12.75 24.6328 0.4453 Q19.5781 -11.8594 12.3594 -21.0469 Z"
           id="glyph62" />
        <glyph
           unicode="m"
           horiz-adv-x="83.30078"
           d="M6.5938 0 L6.5938 51.8594 L14.4531 51.8594 L14.4531 44.5781 Q16.8906 48.3906 20.9453 50.7109 Q25 53.0312 30.1719 53.0312 Q35.9375 53.0312 39.625 50.6406 Q43.3125 48.25 44.8281 43.9531 Q50.9844 53.0312 60.8438 53.0312 Q68.5625 53.0312 72.7109 48.7578 Q76.8594 44.4844 76.8594 35.5938 L76.8594 0 L68.1094 0 L68.1094 32.6719 Q68.1094 37.9375 67.2578 40.2578 Q66.4062 42.5781 64.1641 43.9922 Q61.9219 45.4062 58.8906 45.4062 Q53.4219 45.4062 49.8047 41.7734 Q46.1875 38.1406 46.1875 30.125 L46.1875 0 L37.4062 0 L37.4062 33.6875 Q37.4062 39.5469 35.2578 42.4766 Q33.1094 45.4062 28.2188 45.4062 Q24.5156 45.4062 21.3672 43.4531 Q18.2188 41.5 16.7969 37.7422 Q15.375 33.9844 15.375 26.9062 L15.375 0 L6.5938 0 Z"
           id="glyph64" />
        <glyph
           unicode="("
           horiz-adv-x="33.30078"
           d="M23.3906 -21.0469 Q16.1094 -11.8594 11.0859 0.4453 Q6.0625 12.75 6.0625 25.9219 Q6.0625 37.5469 9.8125 48.1875 Q14.2031 60.5469 23.3906 72.7969 L29.6875 72.7969 Q23.7812 62.6406 21.875 58.2969 Q18.8906 51.5625 17.1875 44.2344 Q15.0938 35.1094 15.0938 25.875 Q15.0938 2.3906 29.6875 -21.0469 L23.3906 -21.0469 Z"
           id="glyph66" />
        <glyph
           unicode="h"
           horiz-adv-x="55.615234"
           d="M6.5938 0 L6.5938 71.5781 L15.375 71.5781 L15.375 45.9062 Q21.5312 53.0312 30.9062 53.0312 Q36.6719 53.0312 40.9219 50.7578 Q45.1719 48.4844 47 44.4844 Q48.8281 40.4844 48.8281 32.8594 L48.8281 0 L40.0469 0 L40.0469 32.8594 Q40.0469 39.4531 37.1875 42.4531 Q34.3281 45.4531 29.1094 45.4531 Q25.2031 45.4531 21.7578 43.4297 Q18.3125 41.4062 16.8438 37.9375 Q15.375 34.4688 15.375 28.375 L15.375 0 L6.5938 0 Z"
           id="glyph68" />
        <glyph
           unicode="c"
           horiz-adv-x="50.0"
           d="M40.4375 19 L49.0781 17.875 Q47.6562 8.9375 41.8203 3.8828 Q35.9844 -1.1719 27.4844 -1.1719 Q16.8438 -1.1719 10.375 5.7891 Q3.9062 12.75 3.9062 25.7344 Q3.9062 34.125 6.6875 40.4297 Q9.4688 46.7344 15.1562 49.8828 Q20.8438 53.0312 27.5469 53.0312 Q35.9844 53.0312 41.3594 48.7578 Q46.7344 44.4844 48.25 36.625 L39.7031 35.2969 Q38.4844 40.5312 35.3828 43.1641 Q32.2812 45.7969 27.875 45.7969 Q21.2344 45.7969 17.0859 41.0391 Q12.9375 36.2812 12.9375 25.9844 Q12.9375 15.5312 16.9453 10.7969 Q20.9531 6.0625 27.3906 6.0625 Q32.5625 6.0625 36.0312 9.2344 Q39.5 12.4062 40.4375 19 Z"
           id="glyph70" />
        <glyph
           unicode="t"
           horiz-adv-x="27.783203"
           d="M25.7812 7.8594 L27.0469 0.0938 Q23.3438 -0.6875 20.4062 -0.6875 Q15.625 -0.6875 12.9922 0.8281 Q10.3594 2.3438 9.2812 4.8125 Q8.2031 7.2812 8.2031 15.1875 L8.2031 45.0156 L1.7656 45.0156 L1.7656 51.8594 L8.2031 51.8594 L8.2031 64.7031 L16.9375 69.9688 L16.9375 51.8594 L25.7812 51.8594 L25.7812 45.0156 L16.9375 45.0156 L16.9375 14.7031 Q16.9375 10.9375 17.4062 9.8672 Q17.875 8.7969 18.9219 8.1562 Q19.9688 7.5156 21.9219 7.5156 Q23.3906 7.5156 25.7812 7.8594 Z"
           id="glyph72" />
        <glyph
           unicode="P"
           horiz-adv-x="66.69922"
           d="M7.7188 0 L7.7188 71.5781 L34.7188 71.5781 Q41.8438 71.5781 45.6094 70.9062 Q50.875 70.0156 54.4453 67.5547 Q58.0156 65.0938 60.1875 60.6484 Q62.3594 56.2031 62.3594 50.875 Q62.3594 41.75 56.5469 35.4297 Q50.7344 29.1094 35.5469 29.1094 L17.1875 29.1094 L17.1875 0 L7.7188 0 ZM17.1875 37.5469 L35.6875 37.5469 Q44.875 37.5469 48.7344 40.9688 Q52.5938 44.3906 52.5938 50.5938 Q52.5938 55.0781 50.3203 58.2734 Q48.0469 61.4688 44.3438 62.5 Q41.9375 63.1406 35.5 63.1406 L17.1875 63.1406 L17.1875 37.5469 Z"
           id="glyph74" />
        <glyph
           unicode=" "
           horiz-adv-x="27.783203"
           d=""
           id="glyph76" />
        <glyph
           unicode="l"
           horiz-adv-x="22.216797"
           d="M6.3906 0 L6.3906 71.5781 L15.1875 71.5781 L15.1875 0 L6.3906 0 Z"
           id="glyph78" />
        <glyph
           unicode="i"
           horiz-adv-x="22.216797"
           d="M6.6406 61.4688 L6.6406 71.5781 L15.4375 71.5781 L15.4375 61.4688 L6.6406 61.4688 ZM6.6406 0 L6.6406 51.8594 L15.4375 51.8594 L15.4375 0 L6.6406 0 Z"
           id="glyph80" />
        <glyph
           unicode="o"
           horiz-adv-x="55.615234"
           d="M3.3281 25.9219 Q3.3281 40.3281 11.3281 47.2656 Q18.0156 53.0312 27.6406 53.0312 Q38.3281 53.0312 45.1172 46.0234 Q51.9062 39.0156 51.9062 26.6562 Q51.9062 16.6562 48.9062 10.9141 Q45.9062 5.1719 40.1641 2 Q34.4219 -1.1719 27.6406 -1.1719 Q16.75 -1.1719 10.0391 5.8125 Q3.3281 12.7969 3.3281 25.9219 ZM12.3594 25.9219 Q12.3594 15.9688 16.7031 11.0156 Q21.0469 6.0625 27.6406 6.0625 Q34.1875 6.0625 38.5312 11.0391 Q42.875 16.0156 42.875 26.2188 Q42.875 35.8438 38.5 40.7969 Q34.125 45.75 27.6406 45.75 Q21.0469 45.75 16.7031 40.8203 Q12.3594 35.8906 12.3594 25.9219 Z"
           id="glyph82" />
        <glyph
           unicode="C"
           horiz-adv-x="72.2168"
           d="M58.7969 25.0938 L68.2656 22.7031 Q65.2812 11.0312 57.5469 4.9062 Q49.8125 -1.2188 38.625 -1.2188 Q27.0469 -1.2188 19.7969 3.4922 Q12.5469 8.2031 8.7656 17.1406 Q4.9844 26.0781 4.9844 36.3281 Q4.9844 47.5156 9.2578 55.8359 Q13.5312 64.1562 21.4141 68.4766 Q29.2969 72.7969 38.7656 72.7969 Q49.5156 72.7969 56.8359 67.3281 Q64.1562 61.8594 67.0469 51.9531 L57.7188 49.75 Q55.2188 57.5625 50.4844 61.1328 Q45.75 64.7031 38.5781 64.7031 Q30.3281 64.7031 24.7812 60.7422 Q19.2344 56.7812 16.9922 50.1172 Q14.75 43.4531 14.75 36.375 Q14.75 27.25 17.4062 20.4375 Q20.0625 13.625 25.6797 10.2578 Q31.2969 6.8906 37.8438 6.8906 Q45.7969 6.8906 51.3203 11.4766 Q56.8438 16.0625 58.7969 25.0938 Z"
           id="glyph84" />
        <glyph
           unicode="."
           horiz-adv-x="27.783203"
           d="M9.0781 0 L9.0781 10.0156 L19.0938 10.0156 L19.0938 0 L9.0781 0 Z"
           id="glyph86" />
      </font>
    </defs>
    <g
       style="color-interpolation:sRGB;fill:#ffffff;stroke:#ffffff;color-rendering:optimizeSpeed;image-rendering:optimizeSpeed;shape-rendering:crispEdges;text-rendering:optimizeSpeed"
       id="g98">
      <path
         style="stroke:none"
         d="M 122,712 H 852 V 60 H 122 Z"
         id="path96"
         inkscape:connector-curvature="0" />
    </g>
    <g
       transform="matrix(15.8696,0,0,14.1739,122,60)"
       style="color-interpolation:sRGB;fill:#000000;fill-opacity:0;stroke:#000000;stroke-opacity:0;color-rendering:optimizeSpeed;image-rendering:optimizeSpeed;shape-rendering:crispEdges;text-rendering:optimizeSpeed"
       id="g106">
      <image
         x="0"
         y="0"
         width="46"
         xlink:href="data:image/png;base64,iVBORw0KGgoAAAANSUhEUgAAAC4AAAAuCAIAAADY27xgAAAHKElEQVR42o2YTahV ZRSGd6MGjYIGQkGBlZkpplSCP6GVQdikQTZp5KiRNGhSk4JoVESTGkTUIKiIgkCp RLmIWV0VqoFNkhtIViCkhD8ZKj17P/u8Z53vXiVYHo77nLO/Z7/rXetb3+023/1x Ew/fuyexdc0c8ci6I8ZjDx43tm9cGGPrKeLx7afH2HG2j6fOjbHzIrH92X8Tj+66 nNj23JXElt1Xu8XLNwQzy9eFs2pZLAtwa2LDC1fXvXSZWPPKJWP1axeI+17/21j1 1l+JTo4qiRyhWYIjzz1A1OVdO6vW9Va8ffqud/8gln/wG3H7hyeN2z75lVj22S8z KFUSOWayMCtDCLK8a2fVrOdKN3/x8417fiS6L+dv2HeIuGn/fmPZ3F5iipLXmqBR kqDMcijDYohmedd2yeUHPydWHfro/sPvP/TdO8SW+TeMrjFKQzOTmoLS6HEtjgaC 5SVg4SeOvvr0sReJXcd2G11duNJEFVF6i0z8gSSxhXoAYTqiRAgQoK7Nks8f2/Xy 0WfePPLke99vIz79dsNX36zltWt8GpqlUYok0SMciGE6gEgWgAiBy7v24YMrf5pb QZzYf8/v+1bz2lVnVCZpZrwyqCIKqigJoUPhMCPhQAyVUIZAZPkzXz9A/LNvM8Gb HkWI9DFDGt+PwhSUZAeL6A9SY15qUuRQDJUIBMtfObCpj/n1Vw9tILpAsF7tZrxy URqvTDvKzotVmNCYoNCYHVKjM5DEpFQUCECRpptmYVg+Hd2L0vgdUNTGSk4ZN6pY KVUSIdRjFGN+/eUf1l46vpo4f3IFceHEyq56s40BKL6Z+ndiXmhURa9AY+HEKA0K YlQOIc6fuePcn3fypmtaaraYSpNM9WkachRhKgq2NTtRRbdq1SoJHMhwDZT09bqv EmINQMmUX7bn4hjSFLtYRJUGYRoabKEq0sAxooy3rpucm7tvuKhCGxem2kzajNrY XYJS7aJnl0xQVaWPGZRhtmgmjKk2O84mU+NPJqWUNEGjeW0t2CWqBCWSBOLSv7cQ F8/d2lkaCt7MHIRtXpF0j5malvegjdUkTUpammreJkcIQ0wTFCfW/Ta7rkB+pDwz NIM2fKpj0MYdoBFG8ypM5dAo6KFzu1oUQtTRSyBHsuQrLh59Myhqx9M0VRhMs9i8 qaOZvjKiTBponYMI3/PKdQfSPllFm5FmsiFoYbSJaegxtbCX9C8BU1dvVPd9RxCB jORr1GbrqbhY17tdR5hUUxyzuKpNljGgDN7Uetn3nUN1Iv8l/HQqj0beuFBpuJ47 1Nqu/pVmFObAJjlQqOvVHiSJHpmEeTK7hf8Fi0+VhxitMzTAmqlaUN7EySGdZsld idcpSubCzEHk233O9+oUeTBWrDPTbyYaA91oA02TKX0zzivcyNqxTfljM43vrAXH RMd3s6ajrbi+JS7KVC2oxsK2YC1MIIzRUT4+RFLjL52QvYVnBWgI5eFrfN/ianzT tL5a3k0XdqQSiOhRNEpSk7mQXU1hfR84D1HSCDQt8lltrMrahTNCNINmP2aDb69M aoLPb9xjHck8QPCRJytpWAMay6o38vbTTb9pKrzSOPk64xFTlKYZ+G2za3iK4YpH Oj3ET3gGy4r7WFPZGeKb7FD9gXSQPPOvhwGiR9HtTYv0e7ZtTw8CcV1QiLkp30dL aUbfDC5uaBZrkwf2iER0fE9zxSXpSBBYeyZVIF49YJosgl/xGNDw3HbkJbVZkkYD eMMexW/k4+waENiRtDo0BBelNFkA9XccOpC+4W5u5pXGfhOa9BuToAs7fmP5mEWu 1mJzBqMdEbF6REq+zJR1zq1sOdbUdbSxf+Zc3aPoKed17lu7EDQWPZ3RMxWhSABp I2h4AI3sXmGFp/s1NOk3nnDTxkYUriKXhq29GQ3ozW4W9mlCJlNmvkgWzwDQ9bVp 9im3vBxcehSPVf1dBhPxoNmxiJxsc8p1lxdUecyUdV610Td1n1py1zRZHZeCYu2Q ncw4rJoTZd64nfIp39FDVhZAoVGbSpP5ptLYckzWiIJKZMva0ao+OlGPtc5dTj3I Y9ag0eAARRvu1mpTpi1e3afIidrwtR7FhFnGJN7pxu27H3Am58qcoxy9HDL804iZ sqyaTPG42RkaGuditQF3RCFVoDhPWDVmgajjp2cFr6iTo0YytZgm/SY0M74ZJmsH po5/ovBLOwp3zMDHYtNj3HBW4KAgkDr1WTuwSVdZVtYUibb7OehA4z7VaONfBaTp UfBwRdEonuT+D4pG1sX8VmGgcWPXwplvxkMMa29cyF+TdPGI0lf23F6bG1KPI+fg 1umxdnKu9BzFq1mrvgmNFU7GtbA0LJRBXZrqmxaFW1wLRUmC4jmqQUFOUCwohHFb yMCVRjzVpri44yomh7qi5EQJiulIgoTwysgxv17zRpWg6JgI4zgxs2UW3/wHLvYz D5oqBfsAAAAASUVORK5CYII="
         height="46"
         preserveAspectRatio="none"
         clip-path="url(#clipPath2)"
         id="image104" />
    </g>
    <g
       style="color-interpolation:linearRGB;fill:#262626;stroke:#262626;stroke-width:0.66670001;stroke-linejoin:round;color-rendering:optimizeQuality;image-rendering:optimizeQuality;text-rendering:geometricPrecision"
       id="g156">
      <line
         y2="712"
         style="fill:none"
         x1="122"
         x2="852"
         y1="712"
         id="line108" />
      <line
         y2="60"
         style="fill:none"
         x1="122"
         x2="852"
         y1="60"
         id="line110" />
      <line
         y2="704.70001"
         style="fill:none"
         x1="161.6739"
         x2="161.6739"
         y1="712"
         id="line112" />
      <line
         y2="704.70001"
         style="fill:none"
         x1="225.15221"
         x2="225.15221"
         y1="712"
         id="line114" />
      <line
         y2="704.70001"
         style="fill:none"
         x1="288.6304"
         x2="288.6304"
         y1="712"
         id="line116" />
      <line
         y2="704.70001"
         style="fill:none"
         x1="352.1087"
         x2="352.1087"
         y1="712"
         id="line118" />
      <line
         y2="704.70001"
         style="fill:none"
         x1="415.58691"
         x2="415.58691"
         y1="712"
         id="line120" />
      <line
         y2="704.70001"
         style="fill:none"
         x1="479.06519"
         x2="479.06519"
         y1="712"
         id="line122" />
      <line
         y2="704.70001"
         style="fill:none"
         x1="542.54352"
         x2="542.54352"
         y1="712"
         id="line124" />
      <line
         y2="704.70001"
         style="fill:none"
         x1="606.02173"
         x2="606.02173"
         y1="712"
         id="line126" />
      <line
         y2="704.70001"
         style="fill:none"
         x1="669.5"
         x2="669.5"
         y1="712"
         id="line128" />
      <line
         y2="704.70001"
         style="fill:none"
         x1="732.97827"
         x2="732.97827"
         y1="712"
         id="line130" />
      <line
         y2="704.70001"
         style="fill:none"
         x1="796.45648"
         x2="796.45648"
         y1="712"
         id="line132" />
      <line
         y2="67.300003"
         style="fill:none"
         x1="161.6739"
         x2="161.6739"
         y1="60"
         id="line134" />
      <line
         y2="67.300003"
         style="fill:none"
         x1="225.15221"
         x2="225.15221"
         y1="60"
         id="line136" />
      <line
         y2="67.300003"
         style="fill:none"
         x1="288.6304"
         x2="288.6304"
         y1="60"
         id="line138" />
      <line
         y2="67.300003"
         style="fill:none"
         x1="352.1087"
         x2="352.1087"
         y1="60"
         id="line140" />
      <line
         y2="67.300003"
         style="fill:none"
         x1="415.58691"
         x2="415.58691"
         y1="60"
         id="line142" />
      <line
         y2="67.300003"
         style="fill:none"
         x1="479.06519"
         x2="479.06519"
         y1="60"
         id="line144" />
      <line
         y2="67.300003"
         style="fill:none"
         x1="542.54352"
         x2="542.54352"
         y1="60"
         id="line146" />
      <line
         y2="67.300003"
         style="fill:none"
         x1="606.02173"
         x2="606.02173"
         y1="60"
         id="line148" />
      <line
         y2="67.300003"
         style="fill:none"
         x1="669.5"
         x2="669.5"
         y1="60"
         id="line150" />
      <line
         y2="67.300003"
         style="fill:none"
         x1="732.97827"
         x2="732.97827"
         y1="60"
         id="line152" />
      <line
         y2="67.300003"
         style="fill:none"
         x1="796.45648"
         x2="796.45648"
         y1="60"
         id="line154" />
    </g>
    <g
       transform="translate(161.6739,718.6667)"
       style="font-size:20px;font-family:SansSerif;color-interpolation:linearRGB;fill:#262626;stroke:#262626;color-rendering:optimizeQuality;image-rendering:optimizeQuality;text-rendering:geometricPrecision"
       id="g160">
      <text
         x="-11.5"
         xml:space="preserve"
         y="21"
         style="stroke:none"
         id="text158">20</text>
    </g>
    <g
       transform="translate(225.1522,718.6667)"
       style="font-size:20px;font-family:SansSerif;color-interpolation:linearRGB;fill:#262626;stroke:#262626;color-rendering:optimizeQuality;image-rendering:optimizeQuality;text-rendering:geometricPrecision"
       id="g164">
      <text
         x="-11.5"
         xml:space="preserve"
         y="21"
         style="stroke:none"
         id="text162">40</text>
    </g>
    <g
       transform="translate(288.6304,718.6667)"
       style="font-size:20px;font-family:SansSerif;color-interpolation:linearRGB;fill:#262626;stroke:#262626;color-rendering:optimizeQuality;image-rendering:optimizeQuality;text-rendering:geometricPrecision"
       id="g168">
      <text
         x="-11.5"
         xml:space="preserve"
         y="21"
         style="stroke:none"
         id="text166">60</text>
    </g>
    <g
       transform="translate(352.1087,718.6667)"
       style="font-size:20px;font-family:SansSerif;color-interpolation:linearRGB;fill:#262626;stroke:#262626;color-rendering:optimizeQuality;image-rendering:optimizeQuality;text-rendering:geometricPrecision"
       id="g172">
      <text
         x="-11.5"
         xml:space="preserve"
         y="21"
         style="stroke:none"
         id="text170">80</text>
    </g>
    <g
       transform="translate(415.5869,718.6667)"
       style="font-size:20px;font-family:SansSerif;color-interpolation:linearRGB;fill:#262626;stroke:#262626;color-rendering:optimizeQuality;image-rendering:optimizeQuality;text-rendering:geometricPrecision"
       id="g176">
      <text
         x="-17"
         xml:space="preserve"
         y="21"
         style="stroke:none"
         id="text174">100</text>
    </g>
    <g
       transform="translate(479.0652,718.6667)"
       style="font-size:20px;font-family:SansSerif;color-interpolation:linearRGB;fill:#262626;stroke:#262626;color-rendering:optimizeQuality;image-rendering:optimizeQuality;text-rendering:geometricPrecision"
       id="g180">
      <text
         x="-17"
         xml:space="preserve"
         y="21"
         style="stroke:none"
         id="text178">120</text>
    </g>
    <g
       transform="translate(542.5435,718.6667)"
       style="font-size:20px;font-family:SansSerif;color-interpolation:linearRGB;fill:#262626;stroke:#262626;color-rendering:optimizeQuality;image-rendering:optimizeQuality;text-rendering:geometricPrecision"
       id="g184">
      <text
         x="-17"
         xml:space="preserve"
         y="21"
         style="stroke:none"
         id="text182">140</text>
    </g>
    <g
       transform="translate(606.0217,718.6667)"
       style="font-size:20px;font-family:SansSerif;color-interpolation:linearRGB;fill:#262626;stroke:#262626;color-rendering:optimizeQuality;image-rendering:optimizeQuality;text-rendering:geometricPrecision"
       id="g188">
      <text
         x="-17"
         xml:space="preserve"
         y="21"
         style="stroke:none"
         id="text186">160</text>
    </g>
    <g
       transform="translate(669.5,718.6667)"
       style="font-size:20px;font-family:SansSerif;color-interpolation:linearRGB;fill:#262626;stroke:#262626;color-rendering:optimizeQuality;image-rendering:optimizeQuality;text-rendering:geometricPrecision"
       id="g192">
      <text
         x="-17"
         xml:space="preserve"
         y="21"
         style="stroke:none"
         id="text190">180</text>
    </g>
    <g
       transform="translate(732.9783,718.6667)"
       style="font-size:20px;font-family:SansSerif;color-interpolation:linearRGB;fill:#262626;stroke:#262626;color-rendering:optimizeQuality;image-rendering:optimizeQuality;text-rendering:geometricPrecision"
       id="g196">
      <text
         x="-17"
         xml:space="preserve"
         y="21"
         style="stroke:none"
         id="text194">200</text>
    </g>
    <g
       transform="translate(796.4565,718.6667)"
       style="font-size:20px;font-family:SansSerif;color-interpolation:linearRGB;fill:#262626;stroke:#262626;color-rendering:optimizeQuality;image-rendering:optimizeQuality;text-rendering:geometricPrecision"
       id="g200">
      <text
         x="-17"
         xml:space="preserve"
         y="21"
         style="stroke:none"
         id="text198">220</text>
    </g>
    <g
       transform="translate(487.0003,746)"
       style="font-size:22px;font-family:SansSerif;color-interpolation:linearRGB;fill:#262626;stroke:#262626;color-rendering:optimizeQuality;image-rendering:optimizeQuality;text-rendering:geometricPrecision"
       id="g204">
      <text
         x="-84.5"
         xml:space="preserve"
         y="23"
         style="stroke:none"
         id="text202">Coil Pitch 1 (mm)</text>
    </g>
    <g
       style="color-interpolation:linearRGB;fill:#262626;stroke:#262626;stroke-width:0.66670001;stroke-linejoin:round;color-rendering:optimizeQuality;image-rendering:optimizeQuality;text-rendering:geometricPrecision"
       id="g254">
      <line
         y2="712"
         style="fill:none"
         x1="122"
         x2="122"
         y1="60"
         id="line206" />
      <line
         y2="712"
         style="fill:none"
         x1="852"
         x2="852"
         y1="60"
         id="line208" />
      <line
         y2="95.434799"
         style="fill:none"
         x1="122"
         x2="129.3"
         y1="95.434799"
         id="line210" />
      <line
         y2="152.1304"
         style="fill:none"
         x1="122"
         x2="129.3"
         y1="152.1304"
         id="line212" />
      <line
         y2="208.8261"
         style="fill:none"
         x1="122"
         x2="129.3"
         y1="208.8261"
         id="line214" />
      <line
         y2="265.5217"
         style="fill:none"
         x1="122"
         x2="129.3"
         y1="265.5217"
         id="line216" />
      <line
         y2="322.21741"
         style="fill:none"
         x1="122"
         x2="129.3"
         y1="322.21741"
         id="line218" />
      <line
         y2="378.91309"
         style="fill:none"
         x1="122"
         x2="129.3"
         y1="378.91309"
         id="line220" />
      <line
         y2="435.6087"
         style="fill:none"
         x1="122"
         x2="129.3"
         y1="435.6087"
         id="line222" />
      <line
         y2="492.30441"
         style="fill:none"
         x1="122"
         x2="129.3"
         y1="492.30441"
         id="line224" />
      <line
         y2="549"
         style="fill:none"
         x1="122"
         x2="129.3"
         y1="549"
         id="line226" />
      <line
         y2="605.69568"
         style="fill:none"
         x1="122"
         x2="129.3"
         y1="605.69568"
         id="line228" />
      <line
         y2="662.3913"
         style="fill:none"
         x1="122"
         x2="129.3"
         y1="662.3913"
         id="line230" />
      <line
         y2="95.434799"
         style="fill:none"
         x1="852"
         x2="844.70001"
         y1="95.434799"
         id="line232" />
      <line
         y2="152.1304"
         style="fill:none"
         x1="852"
         x2="844.70001"
         y1="152.1304"
         id="line234" />
      <line
         y2="208.8261"
         style="fill:none"
         x1="852"
         x2="844.70001"
         y1="208.8261"
         id="line236" />
      <line
         y2="265.5217"
         style="fill:none"
         x1="852"
         x2="844.70001"
         y1="265.5217"
         id="line238" />
      <line
         y2="322.21741"
         style="fill:none"
         x1="852"
         x2="844.70001"
         y1="322.21741"
         id="line240" />
      <line
         y2="378.91309"
         style="fill:none"
         x1="852"
         x2="844.70001"
         y1="378.91309"
         id="line242" />
      <line
         y2="435.6087"
         style="fill:none"
         x1="852"
         x2="844.70001"
         y1="435.6087"
         id="line244" />
      <line
         y2="492.30441"
         style="fill:none"
         x1="852"
         x2="844.70001"
         y1="492.30441"
         id="line246" />
      <line
         y2="549"
         style="fill:none"
         x1="852"
         x2="844.70001"
         y1="549"
         id="line248" />
      <line
         y2="605.69568"
         style="fill:none"
         x1="852"
         x2="844.70001"
         y1="605.69568"
         id="line250" />
      <line
         y2="662.3913"
         style="fill:none"
         x1="852"
         x2="844.70001"
         y1="662.3913"
         id="line252" />
    </g>
    <g
       transform="translate(115.3333,95.4348)"
       style="font-size:20px;font-family:SansSerif;color-interpolation:linearRGB;fill:#262626;stroke:#262626;color-rendering:optimizeQuality;image-rendering:optimizeQuality;text-rendering:geometricPrecision"
       id="g258">
      <text
         x="-23"
         xml:space="preserve"
         y="8"
         style="stroke:none"
         id="text256">20</text>
    </g>
    <g
       transform="translate(115.3333,152.1304)"
       style="font-size:20px;font-family:SansSerif;color-interpolation:linearRGB;fill:#262626;stroke:#262626;color-rendering:optimizeQuality;image-rendering:optimizeQuality;text-rendering:geometricPrecision"
       id="g262">
      <text
         x="-23"
         xml:space="preserve"
         y="8"
         style="stroke:none"
         id="text260">40</text>
    </g>
    <g
       transform="translate(115.3333,208.8261)"
       style="font-size:20px;font-family:SansSerif;color-interpolation:linearRGB;fill:#262626;stroke:#262626;color-rendering:optimizeQuality;image-rendering:optimizeQuality;text-rendering:geometricPrecision"
       id="g266">
      <text
         x="-23"
         xml:space="preserve"
         y="8"
         style="stroke:none"
         id="text264">60</text>
    </g>
    <g
       transform="translate(115.3333,265.5217)"
       style="font-size:20px;font-family:SansSerif;color-interpolation:linearRGB;fill:#262626;stroke:#262626;color-rendering:optimizeQuality;image-rendering:optimizeQuality;text-rendering:geometricPrecision"
       id="g270">
      <text
         x="-23"
         xml:space="preserve"
         y="8"
         style="stroke:none"
         id="text268">80</text>
    </g>
    <g
       transform="translate(115.3333,322.2174)"
       style="font-size:20px;font-family:SansSerif;color-interpolation:linearRGB;fill:#262626;stroke:#262626;color-rendering:optimizeQuality;image-rendering:optimizeQuality;text-rendering:geometricPrecision"
       id="g274">
      <text
         x="-34"
         xml:space="preserve"
         y="8"
         style="stroke:none"
         id="text272">100</text>
    </g>
    <g
       transform="translate(115.3333,378.9131)"
       style="font-size:20px;font-family:SansSerif;color-interpolation:linearRGB;fill:#262626;stroke:#262626;color-rendering:optimizeQuality;image-rendering:optimizeQuality;text-rendering:geometricPrecision"
       id="g278">
      <text
         x="-34"
         xml:space="preserve"
         y="8"
         style="stroke:none"
         id="text276">120</text>
    </g>
    <g
       transform="translate(115.3333,435.6087)"
       style="font-size:20px;font-family:SansSerif;color-interpolation:linearRGB;fill:#262626;stroke:#262626;color-rendering:optimizeQuality;image-rendering:optimizeQuality;text-rendering:geometricPrecision"
       id="g282">
      <text
         x="-34"
         xml:space="preserve"
         y="8"
         style="stroke:none"
         id="text280">140</text>
    </g>
    <g
       transform="translate(115.3333,492.3044)"
       style="font-size:20px;font-family:SansSerif;color-interpolation:linearRGB;fill:#262626;stroke:#262626;color-rendering:optimizeQuality;image-rendering:optimizeQuality;text-rendering:geometricPrecision"
       id="g286">
      <text
         x="-34"
         xml:space="preserve"
         y="8"
         style="stroke:none"
         id="text284">160</text>
    </g>
    <g
       transform="translate(115.3333,549)"
       style="font-size:20px;font-family:SansSerif;color-interpolation:linearRGB;fill:#262626;stroke:#262626;color-rendering:optimizeQuality;image-rendering:optimizeQuality;text-rendering:geometricPrecision"
       id="g290">
      <text
         x="-34"
         xml:space="preserve"
         y="8"
         style="stroke:none"
         id="text288">180</text>
    </g>
    <g
       transform="translate(115.3333,605.6957)"
       style="font-size:20px;font-family:SansSerif;color-interpolation:linearRGB;fill:#262626;stroke:#262626;color-rendering:optimizeQuality;image-rendering:optimizeQuality;text-rendering:geometricPrecision"
       id="g294">
      <text
         x="-34"
         xml:space="preserve"
         y="8"
         style="stroke:none"
         id="text292">200</text>
    </g>
    <g
       transform="translate(115.3333,662.3913)"
       style="font-size:20px;font-family:SansSerif;color-interpolation:linearRGB;fill:#262626;stroke:#262626;color-rendering:optimizeQuality;image-rendering:optimizeQuality;text-rendering:geometricPrecision"
       id="g298">
      <text
         x="-34"
         xml:space="preserve"
         y="8"
         style="stroke:none"
         id="text296">220</text>
    </g>
    <g
       transform="rotate(-90,231.6665,154.3332)"
       style="font-size:22px;font-family:SansSerif;color-interpolation:linearRGB;fill:#262626;stroke:#262626;color-rendering:optimizeQuality;image-rendering:optimizeQuality;text-rendering:geometricPrecision"
       id="g302">
      <text
         x="-84.5"
         xml:space="preserve"
         y="-5"
         style="stroke:none"
         id="text300">Coil Pitch 2 (mm)</text>
    </g>
    <g
       style="color-interpolation:linearRGB;fill:#262626;stroke:#262626;stroke-width:0.66670001;stroke-linejoin:round;color-rendering:optimizeQuality;image-rendering:optimizeQuality;text-rendering:geometricPrecision"
       id="g312">
      <line
         y2="712"
         style="fill:none"
         x1="863"
         x2="884"
         y1="712"
         id="line304" />
      <line
         y2="60"
         style="fill:none"
         x1="863"
         x2="884"
         y1="60"
         id="line306" />
      <line
         y2="60"
         style="fill:none"
         x1="863"
         x2="863"
         y1="712"
         id="line308" />
      <line
         y2="60"
         style="fill:none"
         x1="884"
         x2="884"
         y1="712"
         id="line310" />
    </g>
    <g
       transform="matrix(0.5,0,0,0.5,863,60)"
       style="color-interpolation:sRGB;fill:#000000;fill-opacity:0;stroke:#000000;stroke-opacity:0;color-rendering:optimizeSpeed;image-rendering:optimizeSpeed;shape-rendering:crispEdges;text-rendering:optimizeSpeed"
       id="g318">
      <image
         x="0"
         y="0"
         width="42"
         xlink:href="data:image/png;base64,iVBORw0KGgoAAAANSUhEUgAAACoAAAUYCAIAAABRK9cNAAAD0ElEQVR42u3NT2sI cBgA4HFSbkoRB2UsY2NLNjXDmElxcMHFxS5OSrnIZaVcRE47SFyERCnENMPmz2wL B7tYHNZEDlsxm23Gp3h769dTz/2p+DO7NFGFXq/X6/V6fdn91OSKRHq9Xq/X6/X6 yP73+KpEer1er9fr9fqC+8nvlYn0er1er9fr9aH9aFUivV6v1+v1en1kPzVSnUiv 1+v1er1eX3A/M1yTSK/X6/V6vV4f2c+925RIr9fr9Xq9Xh/Zz/dvTqTX6/V6vV6v L7nvbUyk1+v1er1erw/tnzYl0uv1er1er9cX3E93bUuk1+v1er1er4/sJ7q2JNLr 9Xq9Xq/XR/Zfn9Qk0uv1er1er9cX3I90r0uk1+v1er1er4/sP/RUJdLr9Xq9Xq/X R/YvX1Qn0uv1er1er9cX3D/uq0uk1+v1er1er4/sb7/emkiv1+v1er1eX3B/pX9X Ir1er9fr9Xp9ZH9x4EAivV6v1+v1en1k3zF4JJFer9fr9Xq9vuD+5FB7Ir1er9fr 9Xp9ZN8+dCKRXq/X6/V6vT6yPzR4OpFer9fr9Xq9vuB+38DZRHq9Xq/X6/X6yH77 2wuJ9Hq9Xq/X6/UF9w1vOhPp9Xq9Xq/X6yP7uldXE+n1er1er9frI/sNfTcS6fV6 vV6v1+sL7iuf302k1+v1er1er4/sl/c8TKTX6/V6vV6vj+wXd3cn0uv1er1er9cX 3C/s6k2k1+v1er1er4/sFzx6m0iv1+v1er1eX3C/6MH7RHq9Xq/X6/X6yH7JveFE er1er9fr9frIftmdT4n0er1er9fr9QX3K299SaTX6/V6vV6vj+xXXR9NpNfr9Xq9 Xq+P7FdfG0uk1+v1er1ery+4X3P5WyK9Xq/X6/V6fWRf1fkjkV6v1+v1er2+4H79 pfFEer1er9fr9frIvub8z0R6vV6v1+v1+si+9txUIr1er9fr9Xp9wf3GjplEer1e r9fr9frIvv7MXCK9Xq/X6/V6fWTfeGo+kV6v1+v1er2+4L75xL9Eer1er9fr9frI vuX4fCK9Xq/X6/V6fcF967G/ifR6vV6v1+v1kf2eo7OJ9Hq9Xq/X6/WRfdvh6UR6 vV6v1+v1+oL7vQd/JdLr9Xq9Xq/Xh/b7JxLp9Xq9Xq/X6yP7trYfifR6vV6v1+v1 Jfc7xxLp9Xq9Xq/X6yP7PU2fE+n1er1er9frC+5bGz4m0uv1er1er9dH9rvrBxLp 9Xq9Xq/X6yP7ltpnifR6vV6v1+v1Bfc7qu8n0uv1er1er9dH9s1rbybS6/V6vV6v 1+uD/AfHfE4H2zA1KAAAAABJRU5ErkJggg=="
         height="1304"
         preserveAspectRatio="none"
         clip-path="url(#clipPath3)"
         id="image314" />
      <image
         x="0"
         y="0"
         width="42"
         xlink:href="data:image/png;base64,iVBORw0KGgoAAAANSUhEUgAAACoAAAUYCAIAAABRK9cNAAAD0ElEQVR42u3NT2sI cBgA4HFSbkoRB2UsY2NLNjXDmElxcMHFxS5OSrnIZaVcRE47SFyERCnENMPmz2wL B7tYHNZEDlsxm23Gp3h769dTz/2p+DO7NFGFXq/X6/V6fdn91OSKRHq9Xq/X6/X6 yP73+KpEer1er9fr9fqC+8nvlYn0er1er9fr9aH9aFUivV6v1+v1en1kPzVSnUiv 1+v1er1eX3A/M1yTSK/X6/V6vV4f2c+925RIr9fr9Xq9Xh/Zz/dvTqTX6/V6vV6v L7nvbUyk1+v1er1erw/tnzYl0uv1er1er9cX3E93bUuk1+v1er1er4/sJ7q2JNLr 9Xq9Xq/XR/Zfn9Qk0uv1er1er9cX3I90r0uk1+v1er1er4/sP/RUJdLr9Xq9Xq/X R/YvX1Qn0uv1er1er9cX3D/uq0uk1+v1er1er4/sb7/emkiv1+v1er1eX3B/pX9X Ir1er9fr9Xp9ZH9x4EAivV6v1+v1en1k3zF4JJFer9fr9Xq9vuD+5FB7Ir1er9fr 9Xp9ZN8+dCKRXq/X6/V6vT6yPzR4OpFer9fr9Xq9vuB+38DZRHq9Xq/X6/X6yH77 2wuJ9Hq9Xq/X6/UF9w1vOhPp9Xq9Xq/X6yP7uldXE+n1er1er9frI/sNfTcS6fV6 vV6v1+sL7iuf302k1+v1er1er4/sl/c8TKTX6/V6vV6vj+wXd3cn0uv1er1er9cX 3C/s6k2k1+v1er1er4/sFzx6m0iv1+v1er1eX3C/6MH7RHq9Xq/X6/X6yH7JveFE er1er9fr9frIftmdT4n0er1er9fr9QX3K299SaTX6/V6vV6vj+xXXR9NpNfr9Xq9 Xq+P7FdfG0uk1+v1er1ery+4X3P5WyK9Xq/X6/V6fWRf1fkjkV6v1+v1er2+4H79 pfFEer1er9fr9frIvub8z0R6vV6v1+v1+si+9txUIr1er9fr9Xp9wf3GjplEer1e r9fr9frIvv7MXCK9Xq/X6/V6fWTfeGo+kV6v1+v1er2+4L75xL9Eer1er9fr9frI vuX4fCK9Xq/X6/V6fcF967G/ifR6vV6v1+v1kf2eo7OJ9Hq9Xq/X6/WRfdvh6UR6 vV6v1+v1+oL7vQd/JdLr9Xq9Xq/Xh/b7JxLp9Xq9Xq/X6yP7trYfifR6vV6v1+v1 Jfc7xxLp9Xq9Xq/X6yP7PU2fE+n1er1er9frC+5bGz4m0uv1er1er9dH9rvrBxLp 9Xq9Xq/X6yP7ltpnifR6vV6v1+v1Bfc7qu8n0uv1er1er9dH9s1rbybS6/V6vV6v 1+uD/AfHfE4H2zA1KAAAAABJRU5ErkJggg=="
         height="1304"
         preserveAspectRatio="none"
         clip-path="url(#clipPath4)"
         id="image316" />
    </g>
    <g
       style="color-interpolation:linearRGB;fill:#262626;stroke:#262626;stroke-width:0.66670001;stroke-linejoin:round;color-rendering:optimizeQuality;image-rendering:optimizeQuality;text-rendering:geometricPrecision"
       id="g340">
      <line
         y2="60"
         style="fill:none"
         x1="884"
         x2="884"
         y1="712"
         id="line320" />
      <line
         y2="643.11292"
         style="fill:none"
         x1="884"
         x2="877.47998"
         y1="643.11292"
         id="line322" />
      <line
         y2="574.22583"
         style="fill:none"
         x1="884"
         x2="877.47998"
         y1="574.22583"
         id="line324" />
      <line
         y2="505.33871"
         style="fill:none"
         x1="884"
         x2="877.47998"
         y1="505.33871"
         id="line326" />
      <line
         y2="436.45151"
         style="fill:none"
         x1="884"
         x2="877.47998"
         y1="436.45151"
         id="line328" />
      <line
         y2="367.56439"
         style="fill:none"
         x1="884"
         x2="877.47998"
         y1="367.56439"
         id="line330" />
      <line
         y2="298.67731"
         style="fill:none"
         x1="884"
         x2="877.47998"
         y1="298.67731"
         id="line332" />
      <line
         y2="229.79021"
         style="fill:none"
         x1="884"
         x2="877.47998"
         y1="229.79021"
         id="line334" />
      <line
         y2="160.90311"
         style="fill:none"
         x1="884"
         x2="877.47998"
         y1="160.90311"
         id="line336" />
      <line
         y2="92.015999"
         style="fill:none"
         x1="884"
         x2="877.47998"
         y1="92.015999"
         id="line338" />
    </g>
    <g
       transform="translate(890.2667,643.1129)"
       style="font-size:18px;font-family:SansSerif;color-interpolation:linearRGB;fill:#262626;stroke:#262626;color-rendering:optimizeQuality;image-rendering:optimizeQuality;text-rendering:geometricPrecision"
       id="g344">
      <text
         x="0"
         xml:space="preserve"
         y="7.5"
         style="stroke:none"
         id="text342">0.2</text>
    </g>
    <g
       transform="translate(890.2667,574.2258)"
       style="font-size:18px;font-family:SansSerif;color-interpolation:linearRGB;fill:#262626;stroke:#262626;color-rendering:optimizeQuality;image-rendering:optimizeQuality;text-rendering:geometricPrecision"
       id="g348">
      <text
         x="0"
         xml:space="preserve"
         y="7.5"
         style="stroke:none"
         id="text346">0.4</text>
    </g>
    <g
       transform="translate(890.2667,505.3387)"
       style="font-size:18px;font-family:SansSerif;color-interpolation:linearRGB;fill:#262626;stroke:#262626;color-rendering:optimizeQuality;image-rendering:optimizeQuality;text-rendering:geometricPrecision"
       id="g352">
      <text
         x="0"
         xml:space="preserve"
         y="7.5"
         style="stroke:none"
         id="text350">0.6</text>
    </g>
    <g
       transform="translate(890.2667,436.4515)"
       style="font-size:18px;font-family:SansSerif;color-interpolation:linearRGB;fill:#262626;stroke:#262626;color-rendering:optimizeQuality;image-rendering:optimizeQuality;text-rendering:geometricPrecision"
       id="g356">
      <text
         x="0"
         xml:space="preserve"
         y="7.5"
         style="stroke:none"
         id="text354">0.8</text>
    </g>
    <g
       transform="translate(890.2667,367.5644)"
       style="font-size:18px;font-family:SansSerif;color-interpolation:linearRGB;fill:#262626;stroke:#262626;color-rendering:optimizeQuality;image-rendering:optimizeQuality;text-rendering:geometricPrecision"
       id="g360">
      <text
         x="0"
         xml:space="preserve"
         y="7.5"
         style="stroke:none"
         id="text358">1</text>
    </g>
    <g
       transform="translate(890.2667,298.6773)"
       style="font-size:18px;font-family:SansSerif;color-interpolation:linearRGB;fill:#262626;stroke:#262626;color-rendering:optimizeQuality;image-rendering:optimizeQuality;text-rendering:geometricPrecision"
       id="g364">
      <text
         x="0"
         xml:space="preserve"
         y="7.5"
         style="stroke:none"
         id="text362">1.2</text>
    </g>
    <g
       transform="translate(890.2667,229.7902)"
       style="font-size:18px;font-family:SansSerif;color-interpolation:linearRGB;fill:#262626;stroke:#262626;color-rendering:optimizeQuality;image-rendering:optimizeQuality;text-rendering:geometricPrecision"
       id="g368">
      <text
         x="0"
         xml:space="preserve"
         y="7.5"
         style="stroke:none"
         id="text366">1.4</text>
    </g>
    <g
       transform="translate(890.2667,160.9031)"
       style="font-size:18px;font-family:SansSerif;color-interpolation:linearRGB;fill:#262626;stroke:#262626;color-rendering:optimizeQuality;image-rendering:optimizeQuality;text-rendering:geometricPrecision"
       id="g372">
      <text
         x="0"
         xml:space="preserve"
         y="7.5"
         style="stroke:none"
         id="text370">1.6</text>
    </g>
    <g
       transform="translate(890.2667,92.016)"
       style="font-size:18px;font-family:SansSerif;color-interpolation:linearRGB;fill:#262626;stroke:#262626;color-rendering:optimizeQuality;image-rendering:optimizeQuality;text-rendering:geometricPrecision"
       id="g376">
      <text
         x="0"
         xml:space="preserve"
         y="7.5"
         style="stroke:none"
         id="text374">1.8</text>
    </g>
    <g
       style="color-interpolation:linearRGB;fill:#262626;stroke:#262626;stroke-width:0.66670001;stroke-linejoin:round;color-rendering:optimizeQuality;image-rendering:optimizeQuality;text-rendering:geometricPrecision"
       id="g394">
      <line
         y2="60"
         style="fill:none"
         x1="863"
         x2="884"
         y1="60"
         id="line378" />
      <line
         y2="712"
         style="fill:none"
         x1="863"
         x2="884"
         y1="712"
         id="line380" />
      <line
         y2="60"
         style="fill:none"
         x1="863"
         x2="863"
         y1="712"
         id="line382" />
      <line
         y2="60"
         style="fill:none"
         x1="884"
         x2="884"
         y1="712"
         id="line384" />
      <line
         x1="863"
         x2="863"
         y1="712"
         style="fill:none;stroke:#333333"
         y2="712"
         id="line386" />
      <line
         x1="863"
         x2="863"
         y1="60"
         style="fill:none;stroke:#333333"
         y2="60"
         id="line388" />
      <line
         x1="884"
         x2="884"
         y1="712"
         style="fill:none;stroke:#333333"
         y2="712"
         id="line390" />
      <line
         x1="884"
         x2="884"
         y1="60"
         style="fill:none;stroke:#333333"
         y2="60"
         id="line392" />
    </g>
    <g
       style="font-style:normal;font-weight:normal;font-size:12px;font-family:Dialog;color-interpolation:auto;fill:#000000;fill-opacity:1;stroke:#000000;stroke-width:1;stroke-linecap:square;stroke-linejoin:miter;stroke-miterlimit:10;stroke-dasharray:none;stroke-dashoffset:0;stroke-opacity:1;color-rendering:auto;image-rendering:auto;shape-rendering:auto;text-rendering:auto"
       id="g1369"
       transform="translate(-108.03246,33.009712)">
      <path
         inkscape:connector-curvature="0"
         style="fill:#000000;fill-opacity:1;fill-rule:nonzero;stroke:none;stroke-width:2.59357309"
         d="m 441.90989,19.730823 v -6.639495 c 0,-0.207486 0,-0.207486 0.20748,-0.207486 h 0.41498 c 0,0 0,0 0.20748,0 0,0 0,0.207486 0,0.207486 0,1.867373 0.62246,3.319748 1.65986,4.357177 1.24492,1.03743 2.69729,1.452401 4.56467,1.452401 0.62245,0 1.24491,-0.207486 1.65986,-0.622457 0.62246,-0.414973 1.03742,-0.829944 1.24492,-1.452401 0.41496,-0.622459 0.62245,-1.24489 0.62245,-1.867347 0,-0.622457 -0.20749,-1.244916 -0.41497,-1.659887 -0.20748,-0.622457 -0.62246,-1.037403 -1.03744,-1.452374 -0.41496,-0.414973 -0.82991,-0.622459 -1.45237,-0.829944 l -3.52722,-0.829943 c -1.24492,-0.4149725 -2.28235,-1.0374297 -2.90478,-2.0748415 -0.82994,-1.0374213 -1.24492,-2.0748427 -1.24492,-3.3197475 0,-1.0374211 0.20748,-1.8673593 0.82994,-2.6972975 0.41498,-0.8299355 1.03741,-1.65987373 1.86735,-2.07484282 0.82995,-0.62245241 1.65989,-0.82993558 2.69729,-0.82993558 1.86738,0 3.31975,0.62245227 4.56467,2.0748429 l 1.03742,-1.86735973 c 0,-0.20748578 0.20749,-0.20748578 0.20749,-0.20748578 h 0.20748 c 0,0 0,0 0.20749,0.20748578 0,0 0,0 0,0 V 6.0368688 c 0,0.2074862 0,0.2074862 -0.20749,0.2074862 h -0.41497 c 0,0 -0.20748,0 -0.20748,-0.2074862 0,-0.4149683 0,-1.0374214 -0.20749,-1.4523896 -0.20749,-0.6224531 -0.41497,-1.2449054 -0.62245,-1.6598745 -0.41498,-0.6224522 -0.62246,-1.0374213 -1.03744,-1.4523904 -0.82991,-0.82993574 -2.07483,-1.24490484 -3.52723,-1.24490484 -0.62244,0 -1.24488,0.20748592 -1.65986,0.4149691 -0.62246,0.41496664 -1.03743,0.82993574 -1.4524,1.24490484 -0.20749,0.6224522 -0.41497,1.2449072 -0.41497,1.8673595 0,0.8299363 0.20748,1.6598742 0.82994,2.2823259 0.41497,0.6224531 1.03743,1.0374214 1.86737,1.2449076 l 3.73472,0.8299351 c 0.41495,0.2074862 1.03741,0.4149793 1.65987,0.8299256 0.41496,0.4149724 1.03742,0.8299434 1.24491,1.4524009 0.41497,0.414972 0.62246,1.037429 0.82991,1.659887 0.2075,0.622432 0.41498,1.244889 0.41498,1.867346 0,1.03743 -0.20748,2.074834 -0.82992,2.904777 -0.41497,1.037428 -1.03743,1.659887 -1.86738,2.282344 -0.82994,0.622431 -1.86734,0.829917 -2.69728,0.829917 -0.62246,0 -1.24492,0 -2.07483,-0.207486 -0.62246,-0.207486 -1.24492,-0.414945 -1.65989,-0.622431 -0.62246,-0.414972 -1.03743,-0.622457 -1.4524,-1.244916 l -1.24489,1.867347 c 0,0.207486 -0.20748,0.207486 -0.20748,0.207486 h -0.2075 c -0.20748,0 -0.20748,0 -0.20748,-0.207486 z"
         id="path1212" />
      <path
         inkscape:connector-curvature="0"
         style="fill:#000000;fill-opacity:1;fill-rule:nonzero;stroke:none;stroke-width:2.59357309"
         d="m 462.8658,19.523337 c -1.24491,0 -2.28232,-0.207485 -3.11226,-0.829917 -1.03742,-0.622458 -1.65988,-1.452401 -2.28234,-2.489831 -0.62244,-1.037402 -0.82992,-2.074831 -0.82992,-3.112261 0,-1.244888 0.20748,-2.282318 0.82992,-3.1122613 0.41497,-1.0374296 1.03743,-1.8673552 2.07486,-2.4898069 0.82994,-0.6224531 1.86734,-1.0374213 2.90478,-1.0374213 0.82994,0 1.65988,0.2074861 2.28231,0.6224517 0.62246,0.2074862 1.03743,0.6224531 1.4524,1.0374213 0.41497,0.6224655 0.82995,1.244898 1.03743,1.8673552 0.20749,0.8299433 0.20749,1.4524003 0.20749,2.2823443 0,0.414946 0,0.414946 -0.20749,0.414946 h -8.0919 v 0.414971 c 0,1.452401 0.2075,2.904777 0.82994,3.942205 0.62246,1.244916 1.65987,1.659887 3.11228,1.659887 0.62244,0 1.03742,0 1.65985,-0.207485 0.41498,-0.414973 0.82994,-0.622459 1.24492,-1.244916 0.41497,-0.414971 0.62245,-0.829943 0.62245,-1.452375 0,0 0.20749,0 0.20749,-0.207486 0,0 0,0 0.20749,0 h 0.20748 c 0.20749,0 0.20749,0.207486 0.20749,0.414973 -0.20749,1.037402 -0.82992,1.867345 -1.65987,2.489804 -0.82994,0.829943 -1.86734,1.037402 -2.90477,1.037402 z m -3.73472,-7.469412 h 6.43201 c 0,-0.829944 -0.20748,-1.452401 -0.41496,-2.2823445 -0.2075,-0.6224572 -0.41498,-1.2448897 -0.82993,-1.659869 -0.62246,-0.6224517 -1.2449,-0.8299351 -1.86736,-0.8299351 -1.03744,0 -1.86736,0.6224517 -2.48982,1.4524006 -0.62244,1.0374035 -0.82994,2.074833 -0.82994,3.319748 z"
         id="path1214" />
      <path
         inkscape:connector-curvature="0"
         style="fill:#000000;fill-opacity:1;fill-rule:nonzero;stroke:none;stroke-width:2.59357309"
         d="m 469.09033,19.315878 v -1.037429 c 0.62246,0 1.24491,0 1.65988,-0.207487 0.41498,0 0.62246,-0.207486 0.62246,-0.622457 V 9.5640943 c 0,-0.414971 -0.20748,-0.8299173 -0.20748,-1.0374035 -0.20749,-0.2074848 -0.41498,-0.4149793 -0.82995,-0.4149793 -0.20749,0 -0.62245,0 -1.24491,0 V 7.0742902 l 4.14968,-0.4149683 v 2.9047724 c 0.2075,-0.8299173 0.82996,-1.4523828 1.6599,-2.0748345 0.62243,-0.4149696 1.45238,-0.8299379 2.28232,-0.8299379 1.2449,0 2.28231,0.4149683 2.90477,1.0374214 0.62246,0.6224627 1.03743,1.6598662 1.03743,2.9047807 v 6.846981 c 0,0.414971 0.20748,0.622457 0.62246,0.622457 0.41495,0.207487 0.82991,0.207487 1.45237,0.207487 v 1.037403 h -6.22451 v -1.037403 c 0.62244,0 1.03742,0 1.45238,-0.207487 0.41495,0 0.62244,-0.207486 0.62244,-0.622457 v -6.846981 c 0,-0.8299435 0,-1.6598869 -0.41497,-2.282318 -0.20748,-0.6224627 -0.82991,-0.8299462 -1.65985,-0.8299462 -1.03744,0 -1.86738,0.4149683 -2.48982,1.2449172 -0.82994,0.8299173 -1.03742,1.867347 -1.03742,3.112263 v 5.602065 c 0,0.414971 0.20748,0.622457 0.62246,0.622457 0.20748,0.207487 0.82994,0.207487 1.45237,0.207487 v 1.037403 z"
         id="path1216" />
      <path
         inkscape:connector-curvature="0"
         style="fill:#000000;fill-opacity:1;fill-rule:nonzero;stroke:none;stroke-width:2.59357309"
         d="m 484.65166,19.315878 v -4.564663 c 0,-0.207486 0.20749,-0.207486 0.41497,-0.207486 h 0.20749 c 0.20749,0 0.20749,0 0.20749,0.207486 0.62243,2.69729 1.86735,4.149691 3.73471,4.149691 1.03742,0 1.65986,-0.207486 2.28232,-0.622457 0.62246,-0.414973 1.03744,-1.03743 1.03744,-1.867373 0,-0.622432 -0.41498,-1.244889 -0.82996,-1.659861 -0.41496,-0.414971 -1.03742,-0.622457 -1.65988,-0.829944 L 488.1789,13.5063 c -0.62246,-0.207486 -1.24492,-0.414972 -1.6599,-0.622458 -0.62244,-0.207485 -1.03739,-0.622431 -1.24488,-1.037402 -0.41497,-0.622459 -0.62246,-1.03743 -0.62246,-1.659887 0,-0.8299435 0.41497,-1.6598622 0.82995,-2.0748415 0.41495,-0.6224517 0.82991,-1.0374213 1.65985,-1.2449048 0.62246,-0.2074848 1.4524,-0.4149682 2.07484,-0.4149682 1.03744,0 1.86738,0.4149682 2.69732,0.8299379 l 0.62243,-0.6224545 c 0,0 0.20748,-0.2074862 0.20748,-0.2074862 h 0.20749 c 0,0 0.20748,0.2074862 0.20748,0.2074862 0,0 0,0 0,0.2074848 v 3.7347203 c 0,0 0,0.207486 -0.20748,0.207486 h -0.41494 c 0,0 -0.2075,-0.207486 -0.2075,-0.207486 0,-1.03743 -0.20748,-1.8673473 -0.82994,-2.4898127 -0.41496,-0.6224517 -1.2449,-0.8299352 -2.28234,-0.8299352 -0.82992,0 -1.45238,0 -2.07484,0.4149669 -0.62246,0.4149683 -1.03742,0.8299475 -1.03742,1.6598648 0,0.4149724 0.41496,0.8299432 0.82994,1.2449162 0.41498,0.414971 0.82994,0.622457 1.4524,0.829943 l 1.86736,0.207486 c 0.62244,0.207485 1.2449,0.414971 1.86736,0.829918 0.41495,0.414971 1.0374,0.829943 1.24489,1.244914 0.41497,0.622457 0.62246,1.244916 0.62246,1.867373 0,0.622431 -0.20749,1.24489 -0.41497,1.867347 -0.20749,0.414971 -0.62246,0.829943 -1.03743,1.244914 -0.41495,0.207487 -0.82993,0.414973 -1.45237,0.622433 -0.62246,0.207485 -1.24492,0.207485 -1.86738,0.207485 -1.0374,0 -2.07484,-0.207485 -2.90478,-1.037404 l -1.0374,1.037404 c 0,0 0,0 -0.20749,0 v 0 c -0.20748,0 -0.41497,0 -0.41497,-0.207485 z"
         id="path1218" />
      <path
         inkscape:connector-curvature="0"
         style="fill:#000000;fill-opacity:1;fill-rule:nonzero;stroke:none;stroke-width:2.59357309"
         d="m 495.64834,19.315878 v -1.037429 c 0.62243,0 1.24489,0 1.65985,-0.207487 0.41498,0 0.62246,-0.207486 0.62246,-0.622457 V 9.5640943 c 0,-0.6224572 -0.20748,-1.0374035 -0.41497,-1.2448883 -0.41497,-0.2074862 -0.82995,-0.2074862 -1.65986,-0.2074862 V 7.0742902 l 3.94217,-0.4149683 V 17.448505 c 0,0.414971 0.2075,0.622457 0.62246,0.622457 0.41498,0.207487 0.82995,0.207487 1.45241,0.207487 v 1.037403 z m 1.24489,-17.4286946 c 0,-0.4149691 0.20748,-0.8299382 0.41496,-1.03742153 0.41498,-0.4149691 0.62246,-0.62245241 1.03743,-0.62245241 0.41498,0 0.62246,0.20748592 0.82995,0.20748592 0.20749,0.20748579 0.41494,0.4149691 0.62242,0.62245232 0,0.2074859 0.2075,0.6224524 0.2075,0.8299381 0,0.4149667 -0.2075,0.6224524 -0.41495,1.0374215 -0.41497,0.4149665 -0.82994,0.4149665 -1.24492,0.4149665 -0.41497,0 -0.62245,0 -1.03743,-0.4149665 -0.20748,-0.4149691 -0.41496,-0.6224548 -0.41496,-1.0374239 z"
         id="path1220" />
      <path
         inkscape:connector-curvature="0"
         style="fill:#000000;fill-opacity:1;fill-rule:nonzero;stroke:none;stroke-width:2.59357309"
         d="M 505.40009,15.788644 V 8.1117115 h -2.28234 V 7.2817764 c 1.24492,0 2.07486,-0.6224545 2.69732,-1.6598759 0.62245,-1.2449048 0.82991,-2.4898099 0.82991,-3.7347171 h 0.82995 v 5.1871068 h 3.9422 v 1.0374213 h -3.9422 v 7.6769325 c 0,0.829918 0.20748,1.452375 0.41496,2.074832 0.2075,0.622459 0.62246,0.829944 1.4524,0.829944 0.62246,0 1.03741,-0.207485 1.24489,-0.829944 0.41498,-0.622457 0.41498,-1.244914 0.41498,-2.074832 v -1.659886 h 0.82994 v 1.659886 c 0,0.622432 0,1.244889 -0.20749,1.867347 -0.20748,0.622458 -0.62245,1.037429 -1.03743,1.452401 -0.41496,0.414945 -0.82994,0.414945 -1.45237,0.414945 -1.24492,0 -2.07486,-0.207485 -2.69732,-0.829917 -0.62242,-0.829944 -1.0374,-1.659887 -1.0374,-2.904776 z"
         id="path1222" />
      <path
         inkscape:connector-curvature="0"
         style="fill:#000000;fill-opacity:1;fill-rule:nonzero;stroke:none;stroke-width:2.59357309"
         d="m 514.3219,19.315878 v -1.037429 c 0.62246,0 1.24492,0 1.65989,-0.207487 0.41498,0 0.62246,-0.207486 0.62246,-0.622457 V 9.5640943 c 0,-0.6224572 -0.20748,-1.0374035 -0.41497,-1.2448883 -0.41497,-0.2074862 -0.82994,-0.2074862 -1.65989,-0.2074862 V 7.0742902 L 518.4716,6.6593219 V 17.448505 c 0,0.414971 0.20748,0.622457 0.62246,0.622457 0.20748,0.207487 0.82994,0.207487 1.45237,0.207487 v 1.037403 z m 1.24492,-17.4286946 c 0,-0.4149691 0.20749,-0.8299382 0.41497,-1.03742153 0.41498,-0.4149691 0.62246,-0.62245241 1.03741,-0.62245241 0.20748,0 0.62246,0.20748592 0.82994,0.20748592 0.20748,0.20748579 0.41496,0.4149691 0.62246,0.62245232 0,0.2074859 0.20748,0.6224524 0.20748,0.8299381 0,0.4149667 -0.20748,0.6224524 -0.62246,1.0374215 -0.20748,0.4149665 -0.62246,0.4149665 -1.03742,0.4149665 -0.41495,0 -0.62243,0 -1.03741,-0.4149665 -0.20748,-0.4149691 -0.41497,-0.6224548 -0.41497,-1.0374239 z"
         id="path1224" />
      <path
         inkscape:connector-curvature="0"
         style="fill:#000000;fill-opacity:1;fill-rule:nonzero;stroke:none;stroke-width:2.59357309"
         d="M 528.01587,19.315878 524.07366,8.9416371 c -0.20749,-0.4149463 -0.62244,-0.6224311 -0.82992,-0.8299256 -0.41496,0 -0.82994,0 -1.4524,0 V 7.0742902 h 5.80955 v 1.0374213 c -1.03739,0 -1.45237,0.2074862 -1.45237,0.6224655 0,0 0,0.2074862 0,0.2074862 l 3.11226,7.8844098 2.90477,-7.2619526 c 0,0 0,-0.2074862 0,-0.414971 0,-0.4149463 -0.20748,-0.6224325 -0.41496,-0.8299173 -0.2075,-0.2074862 -0.62246,-0.2074862 -1.03741,-0.2074862 V 7.0742902 h 4.77213 v 1.0374213 c -0.62246,0 -1.03741,0 -1.45238,0.4149793 -0.62246,0.2074862 -0.82994,0.6224325 -1.03743,1.0374035 l -3.73472,9.7517837 c -0.20748,0.207485 -0.41497,0.207485 -0.62245,0.207485 h -0.20749 c -0.20749,0 -0.20749,0 -0.41497,-0.207485 z"
         id="path1226" />
      <path
         inkscape:connector-curvature="0"
         style="fill:#000000;fill-opacity:1;fill-rule:nonzero;stroke:none;stroke-width:2.59357309"
         d="m 536.93771,19.315878 v -1.037429 c 0.62246,0 1.03742,0 1.45237,-0.207487 0.41497,0 0.62246,-0.207486 0.62246,-0.622457 V 9.5640943 c 0,-0.6224572 -0.20749,-1.0374035 -0.41497,-1.2448883 -0.20749,-0.2074862 -0.82992,-0.2074862 -1.65986,-0.2074862 V 7.0742902 l 4.14968,-0.4149683 V 17.448505 c 0,0.414971 0,0.622457 0.41498,0.622457 0.41495,0.207487 0.82992,0.207487 1.45238,0.207487 v 1.037403 z m 1.03742,-17.4286946 c 0,-0.4149691 0.20749,-0.8299382 0.62244,-1.03742153 0.20748,-0.4149691 0.62246,-0.62245241 1.03742,-0.62245241 0.2075,0 0.41498,0.20748592 0.62246,0.20748592 0.41498,0.20748579 0.41498,0.4149691 0.62246,0.62245232 0.20748,0.2074859 0.20748,0.6224524 0.20748,0.8299381 0,0.4149667 -0.20748,0.6224524 -0.41496,1.0374215 -0.41498,0.4149665 -0.62246,0.4149665 -1.03744,0.4149665 -0.41496,0 -0.82994,0 -1.03742,-0.4149665 -0.41498,-0.4149691 -0.62244,-0.6224548 -0.62244,-1.0374239 z"
         id="path1228" />
      <path
         inkscape:connector-curvature="0"
         style="fill:#000000;fill-opacity:1;fill-rule:nonzero;stroke:none;stroke-width:2.59357309"
         d="M 546.68946,15.788644 V 8.1117115 h -2.48979 V 7.2817764 c 1.24487,0 2.28231,-0.6224545 2.69728,-1.6598759 0.62246,-1.2449048 1.03743,-2.4898099 1.03743,-3.7347171 h 0.62244 v 5.1871068 h 3.94222 v 1.0374213 h -3.94222 v 7.6769325 c 0,0.829918 0.20748,1.452375 0.41496,2.074832 0.41498,0.622459 0.82994,0.829944 1.4524,0.829944 0.62246,0 1.03743,-0.207485 1.4524,-0.829944 0.20749,-0.622457 0.41497,-1.244914 0.41497,-2.074832 v -1.659886 h 0.82995 v 1.659886 c 0,0.622432 -0.20749,1.244889 -0.41497,1.867347 -0.20749,0.622458 -0.62246,1.037429 -1.03743,1.452401 -0.41498,0.414945 -0.82994,0.414945 -1.4524,0.414945 -1.03744,0 -2.07483,-0.207485 -2.69729,-0.829917 -0.62246,-0.829944 -0.82995,-1.659887 -0.82995,-2.904776 z"
         id="path1230" />
      <path
         inkscape:connector-curvature="0"
         style="fill:#000000;fill-opacity:1;fill-rule:nonzero;stroke:none;stroke-width:2.59357309"
         d="m 555.81881,23.880514 c 0.41498,0.414972 0.62246,0.414972 1.03744,0.414972 1.24491,0 2.28234,-0.829943 2.90479,-2.69729 l 1.03744,-2.282318 -4.14973,-10.3742409 c -0.20748,-0.4149463 -0.41496,-0.6224311 -0.82994,-0.8299256 -0.41496,0 -0.82994,0 -1.4524,0 V 7.0742902 h 5.80961 v 1.0374213 c -1.03743,0 -1.4524,0.2074862 -1.4524,0.6224655 0,0 0,0.2074862 0,0.2074862 l 3.11228,7.6769248 2.90481,-7.0544676 c 0,0 0,-0.2074862 0,-0.414971 0,-0.2074862 0,-0.4149463 -0.20749,-0.6224325 -0.20749,-0.2074848 -0.20749,-0.2074848 -0.41497,-0.4149793 -0.20749,0 -0.41497,0 -0.62246,0 V 7.0742902 h 4.56442 v 1.0374213 c -0.62244,0 -1.03716,0 -1.45214,0.4149793 -0.41496,0.2074862 -0.82994,0.6224325 -1.03742,1.0374035 l -4.77217,12.0341017 c -0.41498,0.622457 -0.62246,1.244915 -1.03744,1.867347 -0.20748,0.414971 -0.62245,0.829943 -1.24491,1.244914 -0.41497,0.207487 -1.03743,0.414973 -1.65988,0.414973 -0.62246,0 -1.24492,-0.207486 -1.6599,-0.622459 -0.62244,-0.622457 -0.82994,-1.037428 -0.82994,-1.65986 0,-0.414971 0.2075,-0.829944 0.41498,-1.037429 0.20748,-0.207486 0.41496,-0.414972 0.82994,-0.414972 0.20748,0 0.41496,0.207486 0.62246,0.207486 0.20748,0.207486 0.41496,0.207486 0.41496,0.414971 0.2075,0.207486 0.2075,0.414973 0.2075,0.829944 0,0.207486 -0.2075,0.414946 -0.41498,0.622432 0,0.414971 -0.41498,0.414971 -0.62246,0.414971 z"
         id="path1232" />
      <path
         inkscape:connector-curvature="0"
         style="fill:#000000;fill-opacity:1;fill-rule:nonzero;stroke:none;stroke-width:2.59357309"
         d="m 579.26445,19.315878 c -0.20748,0 -0.20748,-0.207486 -0.20748,-0.414972 0,0 0,-0.207486 0,-0.207486 0,-0.207485 0,-0.207485 0,-0.207485 0.20748,-0.207486 0.20748,-0.207486 0.20748,-0.207486 1.24492,0 2.07486,0 2.48984,-0.207487 0.20748,0 0.41497,-0.207486 0.41497,-0.829943 l 3.94222,-15.5613189 c 0,-0.2074858 0,-0.2074858 0,-0.4149691 0,-0.2074858 -0.20748,-0.2074858 -0.41496,-0.2074858 -0.20748,-0.20748595 -1.03744,-0.20748595 -1.86738,-0.20748595 -0.20748,0 -0.41496,0 -0.41496,-0.41496909 0.20748,-0.20748578 0.20748,-0.41496909 0.20748,-0.41496909 0,-0.20748579 0.20748,-0.20748579 0.41498,-0.20748579 h 7.46947 c 0.2075,0 0.2075,0.20748579 0.2075,0.4149691 0,0 0,0.20748578 0,0.20748578 0,0.20748592 0,0.20748592 -0.2075,0.41496909 0,0 0,0 -0.20748,0 -1.03742,0 -1.86736,0 -2.28234,0.20748595 -0.20748,0 -0.41497,0.4149691 -0.62246,0.8299356 l -1.65989,6.8469907 h 8.50692 l 1.6599,-7.0544767 c 0,-0.2074858 0,-0.2074858 0,-0.4149691 0,-0.2074857 0,-0.2074857 -0.2075,-0.2074857 -0.41496,-0.20748597 -1.03742,-0.20748597 -2.07485,-0.20748597 -0.20749,0 -0.20749,0 -0.20749,-0.41496909 0,-0.20748579 0,-0.4149691 0,-0.4149691 0.20749,-0.20748578 0.20749,-0.20748578 0.41498,-0.20748578 h 7.46949 c 0.20748,0 0.20748,0.20748578 0.20748,0.41496909 0,0 0,0.20748579 0,0.20748579 0,0.20748592 0,0.20748592 0,0.41496909 -0.20748,0 -0.20748,0 -0.20748,0 -1.24492,0 -2.07486,0 -2.48984,0.20748597 -0.20748,0 -0.41497,0.414969 -0.41497,0.8299355 l -3.94222,15.5613185 c 0,0.207486 0,0.207486 0,0.414973 0,0.207486 0.20748,0.207486 0.41496,0.414971 0.2075,0 1.03744,0 1.86738,0 0.20748,0 0.41496,0.207486 0.41496,0.414972 -0.20748,0.207486 -0.20748,0.414971 -0.20748,0.414971 0,0.207486 -0.20748,0.207486 -0.41498,0.207486 h -7.46947 c -0.2075,0 -0.2075,-0.207486 -0.2075,-0.414946 0,-0.207485 0,-0.207485 0,-0.207485 0,-0.207486 0,-0.207486 0.2075,-0.207486 0,-0.207486 0,-0.207486 0.20748,-0.207486 1.03742,0 1.86736,0 2.28234,-0.207487 0.20748,0 0.41497,-0.207484 0.62246,-0.829943 l 1.86737,-7.4694384 h -8.50692 l -1.86738,7.6769244 c 0,0.207486 0,0.414973 0,0.414973 0,0.207484 0,0.207484 0.2075,0.414971 0.41496,0 1.03742,0 2.07485,0 0.20749,0 0.20749,0.207486 0.20749,0.414972 0,0.207485 0,0.414971 0,0.414971 -0.20749,0.207486 -0.20749,0.207486 -0.41498,0.207486 z"
         id="path1234" />
      <path
         inkscape:connector-curvature="0"
         style="fill:#000000;fill-opacity:1;fill-rule:nonzero;stroke:none;stroke-width:2.59357309"
         d="m 612.04696,12.261411 c 0,-0.414971 0,-0.622457 0.20749,-0.829944 0,-0.207486 0.20748,-0.414971 0.41497,-0.622457 0.41497,-0.207486 0.62245,-0.207486 0.82994,-0.207486 0.20749,0 0.62246,0 0.82995,0.207486 0.20748,0.207486 0.41496,0.414971 0.62246,0.622457 0,0.207487 0.20748,0.414973 0.20748,0.829944 0,0.414946 -0.20748,0.622431 -0.62246,1.037403 -0.20748,0.207486 -0.62246,0.414971 -1.03743,0.414971 -0.41497,0 -0.82994,-0.207485 -1.03743,-0.414971 -0.41497,-0.414972 -0.41497,-0.622457 -0.41497,-1.037403 z"
         id="path1236" />
      <path
         inkscape:connector-curvature="0"
         style="fill:#000000;fill-opacity:1;fill-rule:nonzero;stroke:none;stroke-width:2.59357309"
         d="m 624.91109,19.315878 c -0.20749,0 -0.20749,-0.207486 -0.20749,-0.414972 0,0 0,-0.207486 0,-0.207486 0,-0.207485 0,-0.207485 0.20749,-0.207485 0,-0.207486 0,-0.207486 0,-0.207486 1.2449,0 2.07486,0 2.48982,-0.207487 0.20748,0 0.41498,-0.207486 0.62246,-0.829943 l 3.73475,-15.5613163 c 0,-0.207486 0,-0.207486 0,-0.4149691 0,-0.2074859 0,-0.2074859 -0.20748,-0.2074859 -0.41498,-0.20748583 -1.03744,-0.20748583 -2.07487,-0.20748583 -0.20748,0 -0.20748,0 -0.20748,-0.41496649 0,-0.20748592 0,-0.41496909 0,-0.41496909 0,-0.20748592 0.20748,-0.20748592 0.41497,-0.20748592 h 7.46949 c 0.20748,0 0.20748,0.20748592 0.20748,0.41496909 0,0 0,0.20748592 0,0.20748592 0,0.20748579 0,0.20748579 0,0.41496649 -0.20748,0 -0.20748,0 -0.20748,0 -1.24492,0 -2.07486,0 -2.48983,0.20748583 -0.20749,0 -0.41498,0.414969 -0.41498,0.8299381 l -1.65988,6.8469857 h 8.29917 l 1.65989,-7.0544767 c 0,-0.2074858 0.20749,-0.2074858 0.20749,-0.4149691 0,-0.2074857 -0.20749,-0.2074857 -0.41498,-0.2074857 -0.41497,-0.20748597 -1.03742,-0.20748597 -2.07486,-0.20748597 -0.20748,0 -0.20748,0 -0.20748,-0.41496909 0,-0.20748579 0,-0.4149691 0.20748,-0.4149691 0,-0.20748578 0,-0.20748578 0.2075,-0.20748578 h 7.46948 c 0.20749,0 0.41497,0.20748578 0.41497,0.41496909 0,0 0,0.20748579 -0.20748,0.20748579 0,0.20748592 0,0.20748592 0,0.41496909 0,0 -0.20749,0 -0.20749,0 -1.24491,0 -1.86737,0 -2.28235,0.20748597 -0.41496,0 -0.62244,0.414969 -0.62244,0.8299355 l -3.73475,15.5613185 c -0.2075,0.207486 -0.2075,0.207486 -0.2075,0.414973 0,0.207486 0.2075,0.207486 0.41498,0.414971 0.41497,0 1.03743,0 2.07486,0 0,0 0.20749,0.207486 0.20749,0.414972 0,0.207486 -0.20749,0.414971 -0.20749,0.414971 0,0.207486 -0.20749,0.207486 -0.20749,0.207486 h -7.67671 c -0.20749,0 -0.20749,-0.207486 -0.20749,-0.414946 0,-0.207485 0,-0.207485 0,-0.207485 0,-0.207486 0.20749,-0.207486 0.20749,-0.207486 0,-0.207486 0,-0.207486 0.20748,-0.207486 1.03744,0 1.86738,0 2.28208,-0.207487 0.2075,0 0.41498,-0.207484 0.62246,-0.829943 l 1.86738,-7.4694384 h -8.50667 l -1.86736,7.6769244 c 0,0.207486 0,0.414973 0,0.414973 0,0.207484 0,0.207484 0.41496,0.414971 0.2075,0 0.82996,0 1.86738,0 0.20748,0 0.41498,0.207486 0.41498,0.414972 -0.2075,0.207485 -0.2075,0.414971 -0.2075,0.414971 0,0.207486 -0.20748,0.207486 -0.41496,0.207486 z"
         id="path1238" />
      <path
         inkscape:connector-curvature="0"
         style="fill:#000000;fill-opacity:1;fill-rule:nonzero;stroke:none;stroke-width:2.59357309"
         d="m 667.03045,26.370318 c -1.03743,-0.829917 -1.86738,-1.867347 -2.69732,-2.904775 -0.62246,-1.037403 -1.24492,-2.282319 -1.65988,-3.527234 -0.62246,-1.037403 -0.82994,-2.489804 -1.24492,-3.73472 -0.20748,-1.244888 -0.20748,-2.697289 -0.20748,-3.942178 0,-1.452401 0,-2.6973167 0.20748,-4.1496995 0.41498,-1.2449048 0.62246,-2.489811 1.24492,-3.7347158 0.41496,-1.2449051 1.03742,-2.4898123 1.86736,-3.52723383 0.62246,-1.0374215 1.45241,-2.07484287 2.48984,-2.90478107 0,0 0.20749,0 0.20749,0 h 0.20748 c 0.20748,0 0.20748,0 0.20748,0.2074858 0,0 0,0 0,0 0,0.2074859 0,0.2074859 0,0.2074859 -0.82994,1.03742139 -1.65988,1.86735957 -2.28234,2.9047811 -0.62245,1.0374213 -1.03743,2.2823261 -1.45239,3.319747 -0.41498,1.2449075 -0.62246,2.4898123 -0.82996,3.7347281 -0.20748,1.2448883 -0.20748,2.4898043 -0.20748,3.9422043 0,6.017038 1.65988,10.5817 4.77217,13.693963 0,0 0,0 0,0.207485 0,0 0,0 0,0.207486 0,0 -0.20748,0 -0.20748,0 h -0.20748 c 0,0 -0.20749,0 -0.20749,0 z"
         id="path1240" />
      <path
         inkscape:connector-curvature="0"
         style="fill:#000000;fill-opacity:1;fill-rule:nonzero;stroke:none;stroke-width:2.59357309"
         d="m 670.5577,19.315878 c -0.20748,0 -0.20748,-0.207486 -0.20748,-0.414972 0,-0.414971 0.20748,-0.622457 0.20748,-0.622457 0.82995,0 1.45241,-0.207487 2.07487,-0.414973 0.6222,-0.414971 1.03717,-0.829943 1.45214,-1.4524 v 0 l 9.95932,-17.2211879 c 0.20749,-0.2074859 0.41497,-0.2074859 0.62246,-0.2074859 h 0.20748 c 0.20749,0 0.20749,0 0.20749,0 0,0 0.20749,0 0.20749,0.2074859 0,0 0,0 0,0 l 1.65988,18.4661029 c 0,0 0.20748,0.207485 0.20748,0.414971 0.2075,0.207487 0.82994,0.207487 2.07486,0.207487 0.20749,0 0.20749,0.207486 0.20749,0.414971 0,0.207486 0,0.414972 0,0.414972 -0.20749,0.207486 -0.20749,0.207486 -0.41497,0.207486 h -7.05451 c 0,0 -0.2075,-0.207486 -0.2075,-0.414946 0.2075,-0.414972 0.2075,-0.622457 0.41498,-0.622457 1.4524,0 2.28234,-0.207487 2.28234,-0.829944 l -0.41497,-4.564663 h -6.84704 l -2.28234,3.73472 c 0,0.207485 -0.20748,0.414971 -0.20748,0.829943 0,0.207485 0.20748,0.414971 0.41496,0.622457 0.41498,0.207487 0.82996,0.207487 1.24492,0.207487 0,0 0.20748,0.207485 0.20748,0.414971 0,0.207486 -0.20748,0.414972 -0.20748,0.414972 0,0.207485 -0.20748,0.207485 -0.20748,0.207485 z m 7.26175,-7.469438 h 6.22458 l -0.82995,-9.1293184 z"
         id="path1242" />
      <path
         inkscape:connector-curvature="0"
         style="fill:#000000;fill-opacity:1;fill-rule:nonzero;stroke:none;stroke-width:2.59357309"
         d="m 691.9285,25.747887 c 0,0 0,0 0,0 l 9.75183,-27.3879371 c 0,-0.2074859 0,-0.2074859 0,-0.2074859 0.20748,-0.2074858 0.20748,-0.2074858 0.41497,-0.2074858 0.20748,0 0.20748,0 0.41497,0.2074858 0,0 0.20749,0.2074859 0.20749,0.4149691 v 0 L 692.96592,25.95537 c -0.20748,0.414945 -0.41496,0.414945 -0.62246,0.414945 0,0 -0.20748,0 -0.41496,-0.207484 0,0 0,-0.207487 0,-0.414944 z"
         id="path1244" />
      <path
         inkscape:connector-curvature="0"
         style="fill:#000000;fill-opacity:1;fill-rule:nonzero;stroke:none;stroke-width:2.59357309"
         d="m 706.45224,18.900906 c 0,-0.207486 0,-0.207486 0,-0.414971 l 2.07486,-8.5068683 c 0.20748,-0.4149724 0.20748,-0.8299434 0.20748,-1.2448897 0,-0.8299489 -0.20748,-1.2449172 -0.82994,-1.2449172 -0.62246,0 -1.03742,0.4149683 -1.24492,1.037431 -0.4147,0.6224325 -0.6222,1.6598622 -0.82968,2.6972902 0,0 0,0 -0.20748,0.207486 0,0 0,0 0,0 h -0.41498 c 0,0 0,0 -0.20748,-0.207486 0,0 0,0 0,-0.207485 0.20748,-0.829943 0.41498,-1.4524017 0.62246,-2.0748328 0.20748,-0.4149724 0.41496,-1.0374351 0.82968,-1.4524034 0.41498,-0.6224531 0.82994,-0.8299352 1.4524,-0.8299352 0.82994,0 1.4524,0.2074849 1.86737,0.8299352 0.62246,0.4149683 0.82995,0.8299462 0.82995,1.6598635 0.62245,-0.8299173 1.24491,-1.4523773 1.86737,-1.8673469 0.82994,-0.4149697 1.65988,-0.6224518 2.48983,-0.6224518 0.82994,0 1.65988,0.2074849 2.28234,0.8299352 0.62246,0.4149683 0.82994,1.037431 0.82994,1.8673497 0.62246,-0.8299187 1.24492,-1.4523814 2.07487,-1.8673497 0.82994,-0.6224531 1.65988,-0.8299352 2.48982,-0.8299352 1.03744,0 1.86738,0.4149683 2.28235,0.8299352 0.62246,0.6224545 1.03743,1.2449172 1.03743,2.2823207 0,0.8299435 -0.20748,1.6598865 -0.62246,2.9047765 -0.20748,1.037428 -0.62246,2.282344 -1.24492,3.527232 -0.20748,0.829944 -0.41496,1.244916 -0.41496,1.867373 0,0.414973 0.20748,0.829944 0.62246,0.829944 0.82994,0 1.4524,-0.414971 1.86737,-1.244915 0.41497,-0.829943 0.82994,-1.65986 1.03742,-2.489804 0,-0.207486 0.2075,-0.207486 0.2075,-0.207486 h 0.41496 c 0,0 0,0 0.2075,0 0,0.207486 0,0.207486 0,0.207486 0,0 0,0 0,0.207485 -0.2075,1.037404 -0.62246,1.867347 -1.45241,2.904777 -0.62246,0.829943 -1.24492,1.244888 -2.28234,1.244888 -0.62246,0 -1.24492,-0.207485 -1.6599,-0.622431 -0.41496,-0.414971 -0.62245,-1.03743 -0.62245,-1.659887 0,-0.414971 0,-0.622457 0.20749,-1.03743 0.41496,-1.452374 0.82994,-2.697289 1.24492,-3.942178 0.41496,-1.03743 0.62244,-2.074858 0.62244,-2.9048015 0,-0.6224325 -0.20748,-1.0374035 -0.41496,-1.244898 -0.20748,-0.4149682 -0.62246,-0.6224517 -1.03744,-0.6224517 -1.03742,0 -1.86736,0.2074862 -2.69731,0.8299462 -0.62246,0.6224311 -1.24492,1.6598607 -1.86738,2.69729 0,0.207485 0,0.207485 0,0.414971 l -1.86736,7.261953 c 0,0.207486 -0.20749,0.414972 -0.41498,0.622458 -0.20748,0.207485 -0.62245,0.207485 -0.82994,0.207485 -0.20749,0 -0.41497,0 -0.62246,-0.207485 0,0 -0.20749,-0.207486 -0.20749,-0.414972 0,-0.207486 0,-0.207486 0,-0.414971 l 1.86738,-7.261954 c 0.20749,-0.622457 0.20749,-1.2449143 0.20749,-1.8673715 0,-0.6224325 0,-1.0374035 -0.20749,-1.244898 -0.20749,-0.4149682 -0.62246,-0.6224517 -1.03743,-0.6224517 -0.82995,0 -1.4524,0.2074862 -2.07485,0.4149683 -0.41498,0.4149779 -1.03744,0.8299489 -1.4524,1.2448952 -0.41498,0.414971 -0.82995,1.0374297 -1.03744,1.8673727 l -2.0746,7.676924 c 0,0.207486 -0.20748,0.414972 -0.41497,0.622458 -0.20748,0.207485 -0.41497,0.207485 -0.62246,0.207485 -0.20748,0 -0.41497,0 -0.62246,-0.207485 -0.20748,0 -0.20748,-0.207486 -0.20748,-0.414972 z"
         id="path1246" />
      <path
         inkscape:connector-curvature="0"
         style="fill:#000000;fill-opacity:1;fill-rule:nonzero;stroke:none;stroke-width:2.59357309"
         d="m 730.5206,26.370318 c 0,0 -0.20748,0 -0.20748,-0.207486 0,-0.207485 0,-0.207485 0,-0.207485 3.31977,-3.112263 4.77217,-7.676898 4.77217,-13.693962 0,-6.0170355 -1.4524,-10.5816902 -4.56469,-13.9014403 -0.20748,0 -0.20748,0 -0.20748,-0.2074858 0,0 0,0 0.20748,0 0,-0.2074859 0,-0.2074859 0,-0.2074859 h 0.41497 c 0,0 0,0 0,0 1.4524,1.24490727 2.48984,2.48981194 3.31978,3.9422025 1.03742,1.6598738 1.65988,3.3197499 2.07486,4.9796243 0.41496,1.6598635 0.62245,3.5272352 0.62245,5.3945822 0,1.244916 -0.20749,2.48983 -0.41497,3.942206 -0.20748,1.244914 -0.62246,2.489829 -1.03744,3.734719 -0.41496,1.244914 -1.03742,2.489804 -1.86736,3.527233 -0.62246,1.03743 -1.65989,2.074858 -2.69732,2.904775 0,0 0,0 0,0 z"
         id="path1248" />
      <path
         inkscape:connector-curvature="0"
         style="fill:#000000;fill-opacity:1;fill-rule:nonzero;stroke:none;stroke-width:2.59357309"
         d="M 740.6874,8.9416371 V 8.5266908 c 0,0 0,-0.2074848 0,-0.2074848 l 2.90454,-3.3197558 c 0.41498,-0.4149696 0.82995,-0.8299379 1.03744,-1.2449073 0.41497,-0.2074858 0.62245,-0.6224523 0.82994,-1.0374213 0.41497,-0.6224525 0.62246,-1.0374215 0.62246,-1.4523906 0.20749,-0.41496913 0.41497,-0.82993562 0.41497,-1.45239063 0,-0.41496648 -0.20748,-1.03742137 -0.41497,-1.45238787 -0.20749,-0.4149691 -0.41497,-0.8299382 -0.82995,-1.2449073 -0.41497,-0.2074859 -0.82994,-0.4149691 -1.45239,-0.4149691 -0.41498,0 -1.03744,0.2074858 -1.4524,0.6224549 -0.41498,0.2074858 -0.62246,0.6224524 -0.82994,1.2449047 0,0 0,0 0.20748,0 0.20748,0 0.41496,0 0.62246,0.2074859 0.20748,0.2074858 0.41496,0.41496911 0.41496,0.82993821 0,0.20748578 -0.20748,0.62245226 -0.41496,0.82993818 -0.2075,0.20748579 -0.41498,0.20748579 -0.62246,0.20748579 -0.41498,0 -0.6222,0 -0.82968,-0.20748579 -0.2075,-0.20748592 -0.2075,-0.62245501 -0.2075,-0.82993818 0,-0.4149691 0,-1.03742151 0.2075,-1.45239061 0.20748,-0.4149691 0.4147,-0.6224524 0.82968,-1.0374215 0.20748,-0.4149691 0.62246,-0.6224523 1.03742,-0.8299382 0.41498,-0.2074858 0.82994,-0.2074858 1.4524,-0.2074858 0.62246,0 1.24492,0.2074858 1.86738,0.4149691 0.62245,0.4149665 1.24491,0.8299356 1.65989,1.452388 0.20748,0.4149691 0.41496,1.2449073 0.41496,1.86735957 0,0.6224524 0,1.0374215 -0.20748,1.65987393 -0.41498,0.4149691 -0.62246,1.0374213 -1.03742,1.4523904 -0.41498,0.4149691 -0.82995,0.8299382 -1.45241,1.2449076 -0.62246,0.6224517 -1.03743,1.0374213 -1.24492,1.0374213 l -2.07486,2.2823262 h 1.86738 c 0.82994,0 1.65989,0 2.28235,-0.2074862 0.62246,0 0.82994,0 0.82994,0 0.20748,-0.2074862 0.41496,-0.8299379 0.62246,-1.6598731 h 0.41496 l -0.41496,3.3197599 z"
         id="path1250" />
    </g>
  </g>
</svg>
