<?xml version="1.0" encoding="UTF-8" standalone="no"?>
<!-- Created with Inkscape (http://www.inkscape.org/) -->

<svg
   xmlns:dc="http://purl.org/dc/elements/1.1/"
   xmlns:cc="http://creativecommons.org/ns#"
   xmlns:rdf="http://www.w3.org/1999/02/22-rdf-syntax-ns#"
   xmlns:svg="http://www.w3.org/2000/svg"
   xmlns="http://www.w3.org/2000/svg"
   xmlns:sodipodi="http://sodipodi.sourceforge.net/DTD/sodipodi-0.dtd"
   xmlns:inkscape="http://www.inkscape.org/namespaces/inkscape"
   width="520.71515mm"
   height="305.24954mm"
   viewBox="0 0 520.71516 305.24955"
   version="1.1"
   id="svg8"
   inkscape:version="0.92.4 (5da689c313, 2019-01-14)"
   sodipodi:docname="block diagram.svg">
  <defs
     id="defs2">
    <marker
       inkscape:stockid="Arrow1Mend"
       orient="auto"
       refY="0"
       refX="0"
       id="Arrow1Mend"
       style="overflow:visible"
       inkscape:isstock="true">
      <path
         id="path1444"
         d="M 0,0 5,-5 -12.5,0 5,5 Z"
         style="fill:#000000;fill-opacity:1;fill-rule:evenodd;stroke:#000000;stroke-width:1.00000003pt;stroke-opacity:1"
         transform="matrix(-0.4,0,0,-0.4,-4,0)"
         inkscape:connector-curvature="0" />
    </marker>
    <marker
       inkscape:stockid="Arrow1Mstart"
       orient="auto"
       refY="0"
       refX="0"
       id="Arrow1Mstart"
       style="overflow:visible"
       inkscape:isstock="true">
      <path
         id="path1441"
         d="M 0,0 5,-5 -12.5,0 5,5 Z"
         style="fill:#000000;fill-opacity:1;fill-rule:evenodd;stroke:#000000;stroke-width:1.00000003pt;stroke-opacity:1"
         transform="matrix(0.4,0,0,0.4,4,0)"
         inkscape:connector-curvature="0" />
    </marker>
    <marker
       inkscape:stockid="Arrow1Lstart"
       orient="auto"
       refY="0"
       refX="0"
       id="marker3533"
       style="overflow:visible"
       inkscape:isstock="true">
      <path
         id="path3531"
         d="M 0,0 5,-5 -12.5,0 5,5 Z"
         style="fill:#000000;fill-opacity:1;fill-rule:evenodd;stroke:#000000;stroke-width:1.00000003pt;stroke-opacity:1"
         transform="matrix(0.8,0,0,0.8,10,0)"
         inkscape:connector-curvature="0" />
    </marker>
    <marker
       inkscape:isstock="true"
       style="overflow:visible"
       id="marker3409"
       refX="0"
       refY="0"
       orient="auto"
       inkscape:stockid="Arrow1Lend">
      <path
         transform="matrix(-0.8,0,0,-0.8,-10,0)"
         style="fill:#000000;fill-opacity:1;fill-rule:evenodd;stroke:#000000;stroke-width:1.00000003pt;stroke-opacity:1"
         d="M 0,0 5,-5 -12.5,0 5,5 Z"
         id="path3407"
         inkscape:connector-curvature="0" />
    </marker>
    <marker
       inkscape:isstock="true"
       style="overflow:visible"
       id="marker3291"
       refX="0"
       refY="0"
       orient="auto"
       inkscape:stockid="Arrow1Lend">
      <path
         transform="matrix(-0.8,0,0,-0.8,-10,0)"
         style="fill:#000000;fill-opacity:1;fill-rule:evenodd;stroke:#000000;stroke-width:1.00000003pt;stroke-opacity:1"
         d="M 0,0 5,-5 -12.5,0 5,5 Z"
         id="path3289"
         inkscape:connector-curvature="0" />
    </marker>
    <marker
       inkscape:isstock="true"
       style="overflow:visible"
       id="marker3179"
       refX="0"
       refY="0"
       orient="auto"
       inkscape:stockid="Arrow1Lend">
      <path
         transform="matrix(-0.8,0,0,-0.8,-10,0)"
         style="fill:#000000;fill-opacity:1;fill-rule:evenodd;stroke:#000000;stroke-width:1.00000003pt;stroke-opacity:1"
         d="M 0,0 5,-5 -12.5,0 5,5 Z"
         id="path3177"
         inkscape:connector-curvature="0" />
    </marker>
    <marker
       inkscape:isstock="true"
       style="overflow:visible"
       id="marker3073"
       refX="0"
       refY="0"
       orient="auto"
       inkscape:stockid="Arrow1Lend">
      <path
         transform="matrix(-0.8,0,0,-0.8,-10,0)"
         style="fill:#000000;fill-opacity:1;fill-rule:evenodd;stroke:#000000;stroke-width:1.00000003pt;stroke-opacity:1"
         d="M 0,0 5,-5 -12.5,0 5,5 Z"
         id="path3071"
         inkscape:connector-curvature="0" />
    </marker>
    <marker
       inkscape:isstock="true"
       style="overflow:visible"
       id="marker2759"
       refX="0"
       refY="0"
       orient="auto"
       inkscape:stockid="Arrow1Lstart">
      <path
         transform="matrix(0.8,0,0,0.8,10,0)"
         style="fill:#000000;fill-opacity:1;fill-rule:evenodd;stroke:#000000;stroke-width:1.00000003pt;stroke-opacity:1"
         d="M 0,0 5,-5 -12.5,0 5,5 Z"
         id="path2757"
         inkscape:connector-curvature="0" />
    </marker>
    <marker
       inkscape:stockid="Arrow1Lstart"
       orient="auto"
       refY="0"
       refX="0"
       id="marker1806"
       style="overflow:visible"
       inkscape:isstock="true"
       inkscape:collect="always">
      <path
         id="path1804"
         d="M 0,0 5,-5 -12.5,0 5,5 Z"
         style="fill:#000000;fill-opacity:1;fill-rule:evenodd;stroke:#000000;stroke-width:1.00000003pt;stroke-opacity:1"
         transform="matrix(0.8,0,0,0.8,10,0)"
         inkscape:connector-curvature="0" />
    </marker>
    <marker
       inkscape:isstock="true"
       style="overflow:visible"
       id="marker1433"
       refX="0"
       refY="0"
       orient="auto"
       inkscape:stockid="Arrow1Lstart"
       inkscape:collect="always">
      <path
         transform="matrix(0.8,0,0,0.8,10,0)"
         style="fill:#000000;fill-opacity:1;fill-rule:evenodd;stroke:#000000;stroke-width:1.00000003pt;stroke-opacity:1"
         d="M 0,0 5,-5 -12.5,0 5,5 Z"
         id="path1431"
         inkscape:connector-curvature="0" />
    </marker>
    <marker
       inkscape:stockid="Arrow2Lend"
       orient="auto"
       refY="0"
       refX="0"
       id="Arrow2Lend"
       style="overflow:visible"
       inkscape:isstock="true">
      <path
         id="path934"
         style="fill:#000000;fill-opacity:1;fill-rule:evenodd;stroke:#000000;stroke-width:0.625;stroke-linejoin:round;stroke-opacity:1"
         d="M 8.7185878,4.0337352 -2.2072895,0.01601326 8.7185884,-4.0017078 c -1.7454984,2.3720609 -1.7354408,5.6174519 -6e-7,8.035443 z"
         transform="matrix(-1.1,0,0,-1.1,-1.1,0)"
         inkscape:connector-curvature="0" />
    </marker>
    <marker
       inkscape:stockid="Arrow1Lend"
       orient="auto"
       refY="0"
       refX="0"
       id="marker1305"
       style="overflow:visible"
       inkscape:isstock="true">
      <path
         id="path1303"
         d="M 0,0 5,-5 -12.5,0 5,5 Z"
         style="fill:#000000;fill-opacity:1;fill-rule:evenodd;stroke:#000000;stroke-width:1.00000003pt;stroke-opacity:1"
         transform="matrix(-0.8,0,0,-0.8,-10,0)"
         inkscape:connector-curvature="0" />
    </marker>
    <marker
       inkscape:stockid="Arrow1Lstart"
       orient="auto"
       refY="0"
       refX="0"
       id="marker1271"
       style="overflow:visible"
       inkscape:isstock="true">
      <path
         id="path1269"
         d="M 0,0 5,-5 -12.5,0 5,5 Z"
         style="fill:#000000;fill-opacity:1;fill-rule:evenodd;stroke:#000000;stroke-width:1.00000003pt;stroke-opacity:1"
         transform="matrix(0.8,0,0,0.8,10,0)"
         inkscape:connector-curvature="0" />
    </marker>
    <marker
       inkscape:stockid="Arrow1Lend"
       orient="auto"
       refY="0"
       refX="0"
       id="Arrow1Lend"
       style="overflow:visible"
       inkscape:isstock="true">
      <path
         id="path916"
         d="M 0,0 5,-5 -12.5,0 5,5 Z"
         style="fill:#000000;fill-opacity:1;fill-rule:evenodd;stroke:#000000;stroke-width:1.00000003pt;stroke-opacity:1"
         transform="matrix(-0.8,0,0,-0.8,-10,0)"
         inkscape:connector-curvature="0" />
    </marker>
    <marker
       inkscape:isstock="true"
       style="overflow:visible"
       id="marker1433-9"
       refX="0"
       refY="0"
       orient="auto"
       inkscape:stockid="Arrow1Lstart">
      <path
         inkscape:connector-curvature="0"
         transform="matrix(0.8,0,0,0.8,10,0)"
         style="fill:#000000;fill-opacity:1;fill-rule:evenodd;stroke:#000000;stroke-width:1.00000003pt;stroke-opacity:1"
         d="M 0,0 5,-5 -12.5,0 5,5 Z"
         id="path1431-7" />
    </marker>
    <marker
       inkscape:stockid="Arrow1Lstart"
       orient="auto"
       refY="0"
       refX="0"
       id="marker1806-9"
       style="overflow:visible"
       inkscape:isstock="true"
       inkscape:collect="always">
      <path
         inkscape:connector-curvature="0"
         id="path1804-8"
         d="M 0,0 5,-5 -12.5,0 5,5 Z"
         style="fill:#000000;fill-opacity:1;fill-rule:evenodd;stroke:#000000;stroke-width:1.00000003pt;stroke-opacity:1"
         transform="matrix(0.8,0,0,0.8,10,0)" />
    </marker>
    <marker
       inkscape:stockid="Arrow1Lstart"
       orient="auto"
       refY="0"
       refX="0"
       id="marker1806-9-4"
       style="overflow:visible"
       inkscape:isstock="true">
      <path
         inkscape:connector-curvature="0"
         id="path1804-8-0"
         d="M 0,0 5,-5 -12.5,0 5,5 Z"
         style="fill:#000000;fill-opacity:1;fill-rule:evenodd;stroke:#000000;stroke-width:1.00000003pt;stroke-opacity:1"
         transform="matrix(0.8,0,0,0.8,10,0)" />
    </marker>
    <marker
       inkscape:stockid="Arrow1Lstart"
       orient="auto"
       refY="0"
       refX="0"
       id="marker1806-9-8"
       style="overflow:visible"
       inkscape:isstock="true">
      <path
         inkscape:connector-curvature="0"
         id="path1804-8-8"
         d="M 0,0 5,-5 -12.5,0 5,5 Z"
         style="fill:#000000;fill-opacity:1;fill-rule:evenodd;stroke:#000000;stroke-width:1.00000003pt;stroke-opacity:1"
         transform="matrix(0.8,0,0,0.8,10,0)" />
    </marker>
    <marker
       inkscape:stockid="Arrow1Lstart"
       orient="auto"
       refY="0"
       refX="0"
       id="marker3533-1"
       style="overflow:visible"
       inkscape:isstock="true">
      <path
         id="path3531-4"
         d="M 0,0 5,-5 -12.5,0 5,5 Z"
         style="fill:#000000;fill-opacity:1;fill-rule:evenodd;stroke:#000000;stroke-width:1.00000003pt;stroke-opacity:1"
         transform="matrix(0.8,0,0,0.8,10,0)"
         inkscape:connector-curvature="0" />
    </marker>
    <marker
       inkscape:isstock="true"
       style="overflow:visible"
       id="marker3409-5"
       refX="0"
       refY="0"
       orient="auto"
       inkscape:stockid="Arrow1Lend">
      <path
         inkscape:connector-curvature="0"
         transform="matrix(-0.8,0,0,-0.8,-10,0)"
         style="fill:#000000;fill-opacity:1;fill-rule:evenodd;stroke:#000000;stroke-width:1.00000003pt;stroke-opacity:1"
         d="M 0,0 5,-5 -12.5,0 5,5 Z"
         id="path3407-2" />
    </marker>
  </defs>
  <sodipodi:namedview
     id="base"
     pagecolor="#ffffff"
     bordercolor="#666666"
     borderopacity="1.0"
     inkscape:pageopacity="0.0"
     inkscape:pageshadow="2"
     inkscape:zoom="0.86389351"
     inkscape:cx="624.33982"
     inkscape:cy="477.12277"
     inkscape:document-units="mm"
     inkscape:current-layer="layer1"
     showgrid="true"
     fit-margin-top="0"
     fit-margin-left="0"
     fit-margin-right="0"
     fit-margin-bottom="0"
     inkscape:window-width="3200"
     inkscape:window-height="1644"
     inkscape:window-x="-16"
     inkscape:window-y="-16"
     inkscape:window-maximized="1"
     showguides="true">
    <inkscape:grid
       type="xygrid"
       id="grid3657"
       originx="0.29898133"
       originy="0.07100403" />
  </sodipodi:namedview>
  <metadata
     id="metadata5">
    <rdf:RDF>
      <cc:Work
         rdf:about="">
        <dc:format>image/svg+xml</dc:format>
        <dc:type
           rdf:resource="http://purl.org/dc/dcmitype/StillImage" />
        <dc:title></dc:title>
      </cc:Work>
    </rdf:RDF>
  </metadata>
  <g
     inkscape:label="Layer 1"
     inkscape:groupmode="layer"
     id="layer1"
     transform="translate(491.51322,6.6639957)">
    <rect
       style="fill:#2affd5;fill-opacity:1;stroke:#000000;stroke-width:1;stroke-linejoin:round;stroke-miterlimit:10;stroke-dasharray:none;stroke-dashoffset:0;stroke-opacity:1"
       id="rect815"
       width="119.51315"
       height="59.016624"
       x="-387.87152"
       y="30.621325"
       ry="14.511673"
       rx="10.796636" />
    <text
       xml:space="preserve"
       style="font-style:normal;font-weight:normal;font-size:10.58333302px;line-height:1.25;font-family:sans-serif;text-align:center;letter-spacing:0px;word-spacing:0px;text-anchor:middle;fill:#000000;fill-opacity:1;stroke:none;stroke-width:0.26458332"
       x="-331.47186"
       y="50.447811"
       id="text819"><tspan
         sodipodi:role="line"
         x="-331.47186"
         y="50.447811"
         style="text-align:center;text-anchor:middle;stroke-width:0.26458332"
         id="tspan3189">Transducer</tspan><tspan
         sodipodi:role="line"
         x="-329.73553"
         y="63.744919"
         style="font-size:9.87777805px;text-align:center;text-anchor:middle;stroke-width:0.26458332"
         id="tspan2664">（Excitation/Detection </tspan><tspan
         sodipodi:role="line"
         x="-331.47186"
         y="77.04203"
         style="font-size:9.87777805px;text-align:center;text-anchor:middle;stroke-width:0.26458332"
         id="tspan2676">Elements）</tspan></text>
    <rect
       style="fill:#b3b3b3;fill-opacity:1;stroke:#000000;stroke-width:1;stroke-linejoin:round;stroke-miterlimit:10;stroke-dasharray:none;stroke-dashoffset:0;stroke-opacity:1"
       id="rect821"
       width="96.325333"
       height="124.1206"
       x="-219.96397"
       y="-6.1639957" />
    <rect
       style="fill:#2affd5;fill-opacity:1;stroke:#000000;stroke-width:1;stroke-linejoin:round;stroke-miterlimit:10;stroke-dasharray:none;stroke-dashoffset:0;stroke-opacity:1"
       id="rect823"
       width="79.812096"
       height="29.949343"
       x="-211.75128"
       y="-1.8120451" />
    <text
       xml:space="preserve"
       style="font-style:normal;font-weight:normal;font-size:9.93632889px;line-height:1.25;font-family:sans-serif;text-align:center;letter-spacing:0px;word-spacing:0px;text-anchor:middle;fill:#000000;fill-opacity:1;stroke:none;stroke-width:0.24840823"
       x="-182.86513"
       y="8.8962345"
       id="text827"
       transform="scale(0.93886575,1.065115)"><tspan
         sodipodi:role="line"
         id="tspan825"
         x="-181.1185"
         y="8.8962345"
         style="text-align:center;text-anchor:middle;stroke-width:0.24840823">Signal </tspan><tspan
         sodipodi:role="line"
         x="-182.86513"
         y="21.316647"
         style="text-align:center;text-anchor:middle;stroke-width:0.24840823"
         id="tspan854">Conditioning</tspan></text>
    <text
       xml:space="preserve"
       style="font-style:normal;font-weight:normal;font-size:10.58333302px;line-height:1.25;font-family:sans-serif;letter-spacing:0px;word-spacing:0px;fill:#000000;fill-opacity:1;stroke:none;stroke-width:0.26458332"
       x="-132.82083"
       y="38.237499"
       id="text852"><tspan
         sodipodi:role="line"
         id="tspan850"
         x="-132.82083"
         y="47.892994"
         style="stroke-width:0.26458332" /></text>
    <rect
       style="fill:#2affd5;fill-opacity:1;stroke:#000000;stroke-width:1;stroke-linejoin:round;stroke-miterlimit:10;stroke-dasharray:none;stroke-dashoffset:0;stroke-opacity:1"
       id="rect823-9"
       width="79.812096"
       height="29.949343"
       x="-211.6955"
       y="33.023602" />
    <text
       xml:space="preserve"
       style="font-style:normal;font-weight:normal;font-size:9.93632889px;line-height:1.25;font-family:sans-serif;text-align:center;letter-spacing:0px;word-spacing:0px;text-anchor:middle;fill:#000000;fill-opacity:1;stroke:none;stroke-width:0.24840823"
       x="-182.80571"
       y="41.60223"
       id="text827-0"
       transform="scale(0.93886576,1.065115)"><tspan
         sodipodi:role="line"
         id="tspan825-8"
         x="-181.05908"
         y="41.60223"
         style="text-align:center;text-anchor:middle;stroke-width:0.24840823">Signal </tspan><tspan
         sodipodi:role="line"
         x="-182.80571"
         y="54.02264"
         style="text-align:center;text-anchor:middle;stroke-width:0.24840823"
         id="tspan854-0">Conditioning</tspan></text>
    <rect
       style="fill:#2affd5;fill-opacity:1;stroke:#000000;stroke-width:1;stroke-linejoin:round;stroke-miterlimit:10;stroke-dasharray:none;stroke-dashoffset:0;stroke-opacity:1"
       id="rect882"
       width="79.593506"
       height="14.811275"
       x="-211.93214"
       y="67.823639" />
    <text
       xml:space="preserve"
       style="font-style:normal;font-weight:normal;font-size:10.58333302px;line-height:1.25;font-family:sans-serif;text-align:center;letter-spacing:0px;word-spacing:0px;text-anchor:middle;fill:#000000;fill-opacity:1;stroke:none;stroke-width:0.26458332"
       x="-171.97519"
       y="78.464218"
       id="text886"><tspan
         sodipodi:role="line"
         id="tspan884"
         x="-171.97519"
         y="78.464218"
         style="text-align:center;text-anchor:middle;stroke-width:0.26458332">Control/Gain</tspan></text>
    <rect
       style="fill:#e6e6e6;fill-opacity:1;stroke:#000000;stroke-width:1;stroke-linejoin:round;stroke-miterlimit:10;stroke-dasharray:none;stroke-dashoffset:0;stroke-opacity:1"
       id="rect888"
       width="78.771072"
       height="24.796076"
       x="-211.20288"
       y="87.487373" />
    <text
       xml:space="preserve"
       style="font-style:normal;font-weight:normal;font-size:10.58333302px;line-height:1.25;font-family:sans-serif;text-align:center;letter-spacing:0px;word-spacing:0px;text-anchor:middle;fill:#000000;fill-opacity:1;stroke:none;stroke-width:0.26458332"
       x="-171.91295"
       y="97.107803"
       id="text892"><tspan
         sodipodi:role="line"
         id="tspan890"
         x="-170.0526"
         y="97.107803"
         style="text-align:center;text-anchor:middle;stroke-width:0.26458332">Sensor </tspan><tspan
         sodipodi:role="line"
         x="-171.91295"
         y="110.33697"
         style="text-align:center;text-anchor:middle;stroke-width:0.26458332"
         id="tspan894">Interface</tspan></text>
    <rect
       style="fill:#b3b3b3;fill-opacity:1;stroke:#000000;stroke-width:1;stroke-linejoin:round;stroke-miterlimit:10;stroke-dasharray:none;stroke-dashoffset:0;stroke-opacity:1"
       id="rect821-7"
       width="96.325333"
       height="124.1206"
       x="-82.294029"
       y="-6.1639957" />
    <rect
       style="fill:#2affd5;fill-opacity:1;stroke:#000000;stroke-width:1;stroke-linejoin:round;stroke-miterlimit:10;stroke-dasharray:none;stroke-dashoffset:0;stroke-opacity:1"
       id="rect823-2"
       width="79.812096"
       height="29.949343"
       x="-75.008911"
       y="-1.7362584" />
    <text
       xml:space="preserve"
       style="font-style:normal;font-weight:normal;font-size:9.93632889px;line-height:1.25;font-family:sans-serif;text-align:center;letter-spacing:0px;word-spacing:0px;text-anchor:middle;fill:#000000;fill-opacity:1;stroke:none;stroke-width:0.24840823"
       x="-37.429825"
       y="15.204278"
       id="text827-2"
       transform="scale(0.93886576,1.065115)"><tspan
         sodipodi:role="line"
         x="-37.429825"
         y="15.204278"
         style="text-align:center;text-anchor:middle;stroke-width:0.24840823"
         id="tspan854-2">DAC (14 bits)</tspan></text>
    <rect
       style="fill:#2affd5;fill-opacity:1;stroke:#000000;stroke-width:1;stroke-linejoin:round;stroke-miterlimit:10;stroke-dasharray:none;stroke-dashoffset:0;stroke-opacity:1"
       id="rect823-9-0"
       width="79.812096"
       height="29.949343"
       x="-75.008911"
       y="33.099388" />
    <text
       xml:space="preserve"
       style="font-style:normal;font-weight:normal;font-size:9.93632889px;line-height:1.25;font-family:sans-serif;text-align:center;letter-spacing:0px;word-spacing:0px;text-anchor:middle;fill:#000000;fill-opacity:1;stroke:none;stroke-width:0.24840823"
       x="-37.007725"
       y="47.910275"
       id="text827-0-9"
       transform="scale(0.93886576,1.065115)"><tspan
         sodipodi:role="line"
         x="-37.007725"
         y="47.910275"
         style="text-align:center;text-anchor:middle;stroke-width:0.24840823"
         id="tspan854-0-8">ADC (14 bits)</tspan></text>
    <rect
       style="fill:#2affd5;fill-opacity:1;stroke:#000000;stroke-width:1;stroke-linejoin:round;stroke-miterlimit:10;stroke-dasharray:none;stroke-dashoffset:0;stroke-opacity:1"
       id="rect882-1"
       width="79.593513"
       height="14.811275"
       x="-74.899612"
       y="67.899422" />
    <text
       xml:space="preserve"
       style="font-style:normal;font-weight:normal;font-size:10.58333302px;line-height:1.25;font-family:sans-serif;text-align:center;letter-spacing:0px;word-spacing:0px;text-anchor:middle;fill:#000000;fill-opacity:1;stroke:none;stroke-width:0.26458332"
       x="-34.911652"
       y="79.245384"
       id="text886-8"><tspan
         sodipodi:role="line"
         id="tspan884-7"
         x="-34.911652"
         y="79.245384"
         style="text-align:center;text-anchor:middle;stroke-width:0.26458332">Control</tspan></text>
    <rect
       style="fill:#e6e6e6;fill-opacity:1;stroke:#000000;stroke-width:1;stroke-linejoin:round;stroke-miterlimit:10;stroke-dasharray:none;stroke-dashoffset:0;stroke-opacity:1"
       id="rect888-5"
       width="78.771072"
       height="24.796076"
       x="-74.488396"
       y="87.563156" />
    <text
       xml:space="preserve"
       style="font-style:normal;font-weight:normal;font-size:10.58333302px;line-height:1.25;font-family:sans-serif;text-align:center;letter-spacing:0px;word-spacing:0px;text-anchor:middle;fill:#000000;fill-opacity:1;stroke:none;stroke-width:0.26458332"
       x="-34.984005"
       y="96.274078"
       id="text892-1"><tspan
         sodipodi:role="line"
         x="-34.984005"
         y="96.274078"
         style="text-align:center;text-anchor:middle;stroke-width:0.26458332"
         id="tspan1549">Analogue/</tspan><tspan
         sodipodi:role="line"
         x="-34.984005"
         y="109.50324"
         style="text-align:center;text-anchor:middle;stroke-width:0.26458332"
         id="tspan3655">Digital</tspan></text>
    <path
       style="fill:none;stroke:#000000;stroke-width:0.80000001;stroke-linecap:butt;stroke-linejoin:miter;stroke-miterlimit:4;stroke-dasharray:none;stroke-opacity:1;marker-start:url(#marker1806)"
       d="m -266.56297,47.538079 h 45.77292"
       id="path1756"
       inkscape:connector-curvature="0" />
    <path
       style="fill:none;stroke:#000000;stroke-width:0.80000001;stroke-linecap:butt;stroke-linejoin:miter;stroke-miterlimit:4;stroke-dasharray:none;stroke-opacity:1;marker-start:url(#marker1433)"
       d="m -222.56756,66.852662 h -44.18542"
       id="path1760"
       inkscape:connector-curvature="0" />
    <path
       style="fill:none;stroke:#000000;stroke-width:0.66034305;stroke-linecap:butt;stroke-linejoin:miter;stroke-miterlimit:4;stroke-dasharray:none;stroke-opacity:1;marker-start:url(#marker1806-9)"
       d="m -117.85479,13.238413 h 31.18655"
       id="path1756-7"
       inkscape:connector-curvature="0" />
    <path
       style="fill:none;stroke:#000000;stroke-width:0.66034305;stroke-linecap:butt;stroke-linejoin:miter;stroke-miterlimit:4;stroke-dasharray:none;stroke-opacity:1;marker-start:url(#marker1806-9-4)"
       d="m -117.85479,75.305059 h 31.186551"
       id="path1756-7-9"
       inkscape:connector-curvature="0" />
    <path
       style="fill:none;stroke:#000000;stroke-width:0.66034305;stroke-linecap:butt;stroke-linejoin:miter;stroke-miterlimit:4;stroke-dasharray:none;stroke-opacity:1;marker-start:url(#marker1806-9-8)"
       d="M -87.950208,48.074059 H -119.13675"
       id="path1756-7-2"
       inkscape:connector-curvature="0" />
    <rect
       style="fill:#b3b3b3;fill-opacity:1;stroke:#000000;stroke-width:1;stroke-linejoin:round;stroke-miterlimit:4;stroke-dasharray:none;stroke-dashoffset:0;stroke-opacity:1"
       id="rect2678"
       width="336.75656"
       height="131.70448"
       x="-308.05466"
       y="166.38107" />
    <rect
       style="fill:#e6e6e6;fill-opacity:1;stroke:#000000;stroke-width:1;stroke-linejoin:round;stroke-miterlimit:4;stroke-dasharray:none;stroke-dashoffset:0;stroke-opacity:1"
       id="rect2680"
       width="101.02788"
       height="16.83798"
       x="-190.19032"
       y="276.69409" />
    <text
       xml:space="preserve"
       style="font-style:normal;font-weight:normal;font-size:10.58333302px;line-height:1.25;font-family:sans-serif;text-align:center;letter-spacing:0px;word-spacing:0px;text-anchor:middle;fill:#000000;fill-opacity:1;stroke:none;stroke-width:0.26458332"
       x="-139.79005"
       y="287.97595"
       id="text2684"><tspan
         sodipodi:role="line"
         id="tspan2682"
         x="-139.79005"
         y="287.97595"
         style="text-align:center;text-anchor:middle;stroke-width:0.26458332">Zynq 7020 SoC</tspan></text>
    <rect
       style="fill:#e6e6e6;fill-opacity:1;stroke:#000000;stroke-width:0.99679148;stroke-linejoin:round;stroke-miterlimit:4;stroke-dasharray:none;stroke-dashoffset:0;stroke-opacity:1"
       id="rect2686"
       width="114.83237"
       height="87.802208"
       x="-301.99982"
       y="177.74884" />
    <rect
       style="fill:#e6e6e6;fill-opacity:1;stroke:#000000;stroke-width:1;stroke-linejoin:round;stroke-miterlimit:4;stroke-dasharray:none;stroke-dashoffset:0;stroke-opacity:1"
       id="rect2688"
       width="160.96295"
       height="87.799103"
       x="-136.48663"
       y="177.7504" />
    <rect
       style="fill:#2affd5;fill-opacity:1;stroke:#000000;stroke-width:1;stroke-linejoin:round;stroke-miterlimit:4;stroke-dasharray:none;stroke-dashoffset:0;stroke-opacity:1"
       id="rect2690"
       width="96.227142"
       height="28.726395"
       x="-74.678879"
       y="182.47565" />
    <text
       xml:space="preserve"
       style="font-style:normal;font-weight:normal;font-size:10.58333302px;line-height:1.25;font-family:sans-serif;text-align:center;letter-spacing:0px;word-spacing:0px;text-anchor:middle;fill:#000000;fill-opacity:1;stroke:none;stroke-width:0.26458332"
       x="-26.45421"
       y="193.18016"
       id="text2694"><tspan
         sodipodi:role="line"
         x="-26.454208"
         y="193.18016"
         style="text-align:center;text-anchor:middle;stroke-width:0.26458332"
         id="tspan2696">Signal generation</tspan><tspan
         sodipodi:role="line"
         x="-26.45421"
         y="206.40933"
         style="text-align:center;text-anchor:middle;stroke-width:0.26458332"
         id="tspan2698">(DDSs)</tspan></text>
    <rect
       style="fill:#2affd5;fill-opacity:1;stroke:#000000;stroke-width:1;stroke-linejoin:round;stroke-miterlimit:4;stroke-dasharray:none;stroke-dashoffset:0;stroke-opacity:1"
       id="rect2690-9"
       width="51.59375"
       height="28.839582"
       x="-131.38091"
       y="182.41905" />
    <rect
       style="fill:#2affd5;fill-opacity:1;stroke:#000000;stroke-width:1;stroke-linejoin:round;stroke-miterlimit:4;stroke-dasharray:none;stroke-dashoffset:0;stroke-opacity:1"
       id="rect2690-1"
       width="76.190201"
       height="28.670273"
       x="-54.641937"
       y="222.00232" />
    <rect
       style="fill:#2affd5;fill-opacity:1;stroke:#000000;stroke-width:1;stroke-linejoin:round;stroke-miterlimit:4;stroke-dasharray:none;stroke-dashoffset:0;stroke-opacity:1"
       id="rect2690-6"
       width="70.684685"
       height="28.839582"
       x="-131.38091"
       y="221.91766" />
    <text
       xml:space="preserve"
       style="font-style:normal;font-weight:normal;font-size:10.58333302px;line-height:1.25;font-family:sans-serif;text-align:center;letter-spacing:0px;word-spacing:0px;text-anchor:middle;fill:#000000;fill-opacity:1;stroke:none;stroke-width:0.26458332"
       x="-105.69514"
       y="193.18015"
       id="text2729"><tspan
         sodipodi:role="line"
         id="tspan2727"
         x="-105.69514"
         y="193.18015"
         style="text-align:center;text-anchor:middle;stroke-width:0.26458332">Control/</tspan><tspan
         sodipodi:role="line"
         x="-105.69514"
         y="206.40932"
         style="text-align:center;text-anchor:middle;stroke-width:0.26458332"
         id="tspan2731">Utility</tspan></text>
    <text
       xml:space="preserve"
       style="font-style:normal;font-weight:normal;font-size:10.28301334px;line-height:1.25;font-family:sans-serif;text-align:center;letter-spacing:0px;word-spacing:0px;text-anchor:middle;fill:#000000;fill-opacity:1;stroke:none;stroke-width:0.25707531"
       x="-16.856869"
       y="226.94225"
       id="text2735"
       transform="scale(0.97162335,1.0292054)"><tspan
         sodipodi:role="line"
         id="tspan2733"
         x="-16.856869"
         y="226.94225"
         style="text-align:center;text-anchor:middle;stroke-width:0.25707531">IQ</tspan><tspan
         sodipodi:role="line"
         x="-16.856871"
         y="239.79601"
         style="text-align:center;text-anchor:middle;stroke-width:0.25707531"
         id="tspan2737">demodulation</tspan></text>
    <text
       xml:space="preserve"
       style="font-style:normal;font-weight:normal;font-size:10.09733868px;line-height:1.25;font-family:sans-serif;text-align:center;letter-spacing:0px;word-spacing:0px;text-anchor:middle;fill:#000000;fill-opacity:1;stroke:none;stroke-width:0.25243345"
       x="-101.16881"
       y="223.0343"
       id="text2741"
       transform="scale(0.9540793,1.0481309)"><tspan
         sodipodi:role="line"
         id="tspan2739"
         x="-101.16881"
         y="223.0343"
         style="text-align:center;text-anchor:middle;stroke-width:0.25243345">Data Transfer</tspan><tspan
         sodipodi:role="line"
         x="-101.16881"
         y="235.65598"
         style="text-align:center;text-anchor:middle;stroke-width:0.25243345"
         id="tspan2743">DMA</tspan></text>
    <text
       xml:space="preserve"
       style="font-style:normal;font-weight:normal;font-size:10.58333302px;line-height:1.25;font-family:sans-serif;text-align:center;letter-spacing:0px;word-spacing:0px;text-anchor:middle;fill:#000000;fill-opacity:1;stroke:none;stroke-width:0.26458332"
       x="-56.527088"
       y="262.63562"
       id="text2747"><tspan
         sodipodi:role="line"
         id="tspan2745"
         x="-56.527088"
         y="262.63562"
         style="text-align:center;text-anchor:middle;stroke-width:0.26458332">PL</tspan></text>
    <rect
       style="fill:#2affd5;fill-opacity:1;stroke:#000000;stroke-width:1;stroke-linejoin:round;stroke-miterlimit:4;stroke-dasharray:none;stroke-dashoffset:0;stroke-opacity:1"
       id="rect2690-9-6"
       width="51.59375"
       height="28.839582"
       x="-243.82883"
       y="182.41905" />
    <text
       xml:space="preserve"
       style="font-style:normal;font-weight:normal;font-size:10.58333302px;line-height:1.25;font-family:sans-serif;text-align:center;letter-spacing:0px;word-spacing:0px;text-anchor:middle;fill:#000000;fill-opacity:1;stroke:none;stroke-width:0.26458332"
       x="-218.14305"
       y="193.18015"
       id="text2729-1"><tspan
         sodipodi:role="line"
         id="tspan2727-6"
         x="-218.14305"
         y="193.18015"
         style="text-align:center;text-anchor:middle;stroke-width:0.26458332">Control/</tspan><tspan
         sodipodi:role="line"
         x="-218.14305"
         y="206.40932"
         style="text-align:center;text-anchor:middle;stroke-width:0.26458332"
         id="tspan2731-1">Utility</tspan></text>
    <rect
       style="fill:#2affd5;fill-opacity:1;stroke:#000000;stroke-width:1;stroke-linejoin:round;stroke-miterlimit:4;stroke-dasharray:none;stroke-dashoffset:0;stroke-opacity:1"
       id="rect3923"
       width="51.858334"
       height="29.104166"
       x="-244.09341"
       y="221.78537" />
    <text
       xml:space="preserve"
       style="font-style:normal;font-weight:normal;font-size:10.58333302px;line-height:1.25;font-family:sans-serif;text-align:center;letter-spacing:0px;word-spacing:0px;text-anchor:middle;fill:#000000;fill-opacity:1;stroke:none;stroke-width:0.26458332"
       x="-217.9472"
       y="233.49008"
       id="text3927"><tspan
         sodipodi:role="line"
         id="tspan3925"
         x="-217.9472"
         y="233.49008"
         style="text-align:center;text-anchor:middle;stroke-width:0.26458332">DMA</tspan><tspan
         sodipodi:role="line"
         x="-217.9472"
         y="246.71925"
         style="text-align:center;text-anchor:middle;stroke-width:0.26458332"
         id="tspan3929">control</tspan></text>
    <rect
       style="fill:#2affd5;fill-opacity:1;stroke:#000000;stroke-width:1;stroke-linejoin:round;stroke-miterlimit:4;stroke-dasharray:none;stroke-dashoffset:0;stroke-opacity:1"
       id="rect3931"
       width="48.37907"
       height="26.711634"
       x="-298.82248"
       y="204.36246" />
    <text
       xml:space="preserve"
       style="font-style:normal;font-weight:normal;font-size:10.58333302px;line-height:1.25;font-family:sans-serif;text-align:center;letter-spacing:0px;word-spacing:0px;text-anchor:middle;fill:#000000;fill-opacity:1;stroke:none;stroke-width:0.26458332"
       x="-275.0386"
       y="215.04402"
       id="text3935"><tspan
         sodipodi:role="line"
         id="tspan3933"
         x="-275.0386"
         y="215.04402"
         style="text-align:center;text-anchor:middle;stroke-width:0.26458332">Ethernet</tspan><tspan
         sodipodi:role="line"
         x="-275.0386"
         y="228.27319"
         style="text-align:center;text-anchor:middle;stroke-width:0.26458332"
         id="tspan3937">stack</tspan></text>
    <text
       xml:space="preserve"
       style="font-style:normal;font-weight:normal;font-size:10.58333302px;line-height:1.25;font-family:sans-serif;text-align:center;letter-spacing:0px;word-spacing:0px;text-anchor:middle;fill:#000000;fill-opacity:1;stroke:none;stroke-width:0.26458332"
       x="-244.79549"
       y="262.63562"
       id="text3941"><tspan
         sodipodi:role="line"
         id="tspan3939"
         x="-244.79549"
         y="262.63562"
         style="text-align:center;text-anchor:middle;stroke-width:0.26458332">PS</tspan></text>
    <path
       style="fill:none;stroke:#000000;stroke-width:0.7150768;stroke-linecap:butt;stroke-linejoin:miter;stroke-miterlimit:4;stroke-dasharray:none;stroke-opacity:1;marker-start:url(#marker3533-1);marker-end:url(#marker3409-5)"
       d="m -183.71066,196.83884 h 44.39225"
       id="path3853-9"
       inkscape:connector-curvature="0" />
    <rect
       style="fill:#b3b3b3;fill-opacity:1;stroke:#000000;stroke-width:1.02986062;stroke-linejoin:round;stroke-miterlimit:10;stroke-dasharray:none;stroke-dashoffset:0;stroke-opacity:1"
       id="rect821-6"
       width="130.01196"
       height="131.67413"
       x="-490.99829"
       y="166.39624" />
    <rect
       style="fill:#e6e6e6;fill-opacity:1;stroke:#000000;stroke-width:0.85334164;stroke-linejoin:round;stroke-miterlimit:10;stroke-dasharray:none;stroke-dashoffset:0;stroke-opacity:1"
       id="rect888-3"
       width="99.701515"
       height="16.336655"
       x="-475.84305"
       y="276.94476" />
    <text
       xml:space="preserve"
       style="font-style:normal;font-weight:normal;font-size:10.58333302px;line-height:1.25;font-family:sans-serif;text-align:center;letter-spacing:0px;word-spacing:0px;text-anchor:middle;fill:#000000;fill-opacity:1;stroke:none;stroke-width:0.26458332"
       x="-426.29718"
       y="288.96039"
       id="text4356"><tspan
         sodipodi:role="line"
         id="tspan4354"
         x="-426.29718"
         y="288.96039"
         style="text-align:center;text-anchor:middle;stroke-width:0.26458332">PC</tspan></text>
    <g
       id="g4461"
       transform="translate(0,-3.2751837)">
      <rect
         y="176.8062"
         x="-479.25458"
         height="28.41103"
         width="72.707016"
         id="rect823-9-8"
         style="fill:#2affd5;fill-opacity:1;stroke:#000000;stroke-width:1;stroke-linejoin:round;stroke-miterlimit:10;stroke-dasharray:none;stroke-dashoffset:0;stroke-opacity:1" />
      <text
         id="text4375"
         y="187.1799"
         x="-443.02252"
         style="font-style:normal;font-weight:normal;font-size:10.58333302px;line-height:1.25;font-family:sans-serif;text-align:center;letter-spacing:0px;word-spacing:0px;text-anchor:middle;fill:#000000;fill-opacity:1;stroke:none;stroke-width:0.26458332"
         xml:space="preserve"><tspan
           style="text-align:center;text-anchor:middle;stroke-width:0.26458332"
           y="187.1799"
           x="-443.02252"
           id="tspan4373"
           sodipodi:role="line">Data</tspan><tspan
           id="tspan4377"
           style="text-align:center;text-anchor:middle;stroke-width:0.26458332"
           y="200.40907"
           x="-443.02252"
           sodipodi:role="line">display</tspan></text>
      <rect
         y="213.69539"
         x="-479.25458"
         height="18.211721"
         width="72.707024"
         id="rect823-9-8-6"
         style="fill:#2affd5;fill-opacity:1;stroke:#000000;stroke-width:1;stroke-linejoin:round;stroke-miterlimit:10;stroke-dasharray:none;stroke-dashoffset:0;stroke-opacity:1" />
      <text
         id="text4396"
         y="225.72871"
         x="-442.93982"
         style="font-style:normal;font-weight:normal;font-size:10.58333302px;line-height:1.25;font-family:sans-serif;text-align:center;letter-spacing:0px;word-spacing:0px;text-anchor:middle;fill:#000000;fill-opacity:1;stroke:none;stroke-width:0.26458332"
         xml:space="preserve"><tspan
           style="text-align:center;text-anchor:middle;stroke-width:0.26458332"
           y="225.72871"
           x="-442.93982"
           id="tspan4394"
           sodipodi:role="line">Data log</tspan></text>
      <rect
         y="238.33528"
         x="-487.18442"
         height="26.845427"
         width="88.566696"
         id="rect823-9-8-6-2"
         style="fill:#2affd5;fill-opacity:1;stroke:#000000;stroke-width:1;stroke-linejoin:round;stroke-miterlimit:10;stroke-dasharray:none;stroke-dashoffset:0;stroke-opacity:1" />
      <text
         transform="scale(0.98496472,1.0152648)"
         id="text4415"
         y="245.36415"
         x="-449.7713"
         style="font-style:normal;font-weight:normal;font-size:10.42420959px;line-height:1.25;font-family:sans-serif;text-align:center;letter-spacing:0px;word-spacing:0px;text-anchor:middle;fill:#000000;fill-opacity:1;stroke:none;stroke-width:0.26060525"
         xml:space="preserve"><tspan
           style="text-align:center;text-anchor:middle;stroke-width:0.26060525"
           y="245.36415"
           x="-449.7713"
           id="tspan4413"
           sodipodi:role="line">Configuration/</tspan><tspan
           id="tspan4417"
           style="text-align:center;text-anchor:middle;stroke-width:0.26060525"
           y="258.39441"
           x="-449.7713"
           sodipodi:role="line">Control</tspan></text>
    </g>
    <rect
       style="fill:#2affd5;fill-opacity:1;stroke:#000000;stroke-width:1;stroke-linejoin:round;stroke-miterlimit:10;stroke-dasharray:none;stroke-dashoffset:0;stroke-opacity:1"
       id="rect823-9-8-0"
       width="20.470123"
       height="88.409164"
       x="-390.67258"
       y="173.51369" />
    <text
       xml:space="preserve"
       style="font-style:normal;font-weight:normal;font-size:10.58333302px;line-height:1.25;font-family:sans-serif;text-align:center;letter-spacing:0px;word-spacing:0px;writing-mode:tb-rl;text-anchor:middle;fill:#000000;fill-opacity:1;stroke:none;stroke-width:0.26458332"
       x="-381.33694"
       y="220.7679"
       id="text4436"><tspan
         sodipodi:role="line"
         x="220.7679"
         y="-381.33694"
         style="text-align:center;writing-mode:tb-rl;text-anchor:middle;stroke-width:0.26458332"
         id="tspan4438">UDP sockets</tspan></text>
    <flowRoot
       xml:space="preserve"
       id="flowRoot3181"
       style="font-style:normal;font-weight:normal;font-size:40px;line-height:1.25;font-family:sans-serif;letter-spacing:0px;word-spacing:0px;fill:#000000;fill-opacity:1;stroke:none"
       transform="matrix(0.26458333,0,0,0.26458333,-461.19432,-6.8736722)"><flowRegion
         id="flowRegion3183"><rect
           id="rect3185"
           width="173.2191"
           height="100.05824"
           x="391.62579"
           y="180.5383" /></flowRegion><flowPara
         id="flowPara3187" /></flowRoot>    <g
       id="g1248"
       transform="matrix(0.84210524,0,0,0.84210524,-3.5627977,20.257785)">
      <g
         id="g1219">
        <path
           style="fill:none;stroke:#000000;stroke-width:1;stroke-linecap:butt;stroke-linejoin:miter;stroke-miterlimit:4;stroke-dasharray:none;stroke-opacity:1"
           d="m -37.453829,119.9208 -10.583333,11.90625 h 6.614589 v 13.22917"
           id="path1200"
           inkscape:connector-curvature="0"
           sodipodi:nodetypes="cccc" />
        <path
           style="fill:none;stroke:#000000;stroke-width:1;stroke-linecap:round;stroke-linejoin:miter;stroke-miterlimit:4;stroke-dasharray:none;stroke-opacity:1"
           d="m -37.453827,119.9208 10.58334,11.90625 h -6.614586 v 13.22917"
           id="path1200-7"
           inkscape:connector-curvature="0"
           sodipodi:nodetypes="cccc" />
      </g>
      <g
         id="g1219-4"
         transform="matrix(1,0,0,-1,-3.3333345e-7,290.11244)">
        <path
           style="fill:none;stroke:#000000;stroke-width:1;stroke-linecap:butt;stroke-linejoin:miter;stroke-miterlimit:4;stroke-dasharray:none;stroke-opacity:1"
           d="m -37.453829,119.9208 -10.583333,11.90625 h 6.614589 v 13.22917"
           id="path1200-5"
           inkscape:connector-curvature="0"
           sodipodi:nodetypes="cccc" />
        <path
           style="fill:none;stroke:#000000;stroke-width:1;stroke-linecap:round;stroke-linejoin:miter;stroke-miterlimit:4;stroke-dasharray:none;stroke-opacity:1"
           d="m -37.453827,119.9208 10.58334,11.90625 h -6.614586 v 13.22917"
           id="path1200-7-4"
           inkscape:connector-curvature="0"
           sodipodi:nodetypes="cccc" />
      </g>
    </g>
    <g
       id="g1248-3"
       transform="matrix(0,-0.84210525,0.84210525,0,-283.66714,204.79739)">
      <g
         id="g1219-0">
        <path
           style="fill:none;stroke:#000000;stroke-width:1;stroke-linecap:butt;stroke-linejoin:miter;stroke-miterlimit:4;stroke-dasharray:none;stroke-opacity:1"
           d="m -37.453829,119.9208 -10.583333,11.90625 h 6.614589 v 13.22917"
           id="path1200-1"
           inkscape:connector-curvature="0"
           sodipodi:nodetypes="cccc" />
        <path
           style="fill:none;stroke:#000000;stroke-width:1;stroke-linecap:round;stroke-linejoin:miter;stroke-miterlimit:4;stroke-dasharray:none;stroke-opacity:1"
           d="m -37.453827,119.9208 10.58334,11.90625 h -6.614586 v 13.22917"
           id="path1200-7-1"
           inkscape:connector-curvature="0"
           sodipodi:nodetypes="cccc" />
      </g>
      <g
         id="g1219-4-9"
         transform="matrix(1,0,0,-1,-3.3333345e-7,290.11244)">
        <path
           style="fill:none;stroke:#000000;stroke-width:1;stroke-linecap:butt;stroke-linejoin:miter;stroke-miterlimit:4;stroke-dasharray:none;stroke-opacity:1"
           d="m -37.453829,119.9208 -10.583333,11.90625 h 6.614589 v 13.22917"
           id="path1200-5-6"
           inkscape:connector-curvature="0"
           sodipodi:nodetypes="cccc" />
        <path
           style="fill:none;stroke:#000000;stroke-width:1;stroke-linecap:round;stroke-linejoin:miter;stroke-miterlimit:4;stroke-dasharray:none;stroke-opacity:1"
           d="m -37.453827,119.9208 10.58334,11.90625 h -6.614586 v 13.22917"
           id="path1200-7-4-8"
           inkscape:connector-curvature="0"
           sodipodi:nodetypes="cccc" />
      </g>
    </g>
    <g
       id="g1248-3-7"
       transform="matrix(0,-0.84210525,0.84210525,0,-456.74277,186.17821)">
      <g
         id="g1219-0-7">
        <path
           style="fill:none;stroke:#000000;stroke-width:1;stroke-linecap:butt;stroke-linejoin:miter;stroke-miterlimit:4;stroke-dasharray:none;stroke-opacity:1"
           d="m -37.453829,119.9208 -10.583333,11.90625 h 6.614589 v 13.22917"
           id="path1200-1-3"
           inkscape:connector-curvature="0"
           sodipodi:nodetypes="cccc" />
        <path
           style="fill:none;stroke:#000000;stroke-width:1;stroke-linecap:round;stroke-linejoin:miter;stroke-miterlimit:4;stroke-dasharray:none;stroke-opacity:1"
           d="m -37.453827,119.9208 10.58334,11.90625 h -6.614586 v 13.22917"
           id="path1200-7-1-6"
           inkscape:connector-curvature="0"
           sodipodi:nodetypes="cccc" />
      </g>
      <g
         id="g1219-4-9-2"
         transform="matrix(1,0,0,-1,-3.3333345e-7,290.11244)">
        <path
           style="fill:none;stroke:#000000;stroke-width:1;stroke-linecap:butt;stroke-linejoin:miter;stroke-miterlimit:4;stroke-dasharray:none;stroke-opacity:1"
           d="m -37.453829,119.9208 -10.583333,11.90625 h 6.614589 v 13.22917"
           id="path1200-5-6-7"
           inkscape:connector-curvature="0"
           sodipodi:nodetypes="cccc" />
        <path
           style="fill:none;stroke:#000000;stroke-width:1;stroke-linecap:round;stroke-linejoin:miter;stroke-miterlimit:4;stroke-dasharray:none;stroke-opacity:1"
           d="m -37.453827,119.9208 10.58334,11.90625 h -6.614586 v 13.22917"
           id="path1200-7-4-8-9"
           inkscape:connector-curvature="0"
           sodipodi:nodetypes="cccc" />
      </g>
    </g>
  </g>
</svg>
